{
  "width": 190,
  "palette": [
    {
      "saturation": 157,
      "brightness": 211,
      "x": 97,
      "count": 1236,
      "hue": 21,
      "y": 33
    },
    {
      "saturation": 186,
      "brightness": 224,
      "x": 104,
      "count": 1045,
      "hue": 28,
      "y": 64
    },
    {
      "saturation": 207,
      "brightness": 162,
      "x": 96,
      "count": 947,
      "hue": 19,
      "y": 71
    },
    {
      "saturation": 211,
      "brightness": 94,
      "x": 83,
      "count": 624,
      "hue": 19,
      "y": 65
    },
    {
      "saturation": 179,
      "brightness": 37,
      "x": 82,
      "count": 498,
      "hue": 17,
      "y": 85
    },
    {
      "saturation": 174,
      "brightness": 35,
      "x": 89,
      "count": 275,
      "hue": 5,
      "y": 78
    },
    {
      "saturation": 201,
      "brightness": 167,
      "x": 84,
      "count": 220,
      "hue": 27,
      "y": 51
    },
    {
      "saturation": 191,
      "brightness": 36,
      "x": 95,
      "count": 130,
      "hue": 28,
      "y": 83
    },
    {
      "saturation": 86,
      "brightness": 236,
      "x": 100,
      "count": 122,
      "hue": 39,
      "y": 54
    },
    {
      "saturation": 184,
      "brightness": 87,
      "x": 84,
      "count": 121,
      "hue": 8,
      "y": 72
    },
    {
      "saturation": 200,
      "brightness": 89,
      "x": 76,
      "count": 66,
      "hue": 27,
      "y": 55
    },
    {
      "saturation": 129,
      "brightness": 255,
      "x": 90,
      "count": 61,
      "hue": 29,
      "y": 72
    },
    {
      "saturation": 172,
      "brightness": 37,
      "x": 88,
      "count": 46,
      "hue": 249,
      "y": 71
    },
    {
      "saturation": 148,
      "brightness": 24,
      "x": 98,
      "count": 42,
      "hue": 236,
      "y": 88
    },
    {
      "saturation": 47,
      "brightness": 255,
      "x": 77,
      "count": 37,
      "hue": 40,
      "y": 61
    },
    {
      "saturation": 64,
      "brightness": 233,
      "x": 91,
      "count": 36,
      "hue": 6,
      "y": 60
    },
    {
      "saturation": 167,
      "brightness": 158,
      "x": 115,
      "count": 35,
      "hue": 8,
      "y": 70
    },
    {
      "saturation": 177,
      "brightness": 23,
      "x": 79,
      "count": 24,
      "hue": 42,
      "y": 93
    },
    {
      "saturation": 6,
      "brightness": 255,
      "x": 79,
      "count": 24,
      "hue": 219,
      "y": 55
    },
    {
      "saturation": 41,
      "brightness": 255,
      "x": 91,
      "count": 22,
      "hue": 19,
      "y": 57
    },
    {
      "saturation": 6,
      "brightness": 255,
      "x": 85,
      "count": 22,
      "hue": 134,
      "y": 44
    },
    {
      "saturation": 14,
      "brightness": 248,
      "x": 112,
      "count": 21,
      "hue": 51,
      "y": 51
    },
    {
      "saturation": 138,
      "brightness": 24,
      "x": 108,
      "count": 20,
      "hue": 199,
      "y": 81
    },
    {
      "saturation": 25,
      "brightness": 255,
      "x": 87,
      "count": 19,
      "hue": 5,
      "y": 57
    },
    {
      "saturation": 191,
      "brightness": 20,
      "x": 85,
      "count": 19,
      "hue": 53,
      "y": 88
    },
    {
      "saturation": 153,
      "brightness": 20,
      "x": 96,
      "count": 19,
      "hue": 223,
      "y": 80
    },
    {
      "saturation": 150,
      "brightness": 93,
      "x": 124,
      "count": 17,
      "hue": 249,
      "y": 78
    },
    {
      "saturation": 155,
      "brightness": 18,
      "x": 122,
      "count": 15,
      "hue": 189,
      "y": 81
    },
    {
      "saturation": 136,
      "brightness": 15,
      "x": 118,
      "count": 13,
      "hue": 170,
      "y": 83
    },
    {
      "saturation": 159,
      "brightness": 16,
      "x": 110,
      "count": 11,
      "hue": 67,
      "y": 89
    },
    {
      "saturation": 155,
      "brightness": 18,
      "x": 80,
      "count": 11,
      "hue": 154,
      "y": 95
    },
    {
      "saturation": 13,
      "brightness": 255,
      "x": 64,
      "count": 11,
      "hue": 248,
      "y": 40
    },
    {
      "saturation": 151,
      "brightness": 170,
      "x": 37,
      "count": 9,
      "hue": 40,
      "y": 43
    },
    {
      "saturation": 191,
      "brightness": 20,
      "x": 129,
      "count": 9,
      "hue": 164,
      "y": 69
    },
    {
      "saturation": 9,
      "brightness": 255,
      "x": 44,
      "count": 9,
      "hue": 226,
      "y": 59
    },
    {
      "saturation": 12,
      "brightness": 238,
      "x": 67,
      "count": 8,
      "hue": 223,
      "y": 59
    },
    {
      "saturation": 14,
      "brightness": 255,
      "x": 123,
      "count": 7,
      "hue": 66,
      "y": 56
    },
    {
      "saturation": 170,
      "brightness": 15,
      "x": 80,
      "count": 7,
      "hue": 89,
      "y": 93
    },
    {
      "saturation": 145,
      "brightness": 21,
      "x": 85,
      "count": 7,
      "hue": 141,
      "y": 97
    },
    {
      "saturation": 8,
      "brightness": 255,
      "x": 57,
      "count": 7,
      "hue": 143,
      "y": 43
    },
    {
      "saturation": 12,
      "brightness": 255,
      "x": 140,
      "count": 7,
      "hue": 237,
      "y": 35
    },
    {
      "saturation": 21,
      "brightness": 249,
      "x": 95,
      "count": 7,
      "hue": 246,
      "y": 49
    },
    {
      "saturation": 5,
      "brightness": 255,
      "x": 120,
      "count": 6,
      "hue": 170,
      "y": 45
    },
    {
      "saturation": 4,
      "brightness": 253,
      "x": 60,
      "count": 6,
      "hue": 201,
      "y": 65
    },
    {
      "saturation": 218,
      "brightness": 14,
      "x": 80,
      "count": 6,
      "hue": 205,
      "y": 80
    },
    {
      "saturation": 164,
      "brightness": 147,
      "x": 100,
      "count": 6,
      "hue": 250,
      "y": 69
    },
    {
      "saturation": 17,
      "brightness": 248,
      "x": 117,
      "count": 5,
      "hue": 67,
      "y": 69
    },
    {
      "saturation": 145,
      "brightness": 21,
      "x": 124,
      "count": 5,
      "hue": 77,
      "y": 72
    }
  ],
  "height": 126
}