{
  "credits": "a ballade by Rach Lnossonadi",
  "author": "Rach Lnossonadi",
  "plain": "Coming alongside the separatist push in Catalonia - in a hilly corner of Catholic Bavaria - who was known as a hard-line conservative - that ultimately that still remains their objective - Mr Monti calmed the financial markets this year - Europe who has re-invented himself as an outstanding auctioneer - if there were 'sufficient forces - European voters have tended to hold their noses - ",
  "title": "as a hilly corner of Catholic ",
  "type": "ballade",
  "strophen": [
    [
      {
        "originalSentence": "free state in Europe'\nComing alongside the separatist push in Catalonia, the rise of the party has fueled fears that growing political instability will make it harder for Spain to address its economic troubles",
        "emotions": {
          "joy": 0.020343000069260597,
          "sadness": 0.061657000333070755,
          "disgust": 0.20062600076198578,
          "anger": 0.0865740031003952,
          "fear": 0.7889999747276306
        },
        "mainColor": {
          "r": 92,
          "b": 34,
          "g": 61
        },
        "origin": "http://www.nytimes.com/2012/10/21/world/europe/spains-premier-hopes-to-avoid-electoral-setback-on-austerity.html",
        "text": "Coming alongside the separatist push in Catalonia"
      },
      {
        "originalSentence": "This sleepy town not far from the Czech border, in a hilly corner of Catholic Bavaria, is an unlikely place to find an active synagogue, and an even unlikelier focal point for a controversy that some see as a threat to religious tolerance in Europe and even the place of Jews in Germany",
        "emotions": {
          "joy": 0.02754100039601326,
          "sadness": 0.41642698645591736,
          "disgust": 0.7581430077552795,
          "anger": 0.32707399129867554,
          "fear": 0.18833599984645844
        },
        "mainColor": {
          "r": 93,
          "b": 61,
          "g": 75
        },
        "origin": "http://www.nytimes.com/2012/09/20/world/europe/circumcision-debate-in-europe-reflects-deeper-tensions.html",
        "text": "in a hilly corner of Catholic Bavaria"
      },
      {
        "originalSentence": "Nevertheless, it became almost immediately known as the 'Sonnenfeldt doctrine'\nIn the interview, Dr Kissinger said Mr Sonnenfeldt, who was known as a hard-line conservative, meant exactly the opposite: that Eastern European nations would naturally become independent",
        "emotions": {
          "joy": 0.0460829995572567,
          "sadness": 0.34818100929260254,
          "disgust": 0.5727289915084839,
          "anger": 0.2519510090351105,
          "fear": 0.2652300000190735
        },
        "mainColor": {
          "r": 30,
          "b": 30,
          "g": 30
        },
        "origin": "http://www.nytimes.com/2012/11/22/world/helmut-sonnenfeldt-expert-on-soviet-and-european-affairs-is-dead-at-86.html",
        "text": "who was known as a hard-line conservative"
      },
      {
        "originalSentence": "'We're concerned that any time Al Qaeda establishes a base of operations, while they might not have any immediate plans for attacks in the United States and in Europe, that ultimately that still remains their objective,' he said",
        "emotions": {
          "joy": 0.017704999074339867,
          "sadness": 0.19896799325942993,
          "disgust": 0.5232679843902588,
          "anger": 0.2679069936275482,
          "fear": 0.6030359864234924
        },
        "mainColor": {
          "r": 241,
          "b": 215,
          "g": 234
        },
        "origin": "http://www.nytimes.com/2013/01/15/world/france-mali-intervention.html",
        "text": "that ultimately that still remains their objective"
      }
    ],
    [
      {
        "originalSentence": "With the aid of Mario Draghi, president of the European Central Bank, Mr Monti calmed the financial markets this year, but investors and European leaders now worry that many of Mr Monti's",
        "emotions": {
          "joy": 0.11667899787425995,
          "sadness": 0.4723080098628998,
          "disgust": 0.3400770127773285,
          "anger": 0.09933300316333771,
          "fear": 0.26259100437164307
        },
        "mainColor": {
          "r": 164,
          "b": 117,
          "g": 121
        },
        "origin": "http://www.nytimes.com/2012/12/10/world/europe/stage-is-set-for-turmoil-in-italy.html",
        "text": "Mr Monti calmed the financial markets this year"
      },
      {
        "originalSentence": "Europe who has re-invented himself as an outstanding auctioneer",
        "emotions": {
          "joy": 0.1703149974346161,
          "sadness": 0.30022698640823364,
          "disgust": 0.4873239994049072,
          "anger": 0.233147993683815,
          "fear": 0.13338600099086761
        },
        "mainColor": {
          "r": 160,
          "b": 87,
          "g": 118
        },
        "origin": "http://www.nytimes.com/2013/02/16/arts/16iht-melikian16.html",
        "text": "Europe who has re-invented himself as an outstanding auctioneer"
      },
      {
        "originalSentence": "saying its motto was: 'Change Italy, reform Europe'\nMr Monti later told a television interviewer that he would not rule out allowing a centrist grouping to name him as its candidate for prime minister, if there were 'sufficient forces and guarantees of credibility in their commitment' (Under Italian law, parties name their candidate for prime minister before elections)",
        "emotions": {
          "joy": 0.019352000206708908,
          "sadness": 0.23469699919223785,
          "disgust": 0.6188799738883972,
          "anger": 0.33024799823760986,
          "fear": 0.5504630208015442
        },
        "mainColor": {
          "r": 23,
          "b": 17,
          "g": 18
        },
        "origin": "http://www.nytimes.com/2012/12/24/world/europe/monti-wont-run-in-new-elections.html",
        "text": "if there were 'sufficient forces"
      },
      {
        "originalSentence": "Though frustrated, European voters have tended to hold their noses and vote for pro-bailout candidates, as they did in Greece last year when Antonis Samaras eked out a victory over Alexis Tsipras's radical-left Syriza",
        "emotions": {
          "joy": 0.02591400034725666,
          "sadness": 0.4787429869174957,
          "disgust": 0.5307499766349792,
          "anger": 0.41739100217819214,
          "fear": 0.08625800162553787
        },
        "mainColor": {
          "r": 98,
          "b": 204,
          "g": 165
        },
        "origin": "http://www.nytimes.com/2013/02/24/world/europe/ahead-of-cyprus-election-gloom-and-voter-apathy.html",
        "text": "European voters have tended to hold their noses"
      }
    ]
  ]
}