{
  "credits": "a ballade by Amcsco Nbrun",
  "author": "Amcsco Nbrun",
  "plain": "roughly once every two games - many contain correct names - 'Sometimes when you pitch good - who moved to Oregon after retiring from Hollywood - 'I feel strange here sometimes - those who do not are 'sometimes - 'Sometimes you don't exactly have specific targets - Mr Xi has visited army units - ",
  "title": "has visited army units ",
  "type": "ballade",
  "strophen": [
    [
      {
        "originalSentence": "He carried the ball just nine times in the regular season, or roughly once every two games, although he did keep defenses honest as a capable receiver out of the backfield, with 21 catches for 143 yards",
        "emotions": {
          "joy": 0.026514999568462372,
          "sadness": 0.35850998759269714,
          "disgust": 0.7595120072364807,
          "anger": 0.2434310019016266,
          "fear": 0.28290900588035583
        },
        "mainColor": {
          "r": 53,
          "b": 99,
          "g": 45
        },
        "origin": "http://www.nytimes.com/2013/01/12/sports/football/ravens-vonta-leach-masters-fullback-position.html",
        "text": "roughly once every two games"
      },
      {
        "originalSentence": "While Saudi Arabia says some documents were fabricated, many contain correct names and phone numbers, and a number of individuals and associations named in them verified their contents when reached by reporters from The New York Times",
        "emotions": {
          "joy": 0.1535169929265976,
          "sadness": 0.3529280126094818,
          "disgust": 0.6882380247116089,
          "anger": 0.20633800327777863,
          "fear": 0.06275299936532974
        },
        "mainColor": {
          "r": 212,
          "b": 186,
          "g": 203
        },
        "origin": "http://www.nytimes.com/2015/07/17/world/middleeast/wikileaks-saudi-arabia-iran.html",
        "text": "many contain correct names"
      },
      {
        "originalSentence": "'Sometimes when you pitch good, it's",
        "emotions": {
          "joy": 0.2628850042819977,
          "sadness": 0.3687790036201477,
          "disgust": 0.05037799850106239,
          "anger": 0.37423598766326904,
          "fear": 0.14134399592876434
        },
        "mainColor": {
          "r": 106,
          "b": 163,
          "g": 130
        },
        "origin": "http://www.nytimes.com/2013/07/28/sports/baseball/with-jeter-still-sidelined-rays-archer-shuts-out-yankees.html",
        "text": "'Sometimes when you pitch good"
      },
      {
        "originalSentence": "Mr Bennett, who moved to Oregon after retiring from Hollywood, was divorced three times",
        "emotions": {
          "joy": 0.09668400138616562,
          "sadness": 0.42601099610328674,
          "disgust": 0.3032839894294739,
          "anger": 0.3710710108280182,
          "fear": 0.12089099735021591
        },
        "mainColor": {
          "r": 33,
          "b": 33,
          "g": 33
        },
        "origin": "http://www.nytimes.com/2015/03/07/arts/television/harve-bennett-quiz-kid-and-star-trek-producer-dies-at-84.html",
        "text": "who moved to Oregon after retiring from Hollywood"
      }
    ],
    [
      {
        "originalSentence": "'I feel strange here sometimes, maybe because of my head scarf,'",
        "emotions": {
          "joy": 0.1639380007982254,
          "sadness": 0.42767399549484253,
          "disgust": 0.05640000104904175,
          "anger": 0.5769580006599426,
          "fear": 0.3737249970436096
        },
        "mainColor": {
          "r": 144,
          "b": 121,
          "g": 154
        },
        "origin": "http://www.nytimes.com/2015/09/25/world/volunteers-many-once-refugees-themselves-help-as-guides-in-vienna.html",
        "text": "'I feel strange here sometimes"
      },
      {
        "originalSentence": "While those who meet expectations often find their way, he said, those who do not are 'sometimes",
        "emotions": {
          "joy": 0.23450499773025513,
          "sadness": 0.11559800058603287,
          "disgust": 0.5540509819984436,
          "anger": 0.2139739990234375,
          "fear": 0.2605389952659607
        },
        "mainColor": {
          "r": 28,
          "b": 8,
          "g": 4
        },
        "origin": "http://www.nytimes.com/2015/03/19/sports/more-nigerian-americans-are-reaching-highest-levels-of-sports.html",
        "text": "those who do not are 'sometimes"
      },
      {
        "originalSentence": "'Sometimes you don't exactly have specific targets, and you have to see your shots before you hit them",
        "emotions": {
          "joy": 0.17321500182151794,
          "sadness": 0.23316699266433716,
          "disgust": 0.40972700715065,
          "anger": 0.3865639865398407,
          "fear": 0.24724799394607544
        },
        "mainColor": {
          "r": 16,
          "b": 11,
          "g": 11
        },
        "origin": "http://www.nytimes.com/2015/07/15/sports/golf/for-rickie-fowler-and-jordan-spieth-opposite-approaches-to-british-open.html",
        "text": "'Sometimes you don't exactly have specific targets"
      },
      {
        "originalSentence": "Since succeeding Mr Hu as party chief and military chairman in November, Mr Xi has visited army units or met commanders and troops at least nine times, according to state news reports",
        "emotions": {
          "joy": 0.38241899013519287,
          "sadness": 0.2963080108165741,
          "disgust": 0.2390259951353073,
          "anger": 0.13845600187778473,
          "fear": 0.32315799593925476
        },
        "mainColor": {
          "r": 223,
          "b": 16,
          "g": 31
        },
        "origin": "http://www.nytimes.com/2013/03/04/world/asia/xi-jinping-chinese-leader-burnishing-his-military-support.html",
        "text": "Mr Xi has visited army units"
      }
    ]
  ]
}