{
  "credits": "a ballade by Sonhen Rele",
  "author": "Sonhen Rele",
  "plain": "the head of Germany's domestic intelligence service - After the ugly circus - will keep her other job - dumbest id of the rock snob - which means 'street child - Wednesday on NatGeo Wild - rise had 'taken everyone by surprise - she could do so without diminishing the size - ",
  "title": "After the rock snob rise hadtaken ",
  "type": "ballade",
  "strophen": [
    [
      {
        "originalSentence": "But Hans-Georg Maassen, the head of Germany's domestic intelligence service, said last week that cooperation with Washington could suffer",
        "emotions": {
          "joy": 0.1707800030708313,
          "sadness": 0.3496229946613312,
          "disgust": 0.4442780017852783,
          "anger": 0.13891099393367767,
          "fear": 0.2929669916629791
        },
        "mainColor": {
          "r": 80,
          "b": 47,
          "g": 95
        },
        "origin": "http://www.nytimes.com/2015/05/22/world/europe/intelligence-spying-germany-us.html",
        "text": "the head of Germany's domestic intelligence service"
      },
      {
        "originalSentence": "After the ugly circus and arrests in Zurich last week, we got the game back over the weekend",
        "emotions": {
          "joy": 0.17884500324726105,
          "sadness": 0.4313110113143921,
          "disgust": 0.2979159951210022,
          "anger": 0.16719099879264832,
          "fear": 0.06286600232124329
        },
        "mainColor": {
          "r": 132,
          "b": 63,
          "g": 150
        },
        "origin": "http://www.nytimes.com/2015/06/01/sports/soccer/messi-and-arsenal-remind-us-what-soccer-is-all-about.html",
        "text": "After the ugly circus"
      },
      {
        "originalSentence": "Despite her bump in pay, Thomas, like many referees, will keep her other job, in pharmaceutical sales, during the season ' in part because she and her husband are raising three children",
        "emotions": {
          "joy": 0.05598299950361252,
          "sadness": 0.38294801115989685,
          "disgust": 0.7389500141143799,
          "anger": 0.17923499643802643,
          "fear": 0.1293330043554306
        },
        "mainColor": {
          "r": 135,
          "b": 85,
          "g": 162
        },
        "origin": "http://www.nytimes.com/2015/08/03/sports/football/jen-welter-is-teaching-men-and-girls-as-nfls-first-female-coach.html",
        "text": "will keep her other job"
      },
      {
        "originalSentence": "In another, he imagines a baroque bit of sexual violence committed by Jimi Hendrix against Debbie Gibson, tapping into the darkest and dumbest id of the rock snob",
        "emotions": {
          "joy": 0.028673000633716583,
          "sadness": 0.4095740020275116,
          "disgust": 0.4914790093898773,
          "anger": 0.19742000102996826,
          "fear": 0.3645699918270111
        },
        "mainColor": {
          "r": 14,
          "b": 8,
          "g": 23
        },
        "origin": "http://www.nytimes.com/2015/04/27/arts/bill-hicks-revived-on-video-to-jar-viewers-out-of-apathy.html",
        "text": "dumbest id of the rock snob"
      }
    ],
    [
      {
        "originalSentence": "which means 'street child,'",
        "emotions": {
          "joy": 0.3672170042991638,
          "sadness": 0.11173299700021744,
          "disgust": 0.4735740125179291,
          "anger": 0.1308789998292923,
          "fear": 0.11780700087547302
        },
        "mainColor": {
          "r": 95,
          "b": 95,
          "g": 95
        },
        "origin": "http://www.nytimes.com/2015/05/31/arts/music/new-albums-feature-mbongwana-star-karen-dalton-covers-and-zella-day.html",
        "text": "which means 'street child"
      },
      {
        "originalSentence": "Wednesday on NatGeo Wild",
        "emotions": {
          "joy": 0.3101249933242798,
          "sadness": 0.24575300514698029,
          "disgust": 0.17665700614452362,
          "anger": 0.1619260013103485,
          "fear": 0.2436390072107315
        },
        "mainColor": {
          "r": 69,
          "b": 104,
          "g": 84
        },
        "origin": "http://www.nytimes.com/2015/04/18/arts/television/on-tv-ecological-themes-for-a-small-planet.html",
        "text": "Wednesday on NatGeo Wild"
      },
      {
        "originalSentence": "rise had 'taken everyone by surprise,'",
        "emotions": {
          "joy": 0.29557299613952637,
          "sadness": 0.20626699924468994,
          "disgust": 0.1683419942855835,
          "anger": 0.14395199716091156,
          "fear": 0.2855750024318695
        },
        "mainColor": {
          "r": 25,
          "b": 9,
          "g": 9
        },
        "origin": "http://www.nytimes.com/2015/09/12/world/europe/jeremy-corbyn-labour-party-leader-britain.html",
        "text": "rise had 'taken everyone by surprise"
      },
      {
        "originalSentence": "And given the capabilities of her Epson 11880 64-inch inkjet printer, she could do so without diminishing the size or quality of her photos",
        "emotions": {
          "joy": 0.10327199846506119,
          "sadness": 0.4356279969215393,
          "disgust": 0.3666900098323822,
          "anger": 0.21311399340629578,
          "fear": 0.12479999661445618
        },
        "mainColor": {
          "r": 211,
          "b": 193,
          "g": 205
        },
        "origin": "http://www.nytimes.com/2015/03/19/arts/artsspecial/so-print-is-dying-dont-tell-the-megazine.html",
        "text": "she could do so without diminishing the size"
      }
    ]
  ]
}