{
  "credits": "a ballade by Ricab Rgoo",
  "author": "Ricab Rgoo",
  "plain": "were outrebounded by the Wildcats - 'He'll tell you stats - 'The agreement is a victory to Iran's foreign policy - With an ebullient personality - but a very limited one - That class of players currently numbers none - Tanzanian wildlife officials withdrew his research permit - to annoy them a little bit' - ",
  "title": "an ebullient personality to annoy ",
  "type": "ballade",
  "strophen": [
    [
      {
        "originalSentence": "The Utes, who had won seven games in a row, were outrebounded by the Wildcats, 40-19",
        "emotions": {
          "joy": 0.07615800201892853,
          "sadness": 0.35106900334358215,
          "disgust": 0.5321670174598694,
          "anger": 0.22694799304008484,
          "fear": 0.15778300166130066
        },
        "mainColor": {
          "r": 158,
          "b": 86,
          "g": 116
        },
        "origin": "http://www.nytimes.com/2015/01/19/sports/ncaabasketball/this-weeks-college-basketball-games-to-watch.html",
        "text": "were outrebounded by the Wildcats"
      },
      {
        "originalSentence": "'He'll tell you stats",
        "emotions": {
          "joy": 0.271014004945755,
          "sadness": 0.21149399876594543,
          "disgust": 0.13819099962711334,
          "anger": 0.4452410042285919,
          "fear": 0.19346900284290314
        },
        "mainColor": {
          "r": 169,
          "b": 169,
          "g": 169
        },
        "origin": "http://www.nytimes.com/2015/03/24/sports/baseball/pete-roses-statistics-4256-hits-and-a-big-error.html",
        "text": "'He'll tell you stats"
      },
      {
        "originalSentence": "'The agreement is a victory to Iran's foreign policy,' said Hakim al-Zamili, a lawmaker from the party of the anti-American Shiite cleric, Moktada al-Sadr",
        "emotions": {
          "joy": 0.14976400136947632,
          "sadness": 0.2768479883670807,
          "disgust": 0.506784975528717,
          "anger": 0.24091899394989014,
          "fear": 0.19455699622631073
        },
        "mainColor": {
          "r": 158,
          "b": 95,
          "g": 136
        },
        "origin": "http://www.nytimes.com/2015/04/04/world/middleeast/arab-world-adjusts-to-shift-in-us-iran-relations.html",
        "text": "'The agreement is a victory to Iran's foreign policy"
      },
      {
        "originalSentence": "With an ebullient personality, a knack for recruiting and a four-year record of 87-47, Ron might draw interest from programs that offer more resources and better pay",
        "emotions": {
          "joy": 0.5400689840316772,
          "sadness": 0.18637600541114807,
          "disgust": 0.27339598536491394,
          "anger": 0.14839200675487518,
          "fear": 0.1824900060892105
        },
        "mainColor": {
          "r": 8,
          "b": 6,
          "g": 6
        },
        "origin": "http://www.nytimes.com/2015/03/31/sports/ncaabasketball/father-stays-on-sideline-as-georgia-states-rj-hunter-enters-the-nba-draft.html",
        "text": "With an ebullient personality"
      }
    ],
    [
      {
        "originalSentence": "Sporadic patrols by armed soldiers constitute a check, but a very limited one, say the experts",
        "emotions": {
          "joy": 0.029232999309897423,
          "sadness": 0.533266007900238,
          "disgust": 0.13669300079345703,
          "anger": 0.6074270009994507,
          "fear": 0.28840601444244385
        },
        "mainColor": {
          "r": 161,
          "b": 124,
          "g": 147
        },
        "origin": "http://www.nytimes.com/2015/08/24/world/europe/europe-ponders-terror-threat-to-soft-targets.html",
        "text": "but a very limited one"
      },
      {
        "originalSentence": "That class of players currently numbers none",
        "emotions": {
          "joy": 0.048337001353502274,
          "sadness": 0.44223999977111816,
          "disgust": 0.5872290134429932,
          "anger": 0.21360599994659424,
          "fear": 0.2570430040359497
        },
        "mainColor": {
          "r": 9,
          "b": 25,
          "g": 16
        },
        "origin": "http://www.nytimes.com/2015/03/04/sports/soccer/mls-facing-possible-strike-finds-labor-strife-at-its-door.html",
        "text": "That class of players currently numbers none"
      },
      {
        "originalSentence": "But in 2014, Tanzanian wildlife officials withdrew his research permit, accusing him of 'tarnishing the image of the Government of Tanzania'",
        "emotions": {
          "joy": 0.011781999841332436,
          "sadness": 0.562699019908905,
          "disgust": 0.7459579706192017,
          "anger": 0.10242100059986115,
          "fear": 0.27261000871658325
        },
        "mainColor": {
          "r": 132,
          "b": 163,
          "g": 144
        },
        "origin": "http://www.nytimes.com/2015/12/29/science/lions-hunting-africa-craig-packer.html",
        "text": "Tanzanian wildlife officials withdrew his research permit"
      },
      {
        "originalSentence": "At the same time, I want to be at my best when that happens, and compete and see what I can still do, maybe, to annoy them a little bit'\nWhat Haas wants is to have the perfect finish to his career",
        "emotions": {
          "joy": 0.24039499461650848,
          "sadness": 0.38575899600982666,
          "disgust": 0.23813499510288239,
          "anger": 0.22797800600528717,
          "fear": 0.040688998997211456
        },
        "mainColor": {
          "r": 127,
          "b": 72,
          "g": 143
        },
        "origin": "http://www.nytimes.com/2015/06/17/sports/tennis/at-37-tommy-haas-hopes-to-make-the-most-of-latest-comeback.html",
        "text": "to annoy them a little bit'"
      }
    ]
  ]
}