{
  "credits": "a ballade by Minridiaa Spur",
  "author": "Minridiaa Spur",
  "plain": "A three-time Pro Bowler - setting up his partner - fast/die young/leave a good-looking corpse types - in dissolving gender stereotypes - But the band has also become a name brand - backed by his current band - that showed large-scale dredging of sand - backed by his current band - lyrics on the album - maintaining the political system - backing to potentially host the 2024 Summer Games - the long list of Hall of Fame names - But the band has also become a name brand - backed by his current band - that showed large-scale dredging of sand - backed by his current band - that's what's being talked about - 'Why don't you cut the bottom out'''' - that 'FIFA will take swift - 'It's like God gave us a gift - ",
  "title": "dissolving gender stereotypes maintaining the band ",
  "type": "ballade",
  "strophen": [
    [
      {
        "originalSentence": "A three-time Pro Bowler, Graham scored 51 touchdowns in five seasons for the New Orleans Saints",
        "emotions": {
          "joy": 0.5305870175361633,
          "sadness": 0.31311100721359253,
          "disgust": 0.22624899446964264,
          "anger": 0.10194899886846542,
          "fear": 0.0867689996957779
        },
        "mainColor": {
          "r": 225,
          "b": 246,
          "g": 234
        },
        "origin": "http://www.nytimes.com/2015/09/28/sports/football/seattle-seahawks-chicago-bears-marshawn-lynch.html",
        "text": "A three-time Pro Bowler"
      },
      {
        "originalSentence": "setting up his partner and knowing what to do when his partner sets him up '",
        "emotions": {
          "joy": 0.1198510006070137,
          "sadness": 0.48564499616622925,
          "disgust": 0.20972099900245667,
          "anger": 0.20612899959087372,
          "fear": 0.23149000108242035
        },
        "mainColor": {
          "r": 14,
          "b": 24,
          "g": 12
        },
        "origin": "http://www.nytimes.com/2015/04/08/sports/ncaabasketball/after-duke-wisconsin-crowded-cbs-booth-has-room-for-improvement.html",
        "text": "setting up his partner"
      },
      {
        "originalSentence": "fast/die young/leave a good-looking corpse types,''' Belushi says",
        "emotions": {
          "joy": 0.044110000133514404,
          "sadness": 0.5480070114135742,
          "disgust": 0.4618139863014221,
          "anger": 0.26077499985694885,
          "fear": 0.1045060008764267
        },
        "mainColor": {
          "r": 55,
          "b": 148,
          "g": 98
        },
        "origin": "http://www.nytimes.com/2015/02/17/arts/television/the-snl-40th-anniversary-show-very-funny-except-when-it-wasnt.html",
        "text": "fast/die young/leave a good-looking corpse types"
      },
      {
        "originalSentence": "slyly revels in sexual ambiguity and in dissolving gender stereotypes, with both performers singing numbers associated with the opposite sex",
        "emotions": {
          "joy": 0.2865599989891052,
          "sadness": 0.16371400654315948,
          "disgust": 0.48125800490379333,
          "anger": 0.1105009987950325,
          "fear": 0.09104099869728088
        },
        "mainColor": {
          "r": 4,
          "b": 24,
          "g": 1
        },
        "origin": "http://www.nytimes.com/2015/07/20/arts/music/review-another-hundred-people-digs-into-stephen-sondheims-catalog.html",
        "text": "in dissolving gender stereotypes"
      }
    ],
    [
      {
        "originalSentence": "But the band has also become a name brand, a mark of quality: Last year the Time Jumpers appeared on Miranda Lambert's No 1 album 'Platinum'",
        "emotions": {
          "joy": 0.05093900114297867,
          "sadness": 0.5772619843482971,
          "disgust": 0.21874399483203888,
          "anger": 0.2826539874076843,
          "fear": 0.36392900347709656
        },
        "mainColor": {
          "r": 23,
          "b": 88,
          "g": 35
        },
        "origin": "http://www.nytimes.com/2015/10/23/arts/music/the-time-jumpers-country-swing-standard-bearers-thrive-in-nashville.html",
        "text": "But the band has also become a name brand"
      },
      {
        "originalSentence": "This is all a way for a perennial performer, at 56, to stay spontaneous and casual, backed by his current band, 3rdeyegirl, and horns and keyboards as needed",
        "emotions": {
          "joy": 0.28780800104141235,
          "sadness": 0.3485249876976013,
          "disgust": 0.3268130123615265,
          "anger": 0.15094999969005585,
          "fear": 0.10017099976539612
        },
        "mainColor": {
          "r": 38,
          "b": 90,
          "g": 1
        },
        "origin": "http://www.nytimes.com/2015/05/12/arts/music/review-prince-royal-farms-arena-baltimore.html",
        "text": "backed by his current band"
      },
      {
        "originalSentence": "After Mr Carter spoke, the Center for Strategic and International Studies, a Washington research group, released images of Mischief Reef, also in the Spratly archipelago, that showed large-scale dredging of sand and coral to create land mass on what had been a partly submerged reef",
        "emotions": {
          "joy": 0.2734510004520416,
          "sadness": 0.1581140011548996,
          "disgust": 0.5614190101623535,
          "anger": 0.16788099706172943,
          "fear": 0.3181549906730652
        },
        "mainColor": {
          "r": 12,
          "b": 98,
          "g": 72
        },
        "origin": "http://www.nytimes.com/2015/04/17/world/asia/china-building-airstrip-in-disputed-spratly-islands-satellite-images-show.html",
        "text": "that showed large-scale dredging of sand"
      },
      {
        "originalSentence": "This is all a way for a perennial performer, at 56, to stay spontaneous and casual, backed by his current band, 3rdeyegirl, and horns and keyboards as needed",
        "emotions": {
          "joy": 0.28780800104141235,
          "sadness": 0.3485249876976013,
          "disgust": 0.3268130123615265,
          "anger": 0.15094999969005585,
          "fear": 0.10017099976539612
        },
        "mainColor": {
          "r": 38,
          "b": 90,
          "g": 1
        },
        "origin": "http://www.nytimes.com/2015/05/12/arts/music/review-prince-royal-farms-arena-baltimore.html",
        "text": "backed by his current band"
      }
    ],
    [
      {
        "originalSentence": "He wrote all of the music and lyrics on the album, a Wallflowers-esque collection that vacillates between cleareyed ruminations on love and loss and wry sociocultural observations",
        "emotions": {
          "joy": 0.5802950263023376,
          "sadness": 0.282382994890213,
          "disgust": 0.046500999480485916,
          "anger": 0.1266690045595169,
          "fear": 0.24021799862384796
        },
        "mainColor": {
          "r": 106,
          "b": 85,
          "g": 94
        },
        "origin": "http://www.nytimes.com/2015/05/24/arts/television/david-duchovny-returns-with-a-new-series-and-the-x-files.html",
        "text": "lyrics on the album"
      },
      {
        "originalSentence": "With the national security law, it has become even clearer that the term refers to what Chinese leaders see as three sacrosanct rights of the nation: maintaining the political system, with unquestioned rule by the Communist Party; defending sovereignty claims and territorial integrity; and economic development",
        "emotions": {
          "joy": 0.04088100045919418,
          "sadness": 0.20725399255752563,
          "disgust": 0.7668610215187073,
          "anger": 0.17140300571918488,
          "fear": 0.34226199984550476
        },
        "mainColor": {
          "r": 75,
          "b": 170,
          "g": 115
        },
        "origin": "http://www.nytimes.com/2015/07/03/world/asia/security-law-suggests-a-broadening-of-chinas-core-interests.html",
        "text": "maintaining the political system"
      },
      {
        "originalSentence": "backing to potentially host the 2024 Summer Games,'",
        "emotions": {
          "joy": 0.32295501232147217,
          "sadness": 0.43677499890327454,
          "disgust": 0.10865200310945511,
          "anger": 0.1783050000667572,
          "fear": 0.12081500142812729
        },
        "mainColor": {
          "r": 182,
          "b": 206,
          "g": 198
        },
        "origin": "http://www.nytimes.com/2015/05/30/sports/olympics/details-uncovered-in-bostons-2024-olympic-bid-may-put-it-in-jeopardy.html",
        "text": "backing to potentially host the 2024 Summer Games"
      },
      {
        "originalSentence": "or the same history, the long list of Hall of Fame names, and only one other Yankee",
        "emotions": {
          "joy": 0.10114900022745132,
          "sadness": 0.4418320059776306,
          "disgust": 0.5352519750595093,
          "anger": 0.14935900270938873,
          "fear": 0.212117001414299
        },
        "mainColor": {
          "r": 156,
          "b": 86,
          "g": 97
        },
        "origin": "http://www.nytimes.com/2015/05/09/sports/baseball/alex-rodriguez-sets-sights-on-3000-hits-and-a-spot-besidederek-jeter.html",
        "text": "the long list of Hall of Fame names"
      }
    ],
    [
      {
        "originalSentence": "But the band has also become a name brand, a mark of quality: Last year the Time Jumpers appeared on Miranda Lambert's No 1 album 'Platinum'",
        "emotions": {
          "joy": 0.05093900114297867,
          "sadness": 0.5772619843482971,
          "disgust": 0.21874399483203888,
          "anger": 0.2826539874076843,
          "fear": 0.36392900347709656
        },
        "mainColor": {
          "r": 23,
          "b": 88,
          "g": 35
        },
        "origin": "http://www.nytimes.com/2015/10/23/arts/music/the-time-jumpers-country-swing-standard-bearers-thrive-in-nashville.html",
        "text": "But the band has also become a name brand"
      },
      {
        "originalSentence": "This is all a way for a perennial performer, at 56, to stay spontaneous and casual, backed by his current band, 3rdeyegirl, and horns and keyboards as needed",
        "emotions": {
          "joy": 0.28780800104141235,
          "sadness": 0.3485249876976013,
          "disgust": 0.3268130123615265,
          "anger": 0.15094999969005585,
          "fear": 0.10017099976539612
        },
        "mainColor": {
          "r": 38,
          "b": 90,
          "g": 1
        },
        "origin": "http://www.nytimes.com/2015/05/12/arts/music/review-prince-royal-farms-arena-baltimore.html",
        "text": "backed by his current band"
      },
      {
        "originalSentence": "After Mr Carter spoke, the Center for Strategic and International Studies, a Washington research group, released images of Mischief Reef, also in the Spratly archipelago, that showed large-scale dredging of sand and coral to create land mass on what had been a partly submerged reef",
        "emotions": {
          "joy": 0.2734510004520416,
          "sadness": 0.1581140011548996,
          "disgust": 0.5614190101623535,
          "anger": 0.16788099706172943,
          "fear": 0.3181549906730652
        },
        "mainColor": {
          "r": 12,
          "b": 98,
          "g": 72
        },
        "origin": "http://www.nytimes.com/2015/04/17/world/asia/china-building-airstrip-in-disputed-spratly-islands-satellite-images-show.html",
        "text": "that showed large-scale dredging of sand"
      },
      {
        "originalSentence": "This is all a way for a perennial performer, at 56, to stay spontaneous and casual, backed by his current band, 3rdeyegirl, and horns and keyboards as needed",
        "emotions": {
          "joy": 0.28780800104141235,
          "sadness": 0.3485249876976013,
          "disgust": 0.3268130123615265,
          "anger": 0.15094999969005585,
          "fear": 0.10017099976539612
        },
        "mainColor": {
          "r": 38,
          "b": 90,
          "g": 1
        },
        "origin": "http://www.nytimes.com/2015/05/12/arts/music/review-prince-royal-farms-arena-baltimore.html",
        "text": "backed by his current band"
      }
    ],
    [
      {
        "originalSentence": "'For 2017, it may be that we need to give it a bit of a nudge, and that's what's being talked about,'",
        "emotions": {
          "joy": 0.17907099425792694,
          "sadness": 0.249222993850708,
          "disgust": 0.14859600365161896,
          "anger": 0.28867799043655396,
          "fear": 0.42149901390075684
        },
        "mainColor": {
          "r": 208,
          "b": 167,
          "g": 193
        },
        "origin": "http://www.nytimes.com/2015/05/22/sports/autoracing/monacos-enduring-legacy-by-the-sea.html",
        "text": "that's what's being talked about"
      },
      {
        "originalSentence": "physical education teacher had the idea: 'Why don't you cut the bottom out''''\nRyan paused for effect and added, 'I always say women are credited with the fast break'",
        "emotions": {
          "joy": 0.029516000300645828,
          "sadness": 0.36194300651550293,
          "disgust": 0.660319983959198,
          "anger": 0.565205991268158,
          "fear": 0.19732999801635742
        },
        "mainColor": {
          "r": 5,
          "b": 4,
          "g": 4
        },
        "origin": "http://www.nytimes.com/2015/02/16/sports/ncaabasketball/bo-ryan-is-weaned-to-win-in-wisconsin.html",
        "text": "'Why don't you cut the bottom out''''"
      },
      {
        "originalSentence": "(Adidas) and that 'FIFA will take swift and immediate steps toward addressing the issues within its organization to quickly rebuild a culture with strong ethical practices'",
        "emotions": {
          "joy": 0.2526479959487915,
          "sadness": 0.16981500387191772,
          "disgust": 0.24923500418663025,
          "anger": 0.1393669992685318,
          "fear": 0.4148299992084503
        },
        "mainColor": {
          "r": 175,
          "b": 91,
          "g": 80
        },
        "origin": "http://www.nytimes.com/2015/06/03/sports/soccer/sponsors-react-meekly-to-sepp-blatters-resignation.html",
        "text": "that 'FIFA will take swift"
      },
      {
        "originalSentence": "'It's like God gave us a gift, a place to stand guard,' said Hayat, 40, whose seven older children watch her toddler while she is at Al Aqsa",
        "emotions": {
          "joy": 0.14492399990558624,
          "sadness": 0.16475099325180054,
          "disgust": 0.5430750250816345,
          "anger": 0.07785800099372864,
          "fear": 0.39504799246788025
        },
        "mainColor": {
          "r": 19,
          "b": 16,
          "g": 16
        },
        "origin": "http://www.nytimes.com/2015/04/17/world/middleeast/palestinian-women-join-effort-to-keep-jews-from-contested-holy-site.html",
        "text": "'It's like God gave us a gift"
      }
    ]
  ]
}