{
  "credits": "a ballade by Yhol Rpenn",
  "author": "Yhol Rpenn",
  "plain": "But the Brooklyn Academy - the founder of Hong Kong's Democratic Party - with their better-equipped minds - appears projected on a backdrop of adjustable blinds - 'We're not taking anything for granted - they were the last at-large team selected - no story was needed - they were the last at-large team selected - He gave the impression of someone who was docile - Ms Bickley's care is understandable - That is harder to address for a composer - On Saturday at the Joyce Theater - 'We're not taking anything for granted - they were the last at-large team selected - no story was needed - they were the last at-large team selected - even a hint of homoerotic manipulation on Iago's part - the new Whitney makes a promising start - so hopefully this will settle the offensive line down - a hotel owner in the town - ",
  "title": "He gave the Brooklyn Academy ",
  "type": "ballade",
  "strophen": [
    [
      {
        "originalSentence": "But the Brooklyn Academy, just across the way from the company's headquarters, still has a special place in the dancers'",
        "emotions": {
          "joy": 0.17572399973869324,
          "sadness": 0.3228299915790558,
          "disgust": 0.42416900396347046,
          "anger": 0.14490999281406403,
          "fear": 0.1374569982290268
        },
        "mainColor": {
          "r": 3,
          "b": 34,
          "g": 1
        },
        "origin": "http://www.nytimes.com/2015/04/12/arts/dance/mark-morriss-spring-spring-spring-heads-to-brooklyn-academy-of-music.html",
        "text": "But the Brooklyn Academy"
      },
      {
        "originalSentence": "'I speak for lots of Democrats,' said Martin Lee, the founder of Hong Kong's Democratic Party, who helped put together Hong Kong's mini-constitution, called the Basic Law",
        "emotions": {
          "joy": 0.06451400369405746,
          "sadness": 0.4345870018005371,
          "disgust": 0.4357979893684387,
          "anger": 0.34742701053619385,
          "fear": 0.18482600152492523
        },
        "mainColor": {
          "r": 19,
          "b": 32,
          "g": 25
        },
        "origin": "http://www.nytimes.com/2015/06/26/world/asia/with-beijings-voting-plan-dead-hong-kong-looks-for-way-forward.html",
        "text": "the founder of Hong Kong's Democratic Party"
      },
      {
        "originalSentence": "We, I dare say, paved the way for the next generation of women, with their better-equipped minds, to drive their freedoms",
        "emotions": {
          "joy": 0.2052379995584488,
          "sadness": 0.2529670000076294,
          "disgust": 0.22271999716758728,
          "anger": 0.11156000196933746,
          "fear": 0.33306699991226196
        },
        "mainColor": {
          "r": 101,
          "b": 63,
          "g": 87
        },
        "origin": "http://www.nytimes.com/2015/04/08/world/middleeast/iran-our-man-in-tehran.html",
        "text": "with their better-equipped minds"
      },
      {
        "originalSentence": "appears projected on a backdrop of adjustable blinds, as does the floral pattern of an onstage lawn chair",
        "emotions": {
          "joy": 0.05528799816966057,
          "sadness": 0.22525399923324585,
          "disgust": 0.5152170062065125,
          "anger": 0.3727389872074127,
          "fear": 0.2512669861316681
        },
        "mainColor": {
          "r": 2,
          "b": 12,
          "g": 1
        },
        "origin": "http://www.nytimes.com/2015/07/10/arts/dance/review-alan-smithee-directed-this-play-at-jacobs-pillow-blends-three-films-in-dance.html",
        "text": "appears projected on a backdrop of adjustable blinds"
      }
    ],
    [
      {
        "originalSentence": "'We're not taking anything for granted,'",
        "emotions": {
          "joy": 0.0734729990363121,
          "sadness": 0.2618260085582733,
          "disgust": 0.2224539965391159,
          "anger": 0.2565769851207733,
          "fear": 0.3859640061855316
        },
        "mainColor": {
          "r": 46,
          "b": 93,
          "g": 68
        },
        "origin": "http://www.nytimes.com/2015/07/23/sports/baseball/andrew-miller-gives-yankees-a-spark-a-year-after-his-jolting-trade.html",
        "text": "'We're not taking anything for granted"
      },
      {
        "originalSentence": "Instead, they were the last at-large team selected, leaving them to survive the play-in game",
        "emotions": {
          "joy": 0.15220500528812408,
          "sadness": 0.4777210056781769,
          "disgust": 0.2968110144138336,
          "anger": 0.49194100499153137,
          "fear": 0.11760199815034866
        },
        "mainColor": {
          "r": 17,
          "b": 10,
          "g": 10
        },
        "origin": "http://www.nytimes.com/2015/03/19/sports/ncaabasketball/dayton-relishes-role-as-a-longtime-tournament-host.html",
        "text": "they were the last at-large team selected"
      },
      {
        "originalSentence": "was created (1908-9), no story was needed: The curtain rises on a plotless reverie '",
        "emotions": {
          "joy": 0.12591899931430817,
          "sadness": 0.2993449866771698,
          "disgust": 0.32327398657798767,
          "anger": 0.16325700283050537,
          "fear": 0.35776400566101074
        },
        "mainColor": {
          "r": 14,
          "b": 9,
          "g": 13
        },
        "origin": "http://www.nytimes.com/2015/05/04/arts/dance/city-ballet-to-present-la-sylphide-a-romantic-ballet-standard.html",
        "text": "no story was needed"
      },
      {
        "originalSentence": "Instead, they were the last at-large team selected, leaving them to survive the play-in game",
        "emotions": {
          "joy": 0.15220500528812408,
          "sadness": 0.4777210056781769,
          "disgust": 0.2968110144138336,
          "anger": 0.49194100499153137,
          "fear": 0.11760199815034866
        },
        "mainColor": {
          "r": 17,
          "b": 10,
          "g": 10
        },
        "origin": "http://www.nytimes.com/2015/03/19/sports/ncaabasketball/dayton-relishes-role-as-a-longtime-tournament-host.html",
        "text": "they were the last at-large team selected"
      }
    ],
    [
      {
        "originalSentence": "He gave the impression of someone who was docile and detached",
        "emotions": {
          "joy": 0.10024599730968475,
          "sadness": 0.09638699889183044,
          "disgust": 0.5322759747505188,
          "anger": 0.4087879955768585,
          "fear": 0.19131700694561005
        },
        "mainColor": {
          "r": 92,
          "b": 41,
          "g": 45
        },
        "origin": "http://www.nytimes.com/2015/11/04/sports/baseball/washington-nationals-hire-dusty-baker-as-manager.html",
        "text": "He gave the impression of someone who was docile"
      },
      {
        "originalSentence": "Ms Bickley's care is understandable, since she is the nearest to a seasoned veteran on the cast list",
        "emotions": {
          "joy": 0.29647600650787354,
          "sadness": 0.4570930004119873,
          "disgust": 0.35705798864364624,
          "anger": 0.12955400347709656,
          "fear": 0.11925199627876282
        },
        "mainColor": {
          "r": 15,
          "b": 29,
          "g": 14
        },
        "origin": "http://www.nytimes.com/2015/01/17/arts/music/a-new-orfeo-steps-off-the-pedestal.html",
        "text": "Ms Bickley's care is understandable"
      },
      {
        "originalSentence": "That is harder to address for a composer,'",
        "emotions": {
          "joy": 0.07336100190877914,
          "sadness": 0.36105599999427795,
          "disgust": 0.458081990480423,
          "anger": 0.26485300064086914,
          "fear": 0.1869560033082962
        },
        "mainColor": {
          "r": 7,
          "b": 3,
          "g": 6
        },
        "origin": "http://www.nytimes.com/2015/12/23/arts/international/singing-shakespeare-400-years-after-his-death.html",
        "text": "That is harder to address for a composer"
      },
      {
        "originalSentence": "On Saturday at the Joyce Theater, this Swedish choreographer and filmmaker offered two impressions of his intimate, emotional vision in companion pieces",
        "emotions": {
          "joy": 0.33542200922966003,
          "sadness": 0.2472199946641922,
          "disgust": 0.36537501215934753,
          "anger": 0.14383600652217865,
          "fear": 0.13591499626636505
        },
        "mainColor": {
          "r": 19,
          "b": 19,
          "g": 19
        },
        "origin": "http://www.nytimes.com/2015/06/10/arts/dance/review-pontus-lidberg-dance-a-swirl-of-choreography-and-even-puppets-at-the-joyce-theater.html",
        "text": "On Saturday at the Joyce Theater"
      }
    ],
    [
      {
        "originalSentence": "'We're not taking anything for granted,'",
        "emotions": {
          "joy": 0.0734729990363121,
          "sadness": 0.2618260085582733,
          "disgust": 0.2224539965391159,
          "anger": 0.2565769851207733,
          "fear": 0.3859640061855316
        },
        "mainColor": {
          "r": 46,
          "b": 93,
          "g": 68
        },
        "origin": "http://www.nytimes.com/2015/07/23/sports/baseball/andrew-miller-gives-yankees-a-spark-a-year-after-his-jolting-trade.html",
        "text": "'We're not taking anything for granted"
      },
      {
        "originalSentence": "Instead, they were the last at-large team selected, leaving them to survive the play-in game",
        "emotions": {
          "joy": 0.15220500528812408,
          "sadness": 0.4777210056781769,
          "disgust": 0.2968110144138336,
          "anger": 0.49194100499153137,
          "fear": 0.11760199815034866
        },
        "mainColor": {
          "r": 17,
          "b": 10,
          "g": 10
        },
        "origin": "http://www.nytimes.com/2015/03/19/sports/ncaabasketball/dayton-relishes-role-as-a-longtime-tournament-host.html",
        "text": "they were the last at-large team selected"
      },
      {
        "originalSentence": "was created (1908-9), no story was needed: The curtain rises on a plotless reverie '",
        "emotions": {
          "joy": 0.12591899931430817,
          "sadness": 0.2993449866771698,
          "disgust": 0.32327398657798767,
          "anger": 0.16325700283050537,
          "fear": 0.35776400566101074
        },
        "mainColor": {
          "r": 14,
          "b": 9,
          "g": 13
        },
        "origin": "http://www.nytimes.com/2015/05/04/arts/dance/city-ballet-to-present-la-sylphide-a-romantic-ballet-standard.html",
        "text": "no story was needed"
      },
      {
        "originalSentence": "Instead, they were the last at-large team selected, leaving them to survive the play-in game",
        "emotions": {
          "joy": 0.15220500528812408,
          "sadness": 0.4777210056781769,
          "disgust": 0.2968110144138336,
          "anger": 0.49194100499153137,
          "fear": 0.11760199815034866
        },
        "mainColor": {
          "r": 17,
          "b": 10,
          "g": 10
        },
        "origin": "http://www.nytimes.com/2015/03/19/sports/ncaabasketball/dayton-relishes-role-as-a-longtime-tournament-host.html",
        "text": "they were the last at-large team selected"
      }
    ],
    [
      {
        "originalSentence": "Confining these two singers to that bed ratcheted up the tension by introducing unlikely intimacy, even a hint of homoerotic manipulation on Iago's part, into the encounter",
        "emotions": {
          "joy": 0.012210999615490437,
          "sadness": 0.1921440064907074,
          "disgust": 0.8009290099143982,
          "anger": 0.24930700659751892,
          "fear": 0.463809996843338
        },
        "mainColor": {
          "r": 93,
          "b": 24,
          "g": 3
        },
        "origin": "http://www.nytimes.com/2015/09/23/arts/music/review-metropolitan-operas-new-otello-bold-and-tentative.html",
        "text": "even a hint of homoerotic manipulation on Iago's part"
      },
      {
        "originalSentence": "With the move, the new Whitney makes a promising start",
        "emotions": {
          "joy": 0.4011729955673218,
          "sadness": 0.19750699400901794,
          "disgust": 0.14074300229549408,
          "anger": 0.12443999946117401,
          "fear": 0.2793320119380951
        },
        "mainColor": {
          "r": 218,
          "b": 147,
          "g": 178
        },
        "origin": "http://www.nytimes.com/2015/04/24/arts/design/review-new-whitney-museums-first-show-america-is-hard-to-see.html",
        "text": "the new Whitney makes a promising start"
      },
      {
        "originalSentence": "'We think this can help solidify the offensive line, so hopefully this will settle the offensive line down and we don't have to keep talking about the offensive line as much",
        "emotions": {
          "joy": 0.012866999953985214,
          "sadness": 0.2979460060596466,
          "disgust": 0.6542900204658508,
          "anger": 0.5537970066070557,
          "fear": 0.16976700723171234
        },
        "mainColor": {
          "r": 140,
          "b": 89,
          "g": 153
        },
        "origin": "http://www.nytimes.com/2015/05/01/sports/football/giants-draft-ereck-flowers-not-the-offensive-lineman-they-wanted.html",
        "text": "so hopefully this will settle the offensive line down"
      },
      {
        "originalSentence": "They had arrived by motorcycle and four-wheel-drive vehicle and were staying at a small budget hotel on the edge of the city, according to Mahane Toure, a hotel owner in the town",
        "emotions": {
          "joy": 0.14535099267959595,
          "sadness": 0.34708601236343384,
          "disgust": 0.23032300174236298,
          "anger": 0.27549898624420166,
          "fear": 0.24700500071048737
        },
        "mainColor": {
          "r": 31,
          "b": 42,
          "g": 39
        },
        "origin": "http://www.nytimes.com/2015/04/07/world/africa/french-commando-raid-in-mali-frees-dutch-captive.html",
        "text": "a hotel owner in the town"
      }
    ]
  ]
}