{
  "credits": "a ballade by Ansi Manuck",
  "author": "Ansi Manuck",
  "plain": "'So when Shannon said - you soon know the mathematical permutations that lie ahead - Over the past year - as he shared anecdotes from his career - Ms Del Rey sounds lonely here - is celebrating its 20th anniversary this year - was a generous collaborator throughout his expansive jazz career - is celebrating its 20th anniversary this year - the 2014 Kentucky Derby - better known in jazz circles as Tootie - In addition to funding - 'You have to apologize' He's cursing - Ms Del Rey sounds lonely here - is celebrating its 20th anniversary this year - was a generous collaborator throughout his expansive jazz career - is celebrating its 20th anniversary this year - Had the play not worked - you'll feel like you're being overworked - the official Palestinian news agency - featuring the Sub Pop stars Mudhoney - ",
  "title": "Kentucky Derby was a generous ",
  "type": "ballade",
  "strophen": [
    [
      {
        "originalSentence": "'So when Shannon said, 'You're going to have the best year of your career in your senior year,'",
        "emotions": {
          "joy": 0.27814000844955444,
          "sadness": 0.3658140003681183,
          "disgust": 0.2782039940357208,
          "anger": 0.09330900013446808,
          "fear": 0.20111499726772308
        },
        "mainColor": {
          "r": 58,
          "b": 101,
          "g": 76
        },
        "origin": "http://www.nytimes.com/2015/05/03/sports/star-lacrosse-players-move-from-midfielder-to-attacker-raises-her-profile-and-hofstras.html",
        "text": "'So when Shannon said"
      },
      {
        "originalSentence": "When most choreographers bring on a supporting ensemble, you soon know the mathematical permutations that lie ahead",
        "emotions": {
          "joy": 0.3220280110836029,
          "sadness": 0.4214780032634735,
          "disgust": 0.2952579855918884,
          "anger": 0.1599310040473938,
          "fear": 0.23323200643062592
        },
        "mainColor": {
          "r": 5,
          "b": 51,
          "g": 29
        },
        "origin": "http://www.nytimes.com/2015/01/24/arts/dance/city-ballet-revives-three-pieces-in-repertory.html",
        "text": "you soon know the mathematical permutations that lie ahead"
      },
      {
        "originalSentence": "Over the past year and a half, officials have been slowly unveiling an ambitious plan to create a new urban cluster of 130 million people that would be the size of Kansas or Belarus",
        "emotions": {
          "joy": 0.09029600024223328,
          "sadness": 0.4390389919281006,
          "disgust": 0.47832098603248596,
          "anger": 0.14731599390506744,
          "fear": 0.2115889936685562
        },
        "mainColor": {
          "r": 218,
          "b": 185,
          "g": 192
        },
        "origin": "http://www.nytimes.com/2015/06/26/world/asia/china-aims-to-move-beijing-government-out-of-citys-crowded-core.html",
        "text": "Over the past year"
      },
      {
        "originalSentence": "impeccably rehearsed remarks seemed geared toward aspiring ballet stars, as he shared anecdotes from his career and lavished praise on his colleagues",
        "emotions": {
          "joy": 0.4209519922733307,
          "sadness": 0.19908300042152405,
          "disgust": 0.41867899894714355,
          "anger": 0.11298099905252457,
          "fear": 0.04472099989652634
        },
        "mainColor": {
          "r": 3,
          "b": 8,
          "g": 5
        },
        "origin": "http://www.nytimes.com/2015/04/20/arts/dance/review-david-hallberg-presents-legacy-at-the-koch-theater.html",
        "text": "as he shared anecdotes from his career"
      }
    ],
    [
      {
        "originalSentence": "Ms Del Rey sounds lonely here, and fine with that",
        "emotions": {
          "joy": 0.1579899936914444,
          "sadness": 0.3667680025100708,
          "disgust": 0.31421300768852234,
          "anger": 0.17970600724220276,
          "fear": 0.1554879993200302
        },
        "mainColor": {
          "r": 180,
          "b": 224,
          "g": 209
        },
        "origin": "http://www.nytimes.com/2015/09/18/arts/music/review-lana-del-rey-honeymoon.html",
        "text": "Ms Del Rey sounds lonely here"
      },
      {
        "originalSentence": "'We think technology is very important, and we want to work with artists who use it in a sophisticated way,' said Patrizia Sandretto Re Rebaudengo, whose private foundation, specializing in video and digital works by younger artists, is celebrating its 20th anniversary this year",
        "emotions": {
          "joy": 0.21350699663162231,
          "sadness": 0.34219399094581604,
          "disgust": 0.2441300004720688,
          "anger": 0.24439099431037903,
          "fear": 0.15565800666809082
        },
        "mainColor": {
          "r": 215,
          "b": 212,
          "g": 214
        },
        "origin": "http://www.nytimes.com/2015/04/20/arts/international/auctioning-the-relics-of-technology-pioneers.html",
        "text": "is celebrating its 20th anniversary this year"
      },
      {
        "originalSentence": "The bassist Charlie Haden, who died last year at 76, was a generous collaborator throughout his expansive jazz career, sowing seeds of deep melody and pliable rapport among several generations of fellow musicians",
        "emotions": {
          "joy": 0.16565799713134766,
          "sadness": 0.533689022064209,
          "disgust": 0.40145498514175415,
          "anger": 0.10274100303649902,
          "fear": 0.1265919953584671
        },
        "mainColor": {
          "r": 19,
          "b": 90,
          "g": 57
        },
        "origin": "http://www.nytimes.com/2015/01/11/arts/music/a-memorial-for-a-jazz-great.html",
        "text": "was a generous collaborator throughout his expansive jazz career"
      },
      {
        "originalSentence": "'We think technology is very important, and we want to work with artists who use it in a sophisticated way,' said Patrizia Sandretto Re Rebaudengo, whose private foundation, specializing in video and digital works by younger artists, is celebrating its 20th anniversary this year",
        "emotions": {
          "joy": 0.21350699663162231,
          "sadness": 0.34219399094581604,
          "disgust": 0.2441300004720688,
          "anger": 0.24439099431037903,
          "fear": 0.15565800666809082
        },
        "mainColor": {
          "r": 215,
          "b": 212,
          "g": 214
        },
        "origin": "http://www.nytimes.com/2015/04/20/arts/international/auctioning-the-relics-of-technology-pioneers.html",
        "text": "is celebrating its 20th anniversary this year"
      }
    ],
    [
      {
        "originalSentence": "Rae Guest took over the interim training of California Chrome, the 2014 Kentucky Derby and Preakness Stakes champion, when the colt arrived in Newmarket, although Sherman remained the trainer of record",
        "emotions": {
          "joy": 0.31242498755455017,
          "sadness": 0.2624399960041046,
          "disgust": 0.37110498547554016,
          "anger": 0.20410999655723572,
          "fear": 0.2545669972896576
        },
        "mainColor": {
          "r": 138,
          "b": 78,
          "g": 135
        },
        "origin": "http://www.nytimes.com/2015/06/18/sports/california-chromes-overseas-trip-hits-a-detour.html",
        "text": "the 2014 Kentucky Derby"
      },
      {
        "originalSentence": "Albert Heath, better known in jazz circles as Tootie, is a drummer whose cadence and bearing were forged during bebop's",
        "emotions": {
          "joy": 0.3073669970035553,
          "sadness": 0.3569850027561188,
          "disgust": 0.22847700119018555,
          "anger": 0.18502700328826904,
          "fear": 0.25199100375175476
        },
        "mainColor": {
          "r": 8,
          "b": 20,
          "g": 6
        },
        "origin": "http://www.nytimes.com/2015/03/01/arts/music/chris-lightcap-ben-wendel-and-tootie-heath-have-new-albums.html",
        "text": "better known in jazz circles as Tootie"
      },
      {
        "originalSentence": "In addition to funding and arming rebels on the ground, Saudi Arabia began conducting airstrikes with the United States-led coalition against the Islamic State in Syria a year ago",
        "emotions": {
          "joy": 0.0680840015411377,
          "sadness": 0.292589008808136,
          "disgust": 0.6443349719047546,
          "anger": 0.16102199256420135,
          "fear": 0.24198000133037567
        },
        "mainColor": {
          "r": 155,
          "b": 121,
          "g": 138
        },
        "origin": "http://www.nytimes.com/2015/10/01/world/middleeast/the-syria-conflicts-overlapping-agendas-and-competing-visions.html",
        "text": "In addition to funding"
      },
      {
        "originalSentence": "I call Anthony and say, 'You have to apologize' He's cursing and screaming, 'I'm not apologizing' But you know what'",
        "emotions": {
          "joy": 0.012172999791800976,
          "sadness": 0.4680210053920746,
          "disgust": 0.6448879837989807,
          "anger": 0.38978299498558044,
          "fear": 0.19661100208759308
        },
        "mainColor": {
          "r": 159,
          "b": 95,
          "g": 122
        },
        "origin": "http://www.nytimes.com/2015/03/01/sports/basketball/edgy-knick-anthony-mason-was-true-to-the-city.html",
        "text": "'You have to apologize' He's cursing"
      }
    ],
    [
      {
        "originalSentence": "Ms Del Rey sounds lonely here, and fine with that",
        "emotions": {
          "joy": 0.1579899936914444,
          "sadness": 0.3667680025100708,
          "disgust": 0.31421300768852234,
          "anger": 0.17970600724220276,
          "fear": 0.1554879993200302
        },
        "mainColor": {
          "r": 180,
          "b": 224,
          "g": 209
        },
        "origin": "http://www.nytimes.com/2015/09/18/arts/music/review-lana-del-rey-honeymoon.html",
        "text": "Ms Del Rey sounds lonely here"
      },
      {
        "originalSentence": "'We think technology is very important, and we want to work with artists who use it in a sophisticated way,' said Patrizia Sandretto Re Rebaudengo, whose private foundation, specializing in video and digital works by younger artists, is celebrating its 20th anniversary this year",
        "emotions": {
          "joy": 0.21350699663162231,
          "sadness": 0.34219399094581604,
          "disgust": 0.2441300004720688,
          "anger": 0.24439099431037903,
          "fear": 0.15565800666809082
        },
        "mainColor": {
          "r": 215,
          "b": 212,
          "g": 214
        },
        "origin": "http://www.nytimes.com/2015/04/20/arts/international/auctioning-the-relics-of-technology-pioneers.html",
        "text": "is celebrating its 20th anniversary this year"
      },
      {
        "originalSentence": "The bassist Charlie Haden, who died last year at 76, was a generous collaborator throughout his expansive jazz career, sowing seeds of deep melody and pliable rapport among several generations of fellow musicians",
        "emotions": {
          "joy": 0.16565799713134766,
          "sadness": 0.533689022064209,
          "disgust": 0.40145498514175415,
          "anger": 0.10274100303649902,
          "fear": 0.1265919953584671
        },
        "mainColor": {
          "r": 19,
          "b": 90,
          "g": 57
        },
        "origin": "http://www.nytimes.com/2015/01/11/arts/music/a-memorial-for-a-jazz-great.html",
        "text": "was a generous collaborator throughout his expansive jazz career"
      },
      {
        "originalSentence": "'We think technology is very important, and we want to work with artists who use it in a sophisticated way,' said Patrizia Sandretto Re Rebaudengo, whose private foundation, specializing in video and digital works by younger artists, is celebrating its 20th anniversary this year",
        "emotions": {
          "joy": 0.21350699663162231,
          "sadness": 0.34219399094581604,
          "disgust": 0.2441300004720688,
          "anger": 0.24439099431037903,
          "fear": 0.15565800666809082
        },
        "mainColor": {
          "r": 215,
          "b": 212,
          "g": 214
        },
        "origin": "http://www.nytimes.com/2015/04/20/arts/international/auctioning-the-relics-of-technology-pioneers.html",
        "text": "is celebrating its 20th anniversary this year"
      }
    ],
    [
      {
        "originalSentence": "Had the play not worked, the Canucks would have had to go the length of the ice, making that type of gamble worth it for the Rangers",
        "emotions": {
          "joy": 0.10344400256872177,
          "sadness": 0.35500699281692505,
          "disgust": 0.5446239709854126,
          "anger": 0.2602350115776062,
          "fear": 0.23067599534988403
        },
        "mainColor": {
          "r": 240,
          "b": 221,
          "g": 223
        },
        "origin": "http://www.nytimes.com/2015/03/14/sports/hockey/fast-times-on-the-rangers-offense.html",
        "text": "Had the play not worked"
      },
      {
        "originalSentence": "'Certain times, you'll feel like you're being overworked, but I communicate with the coaches as much as I can, and if I need a day, I'll ask for one,' he said",
        "emotions": {
          "joy": 0.10746999830007553,
          "sadness": 0.48571500182151794,
          "disgust": 0.28759101033210754,
          "anger": 0.48209500312805176,
          "fear": 0.09274999797344208
        },
        "mainColor": {
          "r": 94,
          "b": 58,
          "g": 73
        },
        "origin": "http://www.nytimes.com/2015/09/09/sports/baseball/across-town-another-arm-rests-for-the-long-run.html",
        "text": "you'll feel like you're being overworked"
      },
      {
        "originalSentence": "Mr Abbas said in a statement on Wafa, the official Palestinian news agency, raising again the specter of Al Aqsa",
        "emotions": {
          "joy": 0.07488899677991867,
          "sadness": 0.2779589891433716,
          "disgust": 0.8591439723968506,
          "anger": 0.17242999374866486,
          "fear": 0.20950600504875183
        },
        "mainColor": {
          "r": 244,
          "b": 170,
          "g": 218
        },
        "origin": "http://www.nytimes.com/2015/10/07/world/middleeast/fears-of-new-intifada-accompany-surge-in-mideast-violence.html",
        "text": "the official Palestinian news agency"
      },
      {
        "originalSentence": "Astoria Theater, London\nDEC 3, 1989\nAfter a disastrous concert in Rome days earlier, during which Cobain had a nervous breakdown and briefly broke up the band, Nirvana regrouped for a label showcase, featuring the Sub Pop stars Mudhoney and Tad",
        "emotions": {
          "joy": 0.03619400039315224,
          "sadness": 0.21920999884605408,
          "disgust": 0.3090290129184723,
          "anger": 0.2572549879550934,
          "fear": 0.2958790063858032
        },
        "mainColor": {
          "r": 19,
          "b": 19,
          "g": 19
        },
        "origin": "http://www.nytimes.com/2015/04/19/arts/music/nirvana-concerts-could-be-beautiful-wrecks.html",
        "text": "featuring the Sub Pop stars Mudhoney"
      }
    ]
  ]
}