{
  "credits": "a ballade by Jonat Ikeyg",
  "author": "Jonat Ikeyg",
  "plain": "just a really good hitter - only a very limited margin for error - as Greece has insisted - but the opposition claimed the changes were politically motivated - Stopping the Ebola virus - Nick Foligno had goals for Columbus - phrase-building approach briefly flared into incantation - But her script was less biographical than character-driven - ",
  "title": "Nick Foligno had goals for ",
  "type": "ballade",
  "strophen": [
    [
      {
        "originalSentence": "just a really good hitter, with a knack for the dramatic",
        "emotions": {
          "joy": 0.6753829717636108,
          "sadness": 0.25784701108932495,
          "disgust": 0.1540980041027069,
          "anger": 0.15770499408245087,
          "fear": 0.061145998537540436
        },
        "mainColor": {
          "r": 41,
          "b": 105,
          "g": 86
        },
        "origin": "http://www.nytimes.com/2015/10/18/sports/baseball/blue-jays-finally-give-jose-bautista-a-postseason-stage.html",
        "text": "just a really good hitter"
      },
      {
        "originalSentence": "only a very limited margin for error",
        "emotions": {
          "joy": 0.14851799607276917,
          "sadness": 0.5922279953956604,
          "disgust": 0.12769299745559692,
          "anger": 0.3936370015144348,
          "fear": 0.08271399885416031
        },
        "mainColor": {
          "r": 162,
          "b": 96,
          "g": 125
        },
        "origin": "http://www.nytimes.com/2015/03/21/sports/ncaabasketball/michigan-state-holds-off-georgia.html",
        "text": "only a very limited margin for error"
      },
      {
        "originalSentence": "He said he expected the creditors to present new proposals on Monday that would ease demands for pension cuts, as Greece has insisted, and deliver the $7 billion over the next six months as progress was made on various issues",
        "emotions": {
          "joy": 0.37658798694610596,
          "sadness": 0.14375600218772888,
          "disgust": 0.3228110074996948,
          "anger": 0.31290000677108765,
          "fear": 0.16416099667549133
        },
        "mainColor": {
          "r": 164,
          "b": 103,
          "g": 127
        },
        "origin": "http://www.nytimes.com/2015/06/20/world/europe/greek-leader-pressuring-eu-lenders-cozies-up-to-putin-in-russia.html",
        "text": "as Greece has insisted"
      },
      {
        "originalSentence": "needs, but the opposition claimed the changes were politically motivated",
        "emotions": {
          "joy": 0.06913100183010101,
          "sadness": 0.3272109925746918,
          "disgust": 0.18985000252723694,
          "anger": 0.23749299347400665,
          "fear": 0.46910300850868225
        },
        "mainColor": {
          "r": 93,
          "b": 30,
          "g": 58
        },
        "origin": "http://www.nytimes.com/2015/02/27/world/americas/argentine-judge-rejects-criminal-case-against-president.html",
        "text": "but the opposition claimed the changes were politically motivated"
      }
    ],
    [
      {
        "originalSentence": "Stopping the Ebola virus, despite the late start and the huge challenge of working in countries with woefully poor health systems, was an example of what the world can do once it acknowledges an emergency and provides the resources needed to save lives",
        "emotions": {
          "joy": 0.03804999962449074,
          "sadness": 0.2242860049009323,
          "disgust": 0.3383379876613617,
          "anger": 0.4196150004863739,
          "fear": 0.28777799010276794
        },
        "mainColor": {
          "r": 94,
          "b": 70,
          "g": 86
        },
        "origin": "http://www.nytimes.com/2015/12/30/opinion/nearing-triumph-over-ebola.html",
        "text": "Stopping the Ebola virus"
      },
      {
        "originalSentence": "Brandon Dubinsky, Cam Atkinson and Nick Foligno had goals for Columbus, which beat Philadelphia at home on Friday",
        "emotions": {
          "joy": 0.5794289708137512,
          "sadness": 0.17160800099372864,
          "disgust": 0.2539390027523041,
          "anger": 0.17433799803256989,
          "fear": 0.09981600195169449
        },
        "mainColor": {
          "r": 9,
          "b": 16,
          "g": 9
        },
        "origin": "http://www.nytimes.com/2015/02/15/sports/hockey/john-tavares-lifts-islanders-past-blue-jackets.html",
        "text": "Nick Foligno had goals for Columbus"
      },
      {
        "originalSentence": "It hit peak output during a solo by Mr Coltrane, when his watchful, phrase-building approach briefly flared into incantation, and Mr Watts quickly ratcheted up a polyrhythmic clamor",
        "emotions": {
          "joy": 0.025578999891877174,
          "sadness": 0.1858839988708496,
          "disgust": 0.5461519956588745,
          "anger": 0.4658749997615814,
          "fear": 0.1947229951620102
        },
        "mainColor": {
          "r": 4,
          "b": 14,
          "g": 2
        },
        "origin": "http://www.nytimes.com/2015/02/06/arts/music/ravi-coltrane-and-company-perform-at-jazz-standard.html",
        "text": "phrase-building approach briefly flared into incantation"
      },
      {
        "originalSentence": "But her script was less biographical than character-driven; she was influenced by Jamaica Kincaid's work, especially her novel 'Autobiography of My Mother,' and Angela Davis",
        "emotions": {
          "joy": 0.03460000082850456,
          "sadness": 0.5635849833488464,
          "disgust": 0.2312929928302765,
          "anger": 0.24875099956989288,
          "fear": 0.34867599606513977
        },
        "mainColor": {
          "r": 237,
          "b": 235,
          "g": 235
        },
        "origin": "http://www.nytimes.com/2015/05/10/arts/television/queen-latifah-stars-in-bessie-on-hbo.html",
        "text": "But her script was less biographical than character-driven"
      }
    ]
  ]
}