{
  "credits": "a ballade by Herry Acymcrou",
  "author": "Herry Acymcrou",
  "plain": "A few had their own reasons to flee - She has overcome a shredded knee - He had 21 points - 'The bloggers have different religious viewpoints - 'We are heading into maybe a unique situation here - 11 trainees coming this year - really hard to score every night' - This year's division race is tight - ",
  "title": "She has overcome a shredded ",
  "type": "ballade",
  "strophen": [
    [
      {
        "originalSentence": "A few had their own reasons to flee: escaping recruitment as child soldiers or suicide bombers",
        "emotions": {
          "joy": 0.027627000585198402,
          "sadness": 0.3091059923171997,
          "disgust": 0.47802498936653137,
          "anger": 0.23918099701404572,
          "fear": 0.4207870066165924
        },
        "mainColor": {
          "r": 152,
          "b": 148,
          "g": 153
        },
        "origin": "http://www.nytimes.com/2015/10/29/world/europe/in-waves-of-migrants-children-arrive-alone-and-settle-in-uneasily.html",
        "text": "A few had their own reasons to flee"
      },
      {
        "originalSentence": "She has overcome a shredded knee, a concussion, broken ribs and a bruised liver to win 43 times on the World Cup circuit, pulling her to three victories behind her childhood idol, Donna Weinbrecht",
        "emotions": {
          "joy": 0.3120670020580292,
          "sadness": 0.42364901304244995,
          "disgust": 0.356112003326416,
          "anger": 0.15158799290657043,
          "fear": 0.0782879963517189
        },
        "mainColor": {
          "r": 21,
          "b": 12,
          "g": 14
        },
        "origin": "http://www.nytimes.com/2015/01/14/sports/retiring-skier-prepares-for-a-different-type-of-moguls.html",
        "text": "She has overcome a shredded knee"
      },
      {
        "originalSentence": "He had 21 points and 11 rebounds in a 73-64 victory at Oklahoma State",
        "emotions": {
          "joy": 0.404772013425827,
          "sadness": 0.2114270031452179,
          "disgust": 0.37230101227760315,
          "anger": 0.2196049988269806,
          "fear": 0.21730099618434906
        },
        "mainColor": {
          "r": 31,
          "b": 9,
          "g": 11
        },
        "origin": "http://www.nytimes.com/2015/03/01/sports/jake-layman-is-powering-marylands-basketball-resurgence.html",
        "text": "He had 21 points"
      },
      {
        "originalSentence": "'The bloggers have different religious viewpoints and we're being attacked again and again, and we're not getting justice'\n'Using religion in the attempt to resist freethinking will not be accepted,'",
        "emotions": {
          "joy": 0.008721999824047089,
          "sadness": 0.33385899662971497,
          "disgust": 0.4574509859085083,
          "anger": 0.5094699859619141,
          "fear": 0.5133680105209351
        },
        "mainColor": {
          "r": 5,
          "b": 4,
          "g": 4
        },
        "origin": "http://www.nytimes.com/2015/02/28/world/asia/bangladeshi-american-blogger-avijit-roy-killed.html",
        "text": "'The bloggers have different religious viewpoints"
      }
    ],
    [
      {
        "originalSentence": "'We are heading into maybe a unique situation here,'",
        "emotions": {
          "joy": 0.193014994263649,
          "sadness": 0.13128499686717987,
          "disgust": 0.28172799944877625,
          "anger": 0.182669997215271,
          "fear": 0.48634201288223267
        },
        "mainColor": {
          "r": 160,
          "b": 219,
          "g": 163
        },
        "origin": "http://www.nytimes.com/2015/10/26/sports/tennis/a-host-of-challenges-greet-wtas-new-leader.html",
        "text": "'We are heading into maybe a unique situation here"
      },
      {
        "originalSentence": "Cup Juvenile Turf, is the star of Ward's 10 or 11 trainees coming this year",
        "emotions": {
          "joy": 0.24354299902915955,
          "sadness": 0.4276930093765259,
          "disgust": 0.2652420103549957,
          "anger": 0.14733099937438965,
          "fear": 0.13291999697685242
        },
        "mainColor": {
          "r": 23,
          "b": 13,
          "g": 16
        },
        "origin": "http://www.nytimes.com/2015/06/16/sports/royal-ascot-wesley-ward-mad-genius-from-america-sets-his-sights-on-englands-racecourses.html",
        "text": "11 trainees coming this year"
      },
      {
        "originalSentence": "As Lightning Coach Jon Cooper said, 'It's really, really hard to score every night'\nWhat magnifies their output, beyond the supercharged setting of the finals, is that the Blackhawks'",
        "emotions": {
          "joy": 0.06296300143003464,
          "sadness": 0.37328699231147766,
          "disgust": 0.28606799244880676,
          "anger": 0.17272500693798065,
          "fear": 0.39844998717308044
        },
        "mainColor": {
          "r": 228,
          "b": 230,
          "g": 222
        },
        "origin": "http://www.nytimes.com/2015/06/10/sports/hockey/scorers-have-been-silent-but-blackhawks-remain-confident.html",
        "text": "really hard to score every night'"
      },
      {
        "originalSentence": "This year's division race is tight",
        "emotions": {
          "joy": 0.13306500017642975,
          "sadness": 0.5373640060424805,
          "disgust": 0.25015801191329956,
          "anger": 0.08632300049066544,
          "fear": 0.19821499288082123
        },
        "mainColor": {
          "r": 228,
          "b": 232,
          "g": 234
        },
        "origin": "http://www.nytimes.com/2015/01/07/sports/hockey/rangers-find-top-form-but-a-tough-trip-looms.html",
        "text": "This year's division race is tight"
      }
    ]
  ]
}