{
  "credits": "a ballade by Oerocech Ratli",
  "author": "Oerocech Ratli",
  "plain": "It was likewise with Velvet Revolver - James returned to the Cavaliers over the summer - scrutinized through the reality television show 'Being Bobby Brown - she just broke down - ' her Western harp transformed into a clanging - It showed pictures of a same-sex couple kissing - the team where Klopp cut his managerial teeth - ' said Jordan Spieth - ",
  "title": "showed pictures of a same-sex ",
  "type": "ballade",
  "strophen": [
    [
      {
        "originalSentence": "It was likewise with Velvet Revolver, the supergroup he took part in from 2002 to 2008 with three former members of Guns N' Roses: They were playing a swaggering '80s-style",
        "emotions": {
          "joy": 0.041797999292612076,
          "sadness": 0.18933799862861633,
          "disgust": 0.6596919894218445,
          "anger": 0.2274869978427887,
          "fear": 0.34556999802589417
        },
        "mainColor": {
          "r": 61,
          "b": 98,
          "g": 67
        },
        "origin": "http://www.nytimes.com/2015/12/05/arts/music/scott-weiland-a-symbolic-voice-of-the-shifting-90s-rock-scene.html",
        "text": "It was likewise with Velvet Revolver"
      },
      {
        "originalSentence": "James returned to the Cavaliers over the summer, turning them into title contenders",
        "emotions": {
          "joy": 0.15165600180625916,
          "sadness": 0.27514898777008057,
          "disgust": 0.5409770011901855,
          "anger": 0.17240799963474274,
          "fear": 0.24314799904823303
        },
        "mainColor": {
          "r": 99,
          "b": 47,
          "g": 69
        },
        "origin": "http://www.nytimes.com/2015/05/20/sports/basketball/2-teams-that-made-big-strides-look-to-take-another-step.html",
        "text": "James returned to the Cavaliers over the summer"
      },
      {
        "originalSentence": "Their close relationship was displayed and scrutinized through the reality television show 'Being Bobby Brown,'",
        "emotions": {
          "joy": 0.010944999754428864,
          "sadness": 0.3732460141181946,
          "disgust": 0.707427978515625,
          "anger": 0.12946400046348572,
          "fear": 0.42581799626350403
        },
        "mainColor": {
          "r": 9,
          "b": 20,
          "g": 17
        },
        "origin": "http://www.nytimes.com/2015/07/28/arts/who-was-bobbi-kristina-brown.html",
        "text": "scrutinized through the reality television show 'Being Bobby Brown"
      },
      {
        "originalSentence": "Her children keep asking her when are they are going to have real food, and she just broke down and cried",
        "emotions": {
          "joy": 0.04188600182533264,
          "sadness": 0.7069000005722046,
          "disgust": 0.5515519976615906,
          "anger": 0.1283230036497116,
          "fear": 0.07747600227594376
        },
        "mainColor": {
          "r": 96,
          "b": 65,
          "g": 79
        },
        "origin": "http://www.nytimes.com/2015/06/25/world/middleeast/yemen-families-humanitarian-crisis.html",
        "text": "she just broke down"
      }
    ],
    [
      {
        "originalSentence": "Ms Hainen accompanied Mr Tan to Hong Kong, where she performed as the star soloist in 'Nu Shu,' her Western harp transformed into a clanging, strumming, Eastern-sounding instrument",
        "emotions": {
          "joy": 0.25885701179504395,
          "sadness": 0.44189900159835815,
          "disgust": 0.43424099683761597,
          "anger": 0.1870809942483902,
          "fear": 0.1288760006427765
        },
        "mainColor": {
          "r": 32,
          "b": 11,
          "g": 20
        },
        "origin": "http://www.nytimes.com/2015/10/28/arts/international/composers-personal-history-is-his-musical-muse.html",
        "text": "' her Western harp transformed into a clanging"
      },
      {
        "originalSentence": "It showed pictures of a same-sex couple kissing and two naked men in bed, and it reported that there were gay bars in Seoul",
        "emotions": {
          "joy": 0.10407000035047531,
          "sadness": 0.2365500032901764,
          "disgust": 0.67290198802948,
          "anger": 0.1554030030965805,
          "fear": 0.1969120055437088
        },
        "mainColor": {
          "r": 65,
          "b": 49,
          "g": 84
        },
        "origin": "http://www.nytimes.com/2015/06/06/world/asia/north-korea-defector-jang-yeong-jin-gay.html",
        "text": "It showed pictures of a same-sex couple kissing"
      },
      {
        "originalSentence": "It went to Mainz, the team where Klopp cut his managerial teeth, to hire Thomas Tuchel as its new coach",
        "emotions": {
          "joy": 0.20536699891090393,
          "sadness": 0.36395999789237976,
          "disgust": 0.40824198722839355,
          "anger": 0.2030930072069168,
          "fear": 0.10856200009584427
        },
        "mainColor": {
          "r": 161,
          "b": 45,
          "g": 159
        },
        "origin": "http://www.nytimes.com/2015/08/17/sports/soccer/new-coach-has-dortmund-firing-on-all-cylinders.html",
        "text": "the team where Klopp cut his managerial teeth"
      },
      {
        "originalSentence": "amazing that he's here,' said Jordan Spieth, the reigning Masters champion, who is from Dallas",
        "emotions": {
          "joy": 0.3508029878139496,
          "sadness": 0.1694830060005188,
          "disgust": 0.32047998905181885,
          "anger": 0.052535999566316605,
          "fear": 0.19203099608421326
        },
        "mainColor": {
          "r": 107,
          "b": 78,
          "g": 106
        },
        "origin": "http://www.nytimes.com/2015/06/17/sports/golf/cole-hammer-15-enjoys-pro-treatment-ahead-of-us-open.html",
        "text": "' said Jordan Spieth"
      }
    ]
  ]
}