{
  "credits": "a ballade by Homas Eyb",
  "author": "Homas Eyb",
  "plain": "'England have been stuck behind - I had that in mind - remote visions of space exploration - At this latest London auction - another pleasure of the evening was Roman Zhurbin's robust - The corruption scandals make it 'just - This past week at the Honda Classic - Worshipers basking in the spring sun were also optimistic - ",
  "title": "The corruption scandals make itjust remote ",
  "type": "ballade",
  "strophen": [
    [
      {
        "originalSentence": "'England have been stuck behind and are almost going in the opposite direction",
        "emotions": {
          "joy": 0.09611299633979797,
          "sadness": 0.3319860100746155,
          "disgust": 0.25398901104927063,
          "anger": 0.2495650053024292,
          "fear": 0.3828420042991638
        },
        "mainColor": {
          "r": 51,
          "b": 90,
          "g": 93
        },
        "origin": "http://www.nytimes.com/2015/03/11/sports/cricket/another-cricket-world-cup-ends-in-failure-for-england.html",
        "text": "'England have been stuck behind"
      },
      {
        "originalSentence": "I had that in mind",
        "emotions": {
          "joy": 0.22482800483703613,
          "sadness": 0.3798759877681732,
          "disgust": 0.2869270145893097,
          "anger": 0.16051200032234192,
          "fear": 0.23485100269317627
        },
        "mainColor": {
          "r": 29,
          "b": 108,
          "g": 47
        },
        "origin": "http://www.nytimes.com/2015/05/06/sports/baseball/mets-offense-breaks-out-for-one-inning-in-win-over-orioles.html",
        "text": "I had that in mind"
      },
      {
        "originalSentence": "remote visions of space exploration and the real cityscape glimpsed beyond them '",
        "emotions": {
          "joy": 0.12656499445438385,
          "sadness": 0.3218199908733368,
          "disgust": 0.46039700508117676,
          "anger": 0.1534779965877533,
          "fear": 0.2744840085506439
        },
        "mainColor": {
          "r": 190,
          "b": 218,
          "g": 197
        },
        "origin": "http://www.nytimes.com/2015/10/18/arts/design/rachel-rose-driven-by-distraction-heads-to-the-whitney.html",
        "text": "remote visions of space exploration"
      },
      {
        "originalSentence": "Brand is a big factor'\nAt this latest London auction, 95 percent of the lots were successful, and of those, 62 percent went to bidders new to Sotheby's specialist Picasso ceramics sales, Ms Nackers said",
        "emotions": {
          "joy": 0.24656400084495544,
          "sadness": 0.15541400015354156,
          "disgust": 0.3102929890155792,
          "anger": 0.16064999997615814,
          "fear": 0.4509119987487793
        },
        "mainColor": {
          "r": 200,
          "b": 175,
          "g": 191
        },
        "origin": "http://www.nytimes.com/2015/03/30/arts/international/at-auction-the-picasso-signature-is-still-a-sure-thing.html",
        "text": "At this latest London auction"
      }
    ],
    [
      {
        "originalSentence": "another pleasure of the evening was Roman Zhurbin's robust, complex Tybalt",
        "emotions": {
          "joy": 0.4177519977092743,
          "sadness": 0.1758819967508316,
          "disgust": 0.15675899386405945,
          "anger": 0.16421200335025787,
          "fear": 0.20744100213050842
        },
        "mainColor": {
          "r": 4,
          "b": 0,
          "g": 3
        },
        "origin": "http://www.nytimes.com/2015/06/18/arts/dance/review-romeo-and-juliet-brings-a-precise-pairing-to-the-met.html",
        "text": "another pleasure of the evening was Roman Zhurbin's robust"
      },
      {
        "originalSentence": "The corruption scandals make it 'just",
        "emotions": {
          "joy": 0.13409799337387085,
          "sadness": 0.1262509971857071,
          "disgust": 0.522445023059845,
          "anger": 0.13749800622463226,
          "fear": 0.2772339880466461
        },
        "mainColor": {
          "r": 96,
          "b": 74,
          "g": 95
        },
        "origin": "http://www.nytimes.com/2015/06/13/world/americas/corruption-scandals-driving-protests-in-guatemala-and-honduras.html",
        "text": "The corruption scandals make it 'just"
      },
      {
        "originalSentence": "This past week at the Honda Classic, Tackett's days have begun before the first light",
        "emotions": {
          "joy": 0.5533339977264404,
          "sadness": 0.17445500195026398,
          "disgust": 0.09139800071716309,
          "anger": 0.11745099723339081,
          "fear": 0.27559399604797363
        },
        "mainColor": {
          "r": 94,
          "b": 65,
          "g": 85
        },
        "origin": "http://www.nytimes.com/2015/03/01/sports/golf/how-ken-tackett-went-from-jazz-drummer-to-pga-tour-rules-official.html",
        "text": "This past week at the Honda Classic"
      },
      {
        "originalSentence": "Those opposing this deal are enemies, in line with the Zionists'\nWorshipers basking in the spring sun were also optimistic",
        "emotions": {
          "joy": 0.22199499607086182,
          "sadness": 0.04738900065422058,
          "disgust": 0.2988030016422272,
          "anger": 0.24354100227355957,
          "fear": 0.19380100071430206
        },
        "mainColor": {
          "r": 20,
          "b": 88,
          "g": 50
        },
        "origin": "http://www.nytimes.com/2015/04/04/world/middleeast/iran-nuclear-deal.html",
        "text": "Worshipers basking in the spring sun were also optimistic"
      }
    ]
  ]
}