{
  "credits": "a ballade by Zalesiamgi Rladst",
  "author": "Zalesiamgi Rladst",
  "plain": "When their recent Wimbledon matchup was set - but he'll probably be at least a 10-year vet' - But in a climate of hand-wringing - 20 years in the making - with help from Saudi Arabia - grandmother in West Virginia - a huge step forward in a democracy' - Peter Decker (Peter Facinelli) - ",
  "title": "Virginia but he'll probably be at ",
  "type": "ballade",
  "strophen": [
    [
      {
        "originalSentence": "When their recent Wimbledon matchup was set, their mother, Oracene Price, said it would be a good opportunity to visit Big Ben rather than sit through another of her daughters'",
        "emotions": {
          "joy": 0.1545490026473999,
          "sadness": 0.34919899702072144,
          "disgust": 0.40349099040031433,
          "anger": 0.15657299757003784,
          "fear": 0.0757559984922409
        },
        "mainColor": {
          "r": 32,
          "b": 29,
          "g": 54
        },
        "origin": "http://www.nytimes.com/2015/09/07/sports/serena-williamss-victory-sets-up-a-showdown-with-her-sister.html",
        "text": "When their recent Wimbledon matchup was set"
      },
      {
        "originalSentence": "'Maybe not someone who's going to come in right away and take us to the promised land, but he'll probably be at least a 10-year vet'\nThis, remember, was coming from a man with a track record",
        "emotions": {
          "joy": 0.08606000244617462,
          "sadness": 0.17611299455165863,
          "disgust": 0.6355419754981995,
          "anger": 0.30802100896835327,
          "fear": 0.26552700996398926
        },
        "mainColor": {
          "r": 21,
          "b": 151,
          "g": 76
        },
        "origin": "http://www.nytimes.com/2015/05/21/sports/basketball/despite-knicks-lottery-misfortune-opportunity-may-still-knock.html",
        "text": "but he'll probably be at least a 10-year vet'"
      },
      {
        "originalSentence": "But in a climate of hand-wringing, will it find a long-term audience'",
        "emotions": {
          "joy": 0.16058599948883057,
          "sadness": 0.3155840039253235,
          "disgust": 0.40045300126075745,
          "anger": 0.20763200521469116,
          "fear": 0.364082008600235
        },
        "mainColor": {
          "r": 90,
          "b": 96,
          "g": 91
        },
        "origin": "http://www.nytimes.com/2015/03/06/sports/is-boxing-dead-some-are-betting-heavily-that-it-isnt.html",
        "text": "But in a climate of hand-wringing"
      },
      {
        "originalSentence": "a dream, 20 years in the making",
        "emotions": {
          "joy": 0.2861819863319397,
          "sadness": 0.299703985452652,
          "disgust": 0.2283789962530136,
          "anger": 0.04838699847459793,
          "fear": 0.35158801078796387
        },
        "mainColor": {
          "r": 14,
          "b": 18,
          "g": 16
        },
        "origin": "http://www.nytimes.com/2015/06/09/arts/dance/in-robot-blanca-li-uses-machines-to-celebrate-the-body.html",
        "text": "20 years in the making"
      }
    ],
    [
      {
        "originalSentence": "Since 2011, when Bahrain's Sunni monarchy, with help from Saudi Arabia, violently suppressed a Shiite-led uprising, even mainstream opposition figures like Mr Marzouq have come to be regarded by the government as threats to the state",
        "emotions": {
          "joy": 0.008573000319302082,
          "sadness": 0.25089800357818604,
          "disgust": 0.7005590200424194,
          "anger": 0.4675309956073761,
          "fear": 0.5545330047607422
        },
        "mainColor": {
          "r": 33,
          "b": 16,
          "g": 27
        },
        "origin": "http://www.nytimes.com/2015/02/03/world/middleeast/new-bahrain-based-channel-al-arab-suspends-service-after-opposition-leader-gets-airtime.html",
        "text": "with help from Saudi Arabia"
      },
      {
        "originalSentence": "Three, she was only a few hours from her mother and grandmother in West Virginia",
        "emotions": {
          "joy": 0.146697998046875,
          "sadness": 0.4319379925727844,
          "disgust": 0.4552049934864044,
          "anger": 0.29405999183654785,
          "fear": 0.07449299842119217
        },
        "mainColor": {
          "r": 95,
          "b": 48,
          "g": 78
        },
        "origin": "http://www.nytimes.com/2015/03/20/sports/ncaabasketball/on-kentuckys-other-undefeated-team-the-other-star-named-moss.html",
        "text": "grandmother in West Virginia"
      },
      {
        "originalSentence": "a huge step forward in a democracy'\nHearing such criticisms in the context of the crowd at Mr Schoonraad's club '",
        "emotions": {
          "joy": 0.028504999354481697,
          "sadness": 0.19142800569534302,
          "disgust": 0.5807200074195862,
          "anger": 0.25550100207328796,
          "fear": 0.44166699051856995
        },
        "mainColor": {
          "r": 16,
          "b": 7,
          "g": 7
        },
        "origin": "http://www.nytimes.com/2015/03/08/arts/television/black-comedians-in-south-africa-put-power-in-the-punch-lines.html",
        "text": "a huge step forward in a democracy'"
      },
      {
        "originalSentence": "While Odelle makes her way through the desert, Peter Decker (Peter Facinelli), a former United States attorney, is settling into a new house in Scarsdale, NY, and a new job at a corporate law firm",
        "emotions": {
          "joy": 0.1256600022315979,
          "sadness": 0.09475599974393845,
          "disgust": 0.35487499833106995,
          "anger": 0.3234190046787262,
          "fear": 0.4255560040473938
        },
        "mainColor": {
          "r": 40,
          "b": 91,
          "g": 48
        },
        "origin": "http://www.nytimes.com/2015/04/01/arts/television/review-american-odyssey-a-new-nbc-series-stars-anna-friel.html",
        "text": "Peter Decker (Peter Facinelli)"
      }
    ]
  ]
}