{
  "credits": "an ode by Trictric Tzitz",
  "author": "Trictric Tzitz",
  "plain": "'My wife has shown me one thing - and Copland's 'Appalachian Spring' - the excellent festival of Indian music - Izzo means March (and early April) magic - This opened for a four-day run on Wednesday - 'I had really good focus today - For somebody who's a content creator - genial rapport made it a pleasure - Far from being the kind of thing you ban - relief across baseball-loving Japan - 'We've had a wonderful time in Europe - producing work with an irreducible breadth of scope - It may signal a clean slate for Ms Beller - who graduated from the semester-long ambassador program in December - a very French charmer - Mr Jin was a great-grandson of the Daoguang Emperor - ",
  "title": "( and early April ) ",
  "type": "ode",
  "strophen": [
    [
      {
        "originalSentence": "'My wife has shown me one thing: You've got to keep females happy",
        "emotions": {
          "joy": 0.8571990132331848,
          "sadness": 0.1707340031862259,
          "disgust": 0.09405600279569626,
          "anger": 0.06714600324630737,
          "fear": 0.08566900342702866
        },
        "mainColor": {
          "r": 79,
          "b": 55,
          "g": 106
        },
        "origin": "http://www.nytimes.com/2015/04/28/sports/trainers-rapport-with-fillies-translates-to-success.html",
        "text": "'My wife has shown me one thing"
      },
      {
        "originalSentence": "and Copland's 'Appalachian Spring'",
        "emotions": {
          "joy": 0.7152870297431946,
          "sadness": 0.2035830020904541,
          "disgust": 0.11212900280952454,
          "anger": 0.03928999975323677,
          "fear": 0.0926939994096756
        },
        "mainColor": {
          "r": 136,
          "b": 243,
          "g": 194
        },
        "origin": "http://www.nytimes.com/2015/06/20/arts/music/review-new-york-philharmonic-goes-timeless-in-central-park.html",
        "text": "and Copland's 'Appalachian Spring'"
      },
      {
        "originalSentence": "Tuesday night at Drive East, the excellent festival of Indian music and dance playing through Sunday at the Ellen Stewart Theater at La MaMa",
        "emotions": {
          "joy": 0.9759690165519714,
          "sadness": 0.04770100116729736,
          "disgust": 0.02094700001180172,
          "anger": 0.030702000483870506,
          "fear": 0.09602800011634827
        },
        "mainColor": {
          "r": 2,
          "b": 7,
          "g": 2
        },
        "origin": "http://www.nytimes.com/2015/08/13/arts/dance/review-ashwini-ramaswamy-goes-solo-at-the-drive-east-festival.html",
        "text": "the excellent festival of Indian music"
      },
      {
        "originalSentence": "Yet Michigan State means Izzo, and Izzo means March (and early April) magic",
        "emotions": {
          "joy": 0.7243009805679321,
          "sadness": 0.31988000869750977,
          "disgust": 0.11476600170135498,
          "anger": 0.12770000100135803,
          "fear": 0.09250999987125397
        },
        "mainColor": {
          "r": 223,
          "b": 140,
          "g": 171
        },
        "origin": "http://www.nytimes.com/2015/04/05/sports/ncaabasketball/duke-defeats-michigan-state-to-advance-to-ncaa-title-game.html",
        "text": "Izzo means March (and early April) magic"
      },
      {
        "originalSentence": "This opened for a four-day run on Wednesday, staged by New York Theater Ballet at New York Live Arts",
        "emotions": {
          "joy": 0.7691829800605774,
          "sadness": 0.188168004155159,
          "disgust": 0.05383399873971939,
          "anger": 0.07059600204229355,
          "fear": 0.2760840058326721
        },
        "mainColor": {
          "r": 3,
          "b": 3,
          "g": 3
        },
        "origin": "http://www.nytimes.com/2015/02/22/arts/dance/merce-cunningham-revivals-on-his-home-ground.html",
        "text": "This opened for a four-day run on Wednesday"
      },
      {
        "originalSentence": "'I had really good focus today and tried to do the best on the mound",
        "emotions": {
          "joy": 0.7011749744415283,
          "sadness": 0.23989899456501007,
          "disgust": 0.05707300081849098,
          "anger": 0.11766199767589569,
          "fear": 0.06381899863481522
        },
        "mainColor": {
          "r": 217,
          "b": 227,
          "g": 215
        },
        "origin": "http://www.nytimes.com/2015/06/02/sports/baseball/michael-pineda-excited-about-his-return-to-seattle-and-a-match-against-his-mentor.html",
        "text": "'I had really good focus today"
      }
    ],
    [
      {
        "originalSentence": "For somebody who's a content creator, that's a very positive thing",
        "emotions": {
          "joy": 0.8282909989356995,
          "sadness": 0.08662799745798111,
          "disgust": 0.08358900249004364,
          "anger": 0.07677700370550156,
          "fear": 0.06110300123691559
        },
        "mainColor": {
          "r": 18,
          "b": 91,
          "g": 49
        },
        "origin": "http://www.nytimes.com/2015/05/11/arts/television/jimmy-kimmel-on-the-state-of-late-night.html",
        "text": "For somebody who's a content creator"
      },
      {
        "originalSentence": "It was created for Robert Fairchild and Tiler Peck, and on Saturday their individual loveliness and genial rapport made it a pleasure",
        "emotions": {
          "joy": 0.8875089883804321,
          "sadness": 0.10469099879264832,
          "disgust": 0.1214430034160614,
          "anger": 0.0902710035443306,
          "fear": 0.07983800023794174
        },
        "mainColor": {
          "r": 2,
          "b": 161,
          "g": 69
        },
        "origin": "http://www.nytimes.com/2015/02/10/arts/dance/review-a-jerome-robbins-tribute-by-new-york-city-ballet-brims-with-brio.html",
        "text": "genial rapport made it a pleasure"
      },
      {
        "originalSentence": "Far from being the kind of thing you ban, opera encores are something to be cherished in 2015, signs that singing can still summon the enthusiasm generally associated with a long-ago golden age",
        "emotions": {
          "joy": 0.7454379796981812,
          "sadness": 0.17007000744342804,
          "disgust": 0.13061800599098206,
          "anger": 0.08416300266981125,
          "fear": 0.13493700325489044
        },
        "mainColor": {
          "r": 234,
          "b": 161,
          "g": 205
        },
        "origin": "http://www.nytimes.com/2015/01/11/arts/music/calls-of-encore-bring-surprise-to-classical-music.html",
        "text": "Far from being the kind of thing you ban"
      },
      {
        "originalSentence": "The end of Todai's long drought brought cheers of joy and relief across baseball-loving Japan",
        "emotions": {
          "joy": 0.7872390151023865,
          "sadness": 0.18567800521850586,
          "disgust": 0.058549001812934875,
          "anger": 0.03799600154161453,
          "fear": 0.11933600157499313
        },
        "mainColor": {
          "r": 153,
          "b": 77,
          "g": 156
        },
        "origin": "http://www.nytimes.com/2015/05/26/sports/baseball/tokyo-university-an-ultimate-baseball-underdog-ends-its-losing-streak.html",
        "text": "relief across baseball-loving Japan"
      }
    ],
    [
      {
        "originalSentence": "'We've had a wonderful time in Europe and met some really great people",
        "emotions": {
          "joy": 0.7623090147972107,
          "sadness": 0.30761000514030457,
          "disgust": 0.06789799779653549,
          "anger": 0.06208600103855133,
          "fear": 0.06583999842405319
        },
        "mainColor": {
          "r": 138,
          "b": 78,
          "g": 135
        },
        "origin": "http://www.nytimes.com/2015/06/18/sports/california-chromes-overseas-trip-hits-a-detour.html",
        "text": "'We've had a wonderful time in Europe"
      },
      {
        "originalSentence": "great engines of experimental art, producing work with an irreducible breadth of scope and style",
        "emotions": {
          "joy": 0.8766149878501892,
          "sadness": 0.12397799640893936,
          "disgust": 0.029577000066637993,
          "anger": 0.11747600138187408,
          "fear": 0.16765500605106354
        },
        "mainColor": {
          "r": 165,
          "b": 104,
          "g": 128
        },
        "origin": "http://www.nytimes.com/2015/03/08/arts/music/50-years-on-association-for-advancement-of-creative-musicians-influences-jazz.html",
        "text": "producing work with an irreducible breadth of scope"
      },
      {
        "originalSentence": "It may signal a clean slate for Ms Beller, who previously has always worked with text",
        "emotions": {
          "joy": 0.7750430107116699,
          "sadness": 0.16584999859333038,
          "disgust": 0.09443700313568115,
          "anger": 0.17573000490665436,
          "fear": 0.09783899784088135
        },
        "mainColor": {
          "r": 165,
          "b": 139,
          "g": 150
        },
        "origin": "http://www.nytimes.com/2015/06/13/arts/dance/review-milkdreams-is-like-taking-dance-lessons-from-a-baby.html",
        "text": "It may signal a clean slate for Ms Beller"
      },
      {
        "originalSentence": "Ms Tai, who graduated from the semester-long ambassador program in December, still returns to teach art classes for younger children on Saturday mornings",
        "emotions": {
          "joy": 0.7218040227890015,
          "sadness": 0.19054800271987915,
          "disgust": 0.14705400168895721,
          "anger": 0.08494199812412262,
          "fear": 0.07517600059509277
        },
        "mainColor": {
          "r": 70,
          "b": 156,
          "g": 110
        },
        "origin": "http://www.nytimes.com/2015/03/19/arts/artsspecial/coming-of-age-as-a-guide-at-ground-zero.html",
        "text": "who graduated from the semester-long ambassador program in December"
      },
      {
        "originalSentence": "'He was a charmer, a very French charmer, with blue eyes and an ever-present smile,'",
        "emotions": {
          "joy": 0.7909089922904968,
          "sadness": 0.3053019940853119,
          "disgust": 0.02835400030016899,
          "anger": 0.08635400235652924,
          "fear": 0.052758000791072845
        },
        "mainColor": {
          "r": 156,
          "b": 108,
          "g": 116
        },
        "origin": "http://www.nytimes.com/2015/11/17/world/europe/waiter-killed-in-paris-attacks-is-remembered-as-a-bon-vivant.html",
        "text": "a very French charmer"
      },
      {
        "originalSentence": "Mr Jin was a great-grandson of the Daoguang Emperor, who ruled China between 1820 and 1850, and a nephew of the Guangxu Emperor, who reigned from 1875 to 1908",
        "emotions": {
          "joy": 0.7090939879417419,
          "sadness": 0.1209070011973381,
          "disgust": 0.21252800524234772,
          "anger": 0.09366200119256973,
          "fear": 0.33759498596191406
        },
        "mainColor": {
          "r": 170,
          "b": 107,
          "g": 151
        },
        "origin": "http://www.nytimes.com/2015/04/14/world/asia/jin-youzhi-sibling-of-chinas-last-emperor-dies-at-96.html",
        "text": "Mr Jin was a great-grandson of the Daoguang Emperor"
      }
    ]
  ]
}