{
  "credits": "an ode by Nbillillia Lisc",
  "author": "Nbillillia Lisc",
  "plain": "To commemorate the coming 40th anniversary - happiness mixes with melancholy - I was pumped up a little bit' - the dramaturg Olaf A Schmitt - It was a warm Friday morning in Braamfontein - Kukushkin nearly managed to outslug Cilic from the baseline - at South First Street - seemingly anyone who has ever given a downbeat - Today we are lifting our faces - who appeared in all four pieces - The oboist John Ferrillo appeared to be doing heroic - Mr Schwarzenbach owns the Dolder Grand hotel in Zurich - noting she'd spent Labor Day weekend filming in India - presented by Opera Philadelphia - To see our idols in person required sneakiness - who amplify her sunny prowess - ",
  "title": "appeared to outslug Cilic from the ",
  "type": "ode",
  "strophen": [
    [
      {
        "originalSentence": "To commemorate the coming 40th anniversary, Queens and Immaculata will meet again Sunday morning at the Garden to open the annual Maggie Dixon Classic before Auriemma's",
        "emotions": {
          "joy": 0.9433289766311646,
          "sadness": 0.0655129998922348,
          "disgust": 0.06067899987101555,
          "anger": 0.03400399908423424,
          "fear": 0.1677439957857132
        },
        "mainColor": {
          "r": 18,
          "b": 18,
          "g": 18
        },
        "origin": "http://www.nytimes.com/2015/01/03/sports/ncaabasketball/queens-and-immaculata-played-in-first-womens-basketball-game-at-madison-square-garden-in-1975.html",
        "text": "To commemorate the coming 40th anniversary"
      },
      {
        "originalSentence": "With the Islanders winning with regularity in front of sellout crowds and resurrecting the thrilling buzz of the glory years, happiness mixes with melancholy",
        "emotions": {
          "joy": 0.8541489839553833,
          "sadness": 0.11385499686002731,
          "disgust": 0.09481699764728546,
          "anger": 0.017413999885320663,
          "fear": 0.055987000465393066
        },
        "mainColor": {
          "r": 229,
          "b": 17,
          "g": 166
        },
        "origin": "http://www.nytimes.com/2015/02/20/sports/hockey/never-an-islandereric-nystrom-returns-to-home-to-nassau-coliseum.html",
        "text": "happiness mixes with melancholy"
      },
      {
        "originalSentence": "I was pumped up a little bit'\nChasen Shreve and Dellin Betances worked a perfect seventh and eighth innings",
        "emotions": {
          "joy": 0.793067991733551,
          "sadness": 0.11323399841785431,
          "disgust": 0.078186996281147,
          "anger": 0.1705940067768097,
          "fear": 0.11723800003528595
        },
        "mainColor": {
          "r": 58,
          "b": 97,
          "g": 74
        },
        "origin": "http://www.nytimes.com/2015/07/23/sports/baseball/ivan-nova-helps-yankees-early-lead-stand-up.html",
        "text": "I was pumped up a little bit'"
      },
      {
        "originalSentence": "Efficiency also characterized the conducting of Johannes Debus, who created a new version of the score with Mr Herheim and the dramaturg Olaf A Schmitt and led the Vienna Symphony with propulsive energy but not much atmosphere or detail",
        "emotions": {
          "joy": 0.759119987487793,
          "sadness": 0.18106499314308167,
          "disgust": 0.06843499839305878,
          "anger": 0.12285199761390686,
          "fear": 0.1788029968738556
        },
        "mainColor": {
          "r": 6,
          "b": 5,
          "g": 5
        },
        "origin": "http://www.nytimes.com/2015/08/04/arts/music/review-turandot-and-les-contes-dhoffmann-spectacle-and-substance-at-bregenz-festival.html",
        "text": "the dramaturg Olaf A Schmitt"
      },
      {
        "originalSentence": "It was a warm Friday morning in Braamfontein, a hip neighborhood here",
        "emotions": {
          "joy": 0.8419209718704224,
          "sadness": 0.21556499600410461,
          "disgust": 0.0467119999229908,
          "anger": 0.08773399889469147,
          "fear": 0.08351100236177444
        },
        "mainColor": {
          "r": 16,
          "b": 7,
          "g": 7
        },
        "origin": "http://www.nytimes.com/2015/03/08/arts/television/black-comedians-in-south-africa-put-power-in-the-punch-lines.html",
        "text": "It was a warm Friday morning in Braamfontein"
      },
      {
        "originalSentence": "On Friday, Kukushkin nearly managed to outslug Cilic from the baseline",
        "emotions": {
          "joy": 0.7669879794120789,
          "sadness": 0.22430099546909332,
          "disgust": 0.13210999965667725,
          "anger": 0.0817359983921051,
          "fear": 0.21951399743556976
        },
        "mainColor": {
          "r": 32,
          "b": 90,
          "g": 70
        },
        "origin": "http://www.nytimes.com/2015/09/05/sports/tennis/eugenie-bouchard-back-to-being-a-rising-star-at-the-us-open-after-a-year-of-disappointments.html",
        "text": "Kukushkin nearly managed to outslug Cilic from the baseline"
      }
    ],
    [
      {
        "originalSentence": "At 8:30 pm, 308 Bedford Avenue, at South First Street, Williamsburg, Brooklyn, 718-782-3468, videologyinfoYeats: The Celebration (Sunday) Sarah Jessica Parker and Matthew Broderick host the Irish Repertory Theater's 2015 gala, which doubles as a 150th anniversary celebration of WB Yeats's birth",
        "emotions": {
          "joy": 0.7800570130348206,
          "sadness": 0.054806001484394073,
          "disgust": 0.10743600130081177,
          "anger": 0.08224199712276459,
          "fear": 0.1357319951057434
        },
        "mainColor": {
          "r": 64,
          "b": 91,
          "g": 69
        },
        "origin": "http://www.nytimes.com/2015/06/05/arts/spare-times-for-june-5-11.html",
        "text": "at South First Street"
      },
      {
        "originalSentence": "including Marin Alsop, the music director of the Baltimore Symphony Orchestra; David Robertson, the music director of the St Louis Symphony; Jaap van Zweden, the music director of the Dallas Symphony Orchestra; and, on some days, seemingly anyone who has ever given a downbeat",
        "emotions": {
          "joy": 0.9070199728012085,
          "sadness": 0.23928500711917877,
          "disgust": 0.03436199948191643,
          "anger": 0.24212899804115295,
          "fear": 0.017789000645279884
        },
        "mainColor": {
          "r": 28,
          "b": 8,
          "g": 16
        },
        "origin": "http://www.nytimes.com/2015/04/23/arts/music/challenges-mount-for-the-new-york-philharmonic.html",
        "text": "seemingly anyone who has ever given a downbeat"
      },
      {
        "originalSentence": "Today we are lifting our faces and saying thank you to God'",
        "emotions": {
          "joy": 0.7018510103225708,
          "sadness": 0.09450999647378922,
          "disgust": 0.07553999871015549,
          "anger": 0.09240800142288208,
          "fear": 0.3481670022010803
        },
        "mainColor": {
          "r": 174,
          "b": 231,
          "g": 202
        },
        "origin": "http://www.nytimes.com/2015/10/25/world/americas/planning-helps-mexico-avoid-major-problems-from-hurricane-patricia.html",
        "text": "Today we are lifting our faces"
      },
      {
        "originalSentence": "Bodytraffic is led by the artistic directors Lillian Barbeito, who retired from dancing in 2013, and Tina Finkelman Berkett, who appeared in all four pieces",
        "emotions": {
          "joy": 0.7041379809379578,
          "sadness": 0.16711099445819855,
          "disgust": 0.20622700452804565,
          "anger": 0.06668899953365326,
          "fear": 0.20338000357151031
        },
        "mainColor": {
          "r": 1,
          "b": 1,
          "g": 1
        },
        "origin": "http://www.nytimes.com/2015/01/08/arts/bodytraffic-performs-at-the-joyce-theater.html",
        "text": "who appeared in all four pieces"
      }
    ],
    [
      {
        "originalSentence": "The oboist John Ferrillo appeared to be doing heroic and beautiful work with his part, but acoustically it occupied the middle distance",
        "emotions": {
          "joy": 0.7635239958763123,
          "sadness": 0.20650799572467804,
          "disgust": 0.2836019992828369,
          "anger": 0.05694799870252609,
          "fear": 0.08580099791288376
        },
        "mainColor": {
          "r": 91,
          "b": 184,
          "g": 139
        },
        "origin": "http://www.nytimes.com/2015/07/16/arts/music/review-boston-symphony-chamber-players-balance-acoustics-and-expression.html",
        "text": "The oboist John Ferrillo appeared to be doing heroic"
      },
      {
        "originalSentence": "Mr Schwarzenbach owns the Dolder Grand hotel in Zurich and is listed as the 108th wealthiest person in Britain, according to the 2015 Sunday Times Rich List",
        "emotions": {
          "joy": 0.7813529968261719,
          "sadness": 0.2953290045261383,
          "disgust": 0.1688389927148819,
          "anger": 0.12612700462341309,
          "fear": 0.04341999813914299
        },
        "mainColor": {
          "r": 212,
          "b": 198,
          "g": 204
        },
        "origin": "http://www.nytimes.com/2015/07/04/arts/international/at-art-auctions-missed-expectations-for-some-big-names.html",
        "text": "Mr Schwarzenbach owns the Dolder Grand hotel in Zurich"
      },
      {
        "originalSentence": "noting she'd spent Labor Day weekend filming in India and would briefly return in October",
        "emotions": {
          "joy": 0.7364180088043213,
          "sadness": 0.2625240087509155,
          "disgust": 0.15308600664138794,
          "anger": 0.060242000967264175,
          "fear": 0.03541500121355057
        },
        "mainColor": {
          "r": 155,
          "b": 102,
          "g": 127
        },
        "origin": "http://www.nytimes.com/2015/09/20/arts/television/in-quantico-bollywoods-priyanka-chopra-seeks-an-american-foothold.html",
        "text": "noting she'd spent Labor Day weekend filming in India"
      },
      {
        "originalSentence": "'Yardbird,' a 90-minute, swift-paced chamber opera with a pulsing, jazz-infused score, had its premiere here on Friday night in the Perelman Theater at the Kimmel Center for the Performing Arts, presented by Opera Philadelphia, which commissioned it along with Gotham Chamber Opera, which will present the work in New York next year",
        "emotions": {
          "joy": 0.7071740031242371,
          "sadness": 0.05793499946594238,
          "disgust": 0.04002600163221359,
          "anger": 0.11829199641942978,
          "fear": 0.2615399956703186
        },
        "mainColor": {
          "r": 33,
          "b": 21,
          "g": 29
        },
        "origin": "http://www.nytimes.com/2015/06/08/arts/music/review-charlie-parkers-yardbird-uses-opera-to-tell-a-jazz-story.html",
        "text": "presented by Opera Philadelphia"
      },
      {
        "originalSentence": "To see our idols in person required sneakiness and elaborate planning",
        "emotions": {
          "joy": 0.7108740210533142,
          "sadness": 0.21063999831676483,
          "disgust": 0.25985899567604065,
          "anger": 0.16422399878501892,
          "fear": 0.06745400279760361
        },
        "mainColor": {
          "r": 158,
          "b": 19,
          "g": 35
        },
        "origin": "http://www.nytimes.com/2015/08/18/arts/music/the-beatles-awaken-a-new-sensation.html",
        "text": "To see our idols in person required sneakiness"
      },
      {
        "originalSentence": "who amplify her sunny prowess",
        "emotions": {
          "joy": 0.8730080127716064,
          "sadness": 0.0498879998922348,
          "disgust": 0.3368130028247833,
          "anger": 0.04782800003886223,
          "fear": 0.01711999997496605
        },
        "mainColor": {
          "r": 8,
          "b": 20,
          "g": 6
        },
        "origin": "http://www.nytimes.com/2015/03/01/arts/music/chris-lightcap-ben-wendel-and-tootie-heath-have-new-albums.html",
        "text": "who amplify her sunny prowess"
      }
    ]
  ]
}