{
  "credits": "an ode by Sta Oledo",
  "author": "Sta Oledo",
  "plain": "10-3) hosts Brown - New York dance fans have important events uptown - came over the weekend to New York City Center - 'Winning makes everything better - I love my son dearly - led by the Swiss conductor Ludwig Wicki - a football fanaticism that bridges generations - in the topic of our conversations - Between the day after Thanksgiving - The latest sinking occurred on Sunday morning - David Wright were back - was invited to join the Pac-12 - 'It was the best time of my life - spending time with his wife - ",
  "title": "dearly a football fanaticism that ",
  "type": "ode",
  "strophen": [
    [
      {
        "originalSentence": "On Saturday, Harvard (20-7, 10-3) hosts Brown, while Yale (22-8, 11-2) travels to Dartmouth",
        "emotions": {
          "joy": 0.720071017742157,
          "sadness": 0.2637690007686615,
          "disgust": 0.15971800684928894,
          "anger": 0.06874199956655502,
          "fear": 0.07154899835586548
        },
        "mainColor": {
          "r": 153,
          "b": 128,
          "g": 150
        },
        "origin": "http://www.nytimes.com/2015/03/07/sports/ncaabasketball/yale-beats-harvard-to-sit-in-drivers-seat-in-the-ivy-league.html",
        "text": "10-3) hosts Brown"
      },
      {
        "originalSentence": "This weekend, New York dance fans have important events uptown and downtown",
        "emotions": {
          "joy": 0.8939779996871948,
          "sadness": 0.174904003739357,
          "disgust": 0.08246300369501114,
          "anger": 0.03312300145626068,
          "fear": 0.03009600006043911
        },
        "mainColor": {
          "r": 1,
          "b": 1,
          "g": 9
        },
        "origin": "http://www.nytimes.com/2015/06/16/arts/dance/dance-this-week-merce-cunningham-twyla-tharp-and-romeo-and-juliet.html",
        "text": "New York dance fans have important events uptown"
      },
      {
        "originalSentence": "came over the weekend to New York City Center, the mind flew to Stravinsky",
        "emotions": {
          "joy": 0.7934200167655945,
          "sadness": 0.13490399718284607,
          "disgust": 0.10119300335645676,
          "anger": 0.09777499735355377,
          "fear": 0.11806800216436386
        },
        "mainColor": {
          "r": 123,
          "b": 157,
          "g": 145
        },
        "origin": "http://www.nytimes.com/2015/11/23/arts/dance/review-thomas-ades-calls-for-complexity-at-city-center.html",
        "text": "came over the weekend to New York City Center"
      },
      {
        "originalSentence": "'Winning makes everything better,'",
        "emotions": {
          "joy": 0.7501490116119385,
          "sadness": 0.16703499853610992,
          "disgust": 0.04696600139141083,
          "anger": 0.10526800155639648,
          "fear": 0.3598819971084595
        },
        "mainColor": {
          "r": 165,
          "b": 109,
          "g": 128
        },
        "origin": "http://www.nytimes.com/2015/04/29/sports/basketball/nets-exceeding-expectations-against-hawks-stay-loose.html",
        "text": "'Winning makes everything better"
      },
      {
        "originalSentence": "I love my son dearly and I love him unconditionally'",
        "emotions": {
          "joy": 0.8745719790458679,
          "sadness": 0.26449498534202576,
          "disgust": 0.02346700057387352,
          "anger": 0.0859609991312027,
          "fear": 0.06480800360441208
        },
        "mainColor": {
          "r": 203,
          "b": 230,
          "g": 222
        },
        "origin": "http://www.nytimes.com/2015/08/22/sports/baseball/david-denson-baseball-prospect-achieves-a-key-victory-being-himself.html",
        "text": "I love my son dearly"
      },
      {
        "originalSentence": "The films (the complete trilogy is again presented over this weekend) are shown to live musical accompaniment by the 21st Century Symphony Orchestra and Chorus as well as members of the Brooklyn Youth Chorus, led by the Swiss conductor Ludwig Wicki",
        "emotions": {
          "joy": 0.8552740216255188,
          "sadness": 0.056922998279333115,
          "disgust": 0.11901900172233582,
          "anger": 0.07757499814033508,
          "fear": 0.09391400218009949
        },
        "mainColor": {
          "r": 75,
          "b": 61,
          "g": 62
        },
        "origin": "http://www.nytimes.com/2015/04/11/arts/music/review-in-the-lord-of-the-rings-in-concert-musicians-in-sync-with-a-soundtrack.html",
        "text": "led by the Swiss conductor Ludwig Wicki"
      }
    ],
    [
      {
        "originalSentence": "Here, in this city known for its football and football legends, and a football fanaticism that bridges generations, it was indeed a day for football",
        "emotions": {
          "joy": 0.7079960107803345,
          "sadness": 0.30167001485824585,
          "disgust": 0.21434900164604187,
          "anger": 0.02943499945104122,
          "fear": 0.1419209986925125
        },
        "mainColor": {
          "r": 161,
          "b": 103,
          "g": 126
        },
        "origin": "http://www.nytimes.com/2015/08/17/sports/soccer/us-womens-soccer-team-recently-crowned-champions-visits-a-football-palace.html",
        "text": "a football fanaticism that bridges generations"
      },
      {
        "originalSentence": "I've begun to see it in my friends too, in the topic of our conversations, in the lives that we lead and in what makes us happy",
        "emotions": {
          "joy": 0.856016993522644,
          "sadness": 0.09886199980974197,
          "disgust": 0.06864599883556366,
          "anger": 0.027619000524282455,
          "fear": 0.10854700207710266
        },
        "mainColor": {
          "r": 149,
          "b": 140,
          "g": 146
        },
        "origin": "http://www.nytimes.com/2015/05/25/world/asia/in-nepal-dread-of-another-earthquake-keeps-residents-on-edge.html",
        "text": "in the topic of our conversations"
      },
      {
        "originalSentence": "Between the day after Thanksgiving and the first weekend of the new year, New York City Ballet gave nearly 50 performances of 'George Balanchine's",
        "emotions": {
          "joy": 0.8630729913711548,
          "sadness": 0.1971369981765747,
          "disgust": 0.1329209953546524,
          "anger": 0.05771299824118614,
          "fear": 0.05015600100159645
        },
        "mainColor": {
          "r": 84,
          "b": 20,
          "g": 27
        },
        "origin": "http://www.nytimes.com/2015/01/05/arts/dance/new-york-city-ballet-wraps-up-nutcracker-season.html",
        "text": "Between the day after Thanksgiving"
      },
      {
        "originalSentence": "The latest sinking occurred on Sunday morning",
        "emotions": {
          "joy": 0.8005110025405884,
          "sadness": 0.1359889954328537,
          "disgust": 0.06353200227022171,
          "anger": 0.08594600111246109,
          "fear": 0.16715900599956512
        },
        "mainColor": {
          "r": 65,
          "b": 96,
          "g": 86
        },
        "origin": "http://www.nytimes.com/2015/05/06/world/europe/italy-migrants-mediterranean-sinking.html",
        "text": "The latest sinking occurred on Sunday morning"
      }
    ],
    [
      {
        "originalSentence": "Matt Harvey and David Wright were back and healthy",
        "emotions": {
          "joy": 0.7710059881210327,
          "sadness": 0.2648630142211914,
          "disgust": 0.07377099990844727,
          "anger": 0.08282099664211273,
          "fear": 0.11548600345849991
        },
        "mainColor": {
          "r": 42,
          "b": 97,
          "g": 69
        },
        "origin": "http://www.nytimes.com/2015/02/27/sports/baseball/terry-collins-sets-aside-cheerleading-for-measured-tone.html",
        "text": "David Wright were back"
      },
      {
        "originalSentence": "After enjoying success a decade ago, Utah, long a midmajor, was invited to join the Pac-12",
        "emotions": {
          "joy": 0.7199320197105408,
          "sadness": 0.21313199400901794,
          "disgust": 0.046477001160383224,
          "anger": 0.05612200126051903,
          "fear": 0.12489700317382812
        },
        "mainColor": {
          "r": 97,
          "b": 22,
          "g": 30
        },
        "origin": "http://www.nytimes.com/2015/11/23/sports/once-again-the-big-12-looks-to-be-on-the-outside-looking-in.html",
        "text": "was invited to join the Pac-12"
      },
      {
        "originalSentence": "'It was the best time of my life,'",
        "emotions": {
          "joy": 0.7624779939651489,
          "sadness": 0.3473060131072998,
          "disgust": 0.018357999622821808,
          "anger": 0.09070199728012085,
          "fear": 0.18379099667072296
        },
        "mainColor": {
          "r": 234,
          "b": 230,
          "g": 235
        },
        "origin": "http://www.nytimes.com/2015/05/27/sports/hockey/for-ducks-patrick-maroon-an-exit-preceded-his-nhl-entrance.html",
        "text": "'It was the best time of my life"
      },
      {
        "originalSentence": "These days, Stricker is home more, spending time with his wife and two daughters thanks to his reduced schedule",
        "emotions": {
          "joy": 0.8361809849739075,
          "sadness": 0.1746789962053299,
          "disgust": 0.2110469937324524,
          "anger": 0.08514200150966644,
          "fear": 0.01972699910402298
        },
        "mainColor": {
          "r": 86,
          "b": 43,
          "g": 74
        },
        "origin": "http://www.nytimes.com/2015/08/09/sports/golf/a-homecoming-for-steve-stricker.html",
        "text": "spending time with his wife"
      }
    ]
  ]
}