{
  "credits": "an ode by Irk Aul",
  "author": "Irk Aul",
  "plain": "as well as distinguished classical dance forms - presented on various platforms - looks back to 1940s swing - that's the fun thing - Engin Gunaydin on drums - 'So when your time comes - three-week Rachmaninoff festival - I bring them here to make them more accessible - In a happy Rangers locker room Wednesday night - indeed everything was all right - 'There are not only sunny days - 'They've made some good plays - ",
  "title": "here to make them more ",
  "type": "ode",
  "strophen": [
    [
      {
        "originalSentence": "This year's genres include examples of hammered dulcimer instrumental music (Tuesday), contemporary Indian dance (Saturday), and Hindustani sitar/bansuri (Sunday), as well as distinguished classical dance forms, including Bharata Natyam, Kuchipudi and Odissi",
        "emotions": {
          "joy": 0.9558650255203247,
          "sadness": 0.14728599786758423,
          "disgust": 0.045212000608444214,
          "anger": 0.10439000278711319,
          "fear": 0.019197000190615654
        },
        "mainColor": {
          "r": 8,
          "b": 1,
          "g": 10
        },
        "origin": "http://www.nytimes.com/2015/08/11/arts/dance/dance-this-week-india-dance-and-ashtons-monotones.html",
        "text": "as well as distinguished classical dance forms"
      },
      {
        "originalSentence": "Illuminated by internal and ambient lights and presented on various platforms and pedestals, the Kandor works are materially sumptuous and metaphorically tantalizing",
        "emotions": {
          "joy": 0.8040969967842102,
          "sadness": 0.08446499705314636,
          "disgust": 0.08717100322246552,
          "anger": 0.15888600051403046,
          "fear": 0.10111600160598755
        },
        "mainColor": {
          "r": 36,
          "b": 13,
          "g": 15
        },
        "origin": "http://www.nytimes.com/2015/09/11/arts/design/review-mike-kelley-uncorks-supermans-kandor-city-in-a-bottle.html",
        "text": "presented on various platforms"
      },
      {
        "originalSentence": "looks back to 1940s swing and film music",
        "emotions": {
          "joy": 0.7383599877357483,
          "sadness": 0.4509879946708679,
          "disgust": 0.03462100028991699,
          "anger": 0.07381299883127213,
          "fear": 0.06264100223779678
        },
        "mainColor": {
          "r": 5,
          "b": 3,
          "g": 3
        },
        "origin": "http://www.nytimes.com/2015/02/04/arts/music/bela-fleck-joins-the-knights-at-pace-university-show.html",
        "text": "looks back to 1940s swing"
      },
      {
        "originalSentence": "But we're enjoying the process, and that's the fun thing",
        "emotions": {
          "joy": 0.8073490262031555,
          "sadness": 0.17602500319480896,
          "disgust": 0.10233700275421143,
          "anger": 0.04455700144171715,
          "fear": 0.03815700113773346
        },
        "mainColor": {
          "r": 31,
          "b": 22,
          "g": 25
        },
        "origin": "http://www.nytimes.com/2015/06/20/sports/basketball/phil-jackson-nba-draft-knicks-carmelo-anthony.html",
        "text": "that's the fun thing"
      }
    ],
    [
      {
        "originalSentence": "This transient electric world groove group, with Pablo Vergara on keys and Engin Gunaydin on drums, is a great way to chill out and welcome a few days off",
        "emotions": {
          "joy": 0.8790130019187927,
          "sadness": 0.12175600230693817,
          "disgust": 0.03246099874377251,
          "anger": 0.15259699523448944,
          "fear": 0.09230300039052963
        },
        "mainColor": {
          "r": 145,
          "b": 233,
          "g": 205
        },
        "origin": "http://www.nytimes.com/2015/07/10/arts/what-to-do-this-weekend.html",
        "text": "Engin Gunaydin on drums"
      },
      {
        "originalSentence": "'So when your time comes, look at the audience and smile'\nThe Asian Youth Orchestra will perform from Saturday to Aug 29",
        "emotions": {
          "joy": 0.7167630195617676,
          "sadness": 0.08122000098228455,
          "disgust": 0.09414699673652649,
          "anger": 0.11524400115013123,
          "fear": 0.20183399319648743
        },
        "mainColor": {
          "r": 19,
          "b": 8,
          "g": 8
        },
        "origin": "http://www.nytimes.com/2015/08/07/arts/international/for-asian-youth-orchestra-mission-is-more-than-just-music.html",
        "text": "'So when your time comes"
      },
      {
        "originalSentence": "three-week Rachmaninoff festival, makes the Fourth Concerto (revised in 1928 and 1941) entirely persuasive",
        "emotions": {
          "joy": 0.8096439838409424,
          "sadness": 0.16248300671577454,
          "disgust": 0.11042000353336334,
          "anger": 0.11374399811029434,
          "fear": 0.11375799775123596
        },
        "mainColor": {
          "r": 21,
          "b": 6,
          "g": 7
        },
        "origin": "http://www.nytimes.com/2015/11/21/arts/music/review-resurrecting-a-pair-of-rachmaninoff-flops.html",
        "text": "three-week Rachmaninoff festival"
      },
      {
        "originalSentence": "'It makes it easier for people to find the good works, and I bring them here to make them more accessible,'",
        "emotions": {
          "joy": 0.8155980110168457,
          "sadness": 0.17611899971961975,
          "disgust": 0.12022300064563751,
          "anger": 0.21443699300289154,
          "fear": 0.08626200258731842
        },
        "mainColor": {
          "r": 154,
          "b": 83,
          "g": 131
        },
        "origin": "http://www.nytimes.com/2015/04/08/arts/international/giving-artworks-a-second-life.html",
        "text": "I bring them here to make them more accessible"
      }
    ],
    [
      {
        "originalSentence": "In a happy Rangers locker room Wednesday night, I asked the great goaltender Henrik Lundqvist how it felt to be a part of a team that actually heated up the Garden",
        "emotions": {
          "joy": 0.7762929797172546,
          "sadness": 0.11006300151348114,
          "disgust": 0.14762000739574432,
          "anger": 0.054051000624895096,
          "fear": 0.24089699983596802
        },
        "mainColor": {
          "r": 59,
          "b": 89,
          "g": 64
        },
        "origin": "http://www.nytimes.com/2015/05/15/sports/hockey/rangers-fans-have-what-knicks-fans-covet-a-rocking-garden.html",
        "text": "In a happy Rangers locker room Wednesday night"
      },
      {
        "originalSentence": "When peace came, indeed everything was all right and the world was rejoicing",
        "emotions": {
          "joy": 0.8246849775314331,
          "sadness": 0.2466920018196106,
          "disgust": 0.03454500064253807,
          "anger": 0.084866002202034,
          "fear": 0.1809920072555542
        },
        "mainColor": {
          "r": 34,
          "b": 10,
          "g": 33
        },
        "origin": "http://www.nytimes.com/2015/06/18/arts/international/alexander-napoleon-josephine-hermitage-amsterdam-a-tale-of-wars-friendship-and-loves-lost.html",
        "text": "indeed everything was all right"
      },
      {
        "originalSentence": "'There are not only sunny days,'",
        "emotions": {
          "joy": 0.9549340009689331,
          "sadness": 0.17068299651145935,
          "disgust": 0.03853800147771835,
          "anger": 0.0477139987051487,
          "fear": 0.049077000468969345
        },
        "mainColor": {
          "r": 233,
          "b": 36,
          "g": 184
        },
        "origin": "http://www.nytimes.com/2015/10/14/sports/soccer/days-after-emotional-us-loss-a-lackluster-one.html",
        "text": "'There are not only sunny days"
      },
      {
        "originalSentence": "'They've made some good plays, but we need to score some runs",
        "emotions": {
          "joy": 0.7074390053749084,
          "sadness": 0.2579529881477356,
          "disgust": 0.03901899978518486,
          "anger": 0.1721930056810379,
          "fear": 0.1568170040845871
        },
        "mainColor": {
          "r": 142,
          "b": 101,
          "g": 153
        },
        "origin": "http://www.nytimes.com/2015/07/01/sports/baseball/angels-back-to-back-home-runs-help-sink-yankees.html",
        "text": "'They've made some good plays"
      }
    ]
  ]
}