{
  "credits": "an ode by Eyant Onb",
  "author": "Eyant Onb",
  "plain": "who led both orchestras - David Portillo was especially fine in Pedrillo's - Curtis Granderson also homered for the Mets - how to work his assets - Day at the Camp Meeting - On a cool Sunday evening - 'It feels good feeling the Champagne burn your eyes - the Mariinsky finally did something wise - This is Ballet Theater's 75th anniversary - There were occasional moments of actual soccer beauty - Good teachers are also essential - Mr Hudson is also successful - It makes it fun out there - This grouping of spare - one of France's biggest stars of all time - The galleries include Design Sublime - ",
  "title": "Hudson is also homered for ",
  "type": "ode",
  "strophen": [
    [
      {
        "originalSentence": "Notable examples include Boston's first conductor, Georg Henschel; Arthur Nikisch, who led both orchestras, and Charles Munch, who became the music director of the Boston Symphony in 1949 and had been concertmaster in Leipzig from 1926 to 1933",
        "emotions": {
          "joy": 0.7029659748077393,
          "sadness": 0.1831270009279251,
          "disgust": 0.14868000149726868,
          "anger": 0.07136599719524384,
          "fear": 0.18900799751281738
        },
        "mainColor": {
          "r": 17,
          "b": 12,
          "g": 7
        },
        "origin": "http://www.nytimes.com/2015/09/10/arts/music/andris-nelsons-named-music-director-of-leipzig-gewandhaus-orchestra.html",
        "text": "who led both orchestras"
      },
      {
        "originalSentence": "The two tenor roles offer fewer opportunities, but Daniel Behle brought vocal beauty to Belmonte, and David Portillo was especially fine in Pedrillo's",
        "emotions": {
          "joy": 0.7538710236549377,
          "sadness": 0.17376099526882172,
          "disgust": 0.31038999557495117,
          "anger": 0.08518099784851074,
          "fear": 0.13911400735378265
        },
        "mainColor": {
          "r": 4,
          "b": 2,
          "g": 2
        },
        "origin": "http://www.nytimes.com/2015/07/15/arts/music/handel-alcina-mozart-aix-festival.html",
        "text": "David Portillo was especially fine in Pedrillo's"
      },
      {
        "originalSentence": "Being able to contribute today made me very happy'\nCurtis Granderson also homered for the Mets, who scored five runs for the first time since beating the Yankees, 8-2, on April 25",
        "emotions": {
          "joy": 0.88817298412323,
          "sadness": 0.07640600204467773,
          "disgust": 0.04878700152039528,
          "anger": 0.08643200248479843,
          "fear": 0.14631199836730957
        },
        "mainColor": {
          "r": 152,
          "b": 83,
          "g": 112
        },
        "origin": "http://www.nytimes.com/2015/05/07/sports/baseball/jacob-degrom-bounces-back-and-mets-gain-a-sweep.html",
        "text": "Curtis Granderson also homered for the Mets"
      },
      {
        "originalSentence": "But he knows the drill by now, how to work his assets, flaunt his success and then hope for some luck and good health",
        "emotions": {
          "joy": 0.7401919960975647,
          "sadness": 0.24544699490070343,
          "disgust": 0.048875998705625534,
          "anger": 0.0607369989156723,
          "fear": 0.06519699841737747
        },
        "mainColor": {
          "r": 29,
          "b": 37,
          "g": 32
        },
        "origin": "http://www.nytimes.com/2015/02/21/sports/basketball/fate-and-frailty-may-test-miami-heats-front-office-wizardry.html",
        "text": "how to work his assets"
      },
      {
        "originalSentence": "Day at the Camp Meeting,'",
        "emotions": {
          "joy": 0.7089239954948425,
          "sadness": 0.12568600475788116,
          "disgust": 0.11527200043201447,
          "anger": 0.06901100277900696,
          "fear": 0.23026500642299652
        },
        "mainColor": {
          "r": 89,
          "b": 22,
          "g": 34
        },
        "origin": "http://www.nytimes.com/2015/11/23/arts/music/review-jeremy-denk-and-stefan-jackiws-lessons-in-ivessnostalgic-sonatas.html",
        "text": "Day at the Camp Meeting"
      },
      {
        "originalSentence": "On a cool Sunday evening, against perhaps its biggest regional rival, Qatar took the lead thanks to an exquisite lob from its talented attacker, Khalfan Ibrahim",
        "emotions": {
          "joy": 0.7889189720153809,
          "sadness": 0.058699000626802444,
          "disgust": 0.1262030005455017,
          "anger": 0.11138399690389633,
          "fear": 0.165243998169899
        },
        "mainColor": {
          "r": 134,
          "b": 64,
          "g": 141
        },
        "origin": "http://www.nytimes.com/2015/01/15/sports/soccer/qatars-eyes-are-on-2018-world-cup-not-2022.html",
        "text": "On a cool Sunday evening"
      }
    ],
    [
      {
        "originalSentence": "'It feels good feeling the Champagne burn your eyes,'",
        "emotions": {
          "joy": 0.7385740280151367,
          "sadness": 0.18941600620746613,
          "disgust": 0.0836540013551712,
          "anger": 0.12808500230312347,
          "fear": 0.10976000130176544
        },
        "mainColor": {
          "r": 97,
          "b": 50,
          "g": 73
        },
        "origin": "http://www.nytimes.com/2015/10/02/sports/baseball/with-some-luck-the-flawed-yankees-may-have-a-prayer.html",
        "text": "'It feels good feeling the Champagne burn your eyes"
      },
      {
        "originalSentence": "Toward the end of its 'Swan Lake' run at the Howard Gilman Opera House of the Brooklyn Academy of Music, the Mariinsky finally did something wise: It made room, on Thursday evening, for a new generation, with its shrewd pairing of Oxana Skorik and Xander Parish",
        "emotions": {
          "joy": 0.7220180034637451,
          "sadness": 0.11216499656438828,
          "disgust": 0.04168799892067909,
          "anger": 0.07395000010728836,
          "fear": 0.2648159861564636
        },
        "mainColor": {
          "r": 9,
          "b": 37,
          "g": 22
        },
        "origin": "http://www.nytimes.com/2015/01/24/arts/dance/in-swan-lake-mariinsky-ballet-shows-off-a-new-generation.html",
        "text": "the Mariinsky finally did something wise"
      },
      {
        "originalSentence": "This is Ballet Theater's 75th anniversary; its dancers are good enough to be asked for a more exposing style that would let them compete with the great corps of history",
        "emotions": {
          "joy": 0.7505189776420593,
          "sadness": 0.1205110028386116,
          "disgust": 0.2829529941082001,
          "anger": 0.12614700198173523,
          "fear": 0.12569400668144226
        },
        "mainColor": {
          "r": 13,
          "b": 8,
          "g": 14
        },
        "origin": "http://www.nytimes.com/2015/06/03/arts/dance/review-american-ballet-theater-revives-la-bayadere-using-familiar-choreography.html",
        "text": "This is Ballet Theater's 75th anniversary"
      },
      {
        "originalSentence": "There were occasional moments of actual soccer beauty",
        "emotions": {
          "joy": 0.7905849814414978,
          "sadness": 0.28054699301719666,
          "disgust": 0.11569400131702423,
          "anger": 0.09073399752378464,
          "fear": 0.14462199807167053
        },
        "mainColor": {
          "r": 26,
          "b": 24,
          "g": 24
        },
        "origin": "http://www.nytimes.com/2015/03/12/sports/soccer/paris-st-germain-dispatches-chelsea-in-champions-league.html",
        "text": "There were occasional moments of actual soccer beauty"
      },
      {
        "originalSentence": "Good teachers are also essential, to train all those future heirs",
        "emotions": {
          "joy": 0.7131239771842957,
          "sadness": 0.11430499702692032,
          "disgust": 0.17462000250816345,
          "anger": 0.16401800513267517,
          "fear": 0.19267399609088898
        },
        "mainColor": {
          "r": 0,
          "b": 0,
          "g": 4
        },
        "origin": "http://www.nytimes.com/2015/05/30/arts/dance/review-young-dancers-of-graham-2-show-palpable-passion-for-the-legend.html",
        "text": "Good teachers are also essential"
      },
      {
        "originalSentence": "Mr Hudson is also successful and lucky enough to own his studio in the neo-Hogarthian city that is 21st-century London",
        "emotions": {
          "joy": 0.8389220237731934,
          "sadness": 0.23668800294399261,
          "disgust": 0.19968000054359436,
          "anger": 0.03951700031757355,
          "fear": 0.09440299868583679
        },
        "mainColor": {
          "r": 160,
          "b": 116,
          "g": 135
        },
        "origin": "http://www.nytimes.com/2015/04/27/arts/international/struggling-artists-in-london-21st-century-style.html",
        "text": "Mr Hudson is also successful"
      }
    ],
    [
      {
        "originalSentence": "It makes it fun out there, a little bit of a challenge",
        "emotions": {
          "joy": 0.712215006351471,
          "sadness": 0.16435499489307404,
          "disgust": 0.08028300106525421,
          "anger": 0.1159989982843399,
          "fear": 0.20992200076580048
        },
        "mainColor": {
          "r": 77,
          "b": 30,
          "g": 89
        },
        "origin": "http://www.nytimes.com/2015/06/29/sports/baseball/astros-new-inclination-is-to-flatten-tals-hill.html",
        "text": "It makes it fun out there"
      },
      {
        "originalSentence": "This grouping of spare, elegant dances, performed in silence and to Bach, also introduces a new performance series at Abrons Arts Center: Travelogues, organized by Laurie Uprichard, formerly the director of Danspace Project and the Dublin Dance Festival",
        "emotions": {
          "joy": 0.8136709928512573,
          "sadness": 0.07081999629735947,
          "disgust": 0.06397800147533417,
          "anger": 0.1699330061674118,
          "fear": 0.16645100712776184
        },
        "mainColor": {
          "r": 0,
          "b": 5,
          "g": 0
        },
        "origin": "http://www.nytimes.com/2015/01/25/arts/dance/the-meaning-of-being-alone.html",
        "text": "This grouping of spare"
      },
      {
        "originalSentence": "Piaf: A Centennial Celebration (Saturday) The chanteuse Edith Piaf, one of France's biggest stars of all time, would have turned 100 this weekend",
        "emotions": {
          "joy": 0.7700989842414856,
          "sadness": 0.36949899792671204,
          "disgust": 0.10482899844646454,
          "anger": 0.025472000241279602,
          "fear": 0.06775400042533875
        },
        "mainColor": {
          "r": 12,
          "b": 35,
          "g": 10
        },
        "origin": "http://www.nytimes.com/2015/12/18/arts/spare-times-for-dec-18-24.html",
        "text": "one of France's biggest stars of all time"
      },
      {
        "originalSentence": "The galleries include Design Sublime, Carol Jazzar Contemporary Art and Laundromat Art Space",
        "emotions": {
          "joy": 0.7828350067138672,
          "sadness": 0.15494300425052643,
          "disgust": 0.057107001543045044,
          "anger": 0.13964299857616425,
          "fear": 0.16543999314308167
        },
        "mainColor": {
          "r": 33,
          "b": 33,
          "g": 33
        },
        "origin": "http://www.nytimes.com/2015/11/27/arts/design/art-basel-miami-beach-a-focus-on-female-artists.html",
        "text": "The galleries include Design Sublime"
      }
    ]
  ]
}