{
  "credits": "an ode by Nthirk Erwofeal",
  "author": "Nthirk Erwofeal",
  "plain": "which featured the New York Philharmonic - joyfully appropriate as any music - Temple followed with wins at Cincinnati - Mr Tarm's work revels in that ambiguity - switching easily between Latin - There is a formidable bullpen - Bodytraffic is led by the artistic directors Lillian Barbeito - who begins it by reviewing video - though greatly successful in Japan - as the subdued first section of the aria began - And good business is the best art - A new day brought a fresh start - has never been played before with live singers - After trailing Archbishop Molloy for three quarters - ",
  "title": "Japan switching easily between Latin ",
  "type": "ode",
  "strophen": [
    [
      {
        "originalSentence": "opening-night gala, which featured the New York Philharmonic and the pianist Evgeny Kissin",
        "emotions": {
          "joy": 0.7900450229644775,
          "sadness": 0.06719200313091278,
          "disgust": 0.14455099403858185,
          "anger": 0.06199200078845024,
          "fear": 0.15330000221729279
        },
        "mainColor": {
          "r": 159,
          "b": 44,
          "g": 92
        },
        "origin": "http://www.nytimes.com/2015/10/09/arts/music/mercedes-bass-is-elected-acting-chairwoman-of-carnegie-hall.html",
        "text": "which featured the New York Philharmonic"
      },
      {
        "originalSentence": "Both evenings closed with a happy constant for these parks concerts: an elaborate fireworks display that provided a bombastic benediction for this golden anniversary that was as noisily, joyfully appropriate as any music",
        "emotions": {
          "joy": 0.8266680240631104,
          "sadness": 0.1736290007829666,
          "disgust": 0.16678600013256073,
          "anger": 0.05141200125217438,
          "fear": 0.030191000550985336
        },
        "mainColor": {
          "r": 136,
          "b": 243,
          "g": 194
        },
        "origin": "http://www.nytimes.com/2015/06/20/arts/music/review-new-york-philharmonic-goes-timeless-in-central-park.html",
        "text": "joyfully appropriate as any music"
      },
      {
        "originalSentence": "Temple followed with wins at Cincinnati, Massachusetts and Charlotte, and home victories against Tulane and Central Florida",
        "emotions": {
          "joy": 0.7672910094261169,
          "sadness": 0.22648200392723083,
          "disgust": 0.1309249997138977,
          "anger": 0.08216000348329544,
          "fear": 0.19009800255298615
        },
        "mainColor": {
          "r": 154,
          "b": 85,
          "g": 70
        },
        "origin": "http://www.nytimes.com/2015/10/22/sports/ncaafootball/a-hot-start-for-temple-where-the-team-motto-is-whats-next.html",
        "text": "Temple followed with wins at Cincinnati"
      },
      {
        "originalSentence": "Mr Tarm's work revels in that ambiguity",
        "emotions": {
          "joy": 0.7078109979629517,
          "sadness": 0.33827900886535645,
          "disgust": 0.16008099913597107,
          "anger": 0.07697100192308426,
          "fear": 0.1045290008187294
        },
        "mainColor": {
          "r": 209,
          "b": 209,
          "g": 209
        },
        "origin": "http://www.nytimes.com/2015/03/07/arts/music/an-argument-for-hearing-a-work-with-a-nazi-reference.html",
        "text": "Mr Tarm's work revels in that ambiguity"
      }
    ],
    [
      {
        "originalSentence": "The superb vocalists progress from Advent to Christmas Day, switching easily between Latin and Middle English, building a collection of music that might have been heard in the 1440s",
        "emotions": {
          "joy": 0.8403549790382385,
          "sadness": 0.1499989926815033,
          "disgust": 0.14930500090122223,
          "anger": 0.030115999281406403,
          "fear": 0.12615400552749634
        },
        "mainColor": {
          "r": 166,
          "b": 54,
          "g": 106
        },
        "origin": "http://www.nytimes.com/2015/12/22/arts/music/a-classical-christmas-across-the-centuries.html",
        "text": "switching easily between Latin"
      },
      {
        "originalSentence": "There is a formidable bullpen, as well as professional hitters and a sweet-fielding new shortstop",
        "emotions": {
          "joy": 0.720238983631134,
          "sadness": 0.24376000463962555,
          "disgust": 0.17397800087928772,
          "anger": 0.06227700039744377,
          "fear": 0.14688900113105774
        },
        "mainColor": {
          "r": 158,
          "b": 104,
          "g": 125
        },
        "origin": "http://www.nytimes.com/2015/03/09/sports/baseball/joe-girardi-hopes-to-coax-yankees-into-another-playoff-race.html",
        "text": "There is a formidable bullpen"
      },
      {
        "originalSentence": "Bodytraffic is led by the artistic directors Lillian Barbeito, who retired from dancing in 2013, and Tina Finkelman Berkett, who appeared in all four pieces",
        "emotions": {
          "joy": 0.7041379809379578,
          "sadness": 0.16711099445819855,
          "disgust": 0.20622700452804565,
          "anger": 0.06668899953365326,
          "fear": 0.20338000357151031
        },
        "mainColor": {
          "r": 1,
          "b": 1,
          "g": 1
        },
        "origin": "http://www.nytimes.com/2015/01/08/arts/bodytraffic-performs-at-the-joyce-theater.html",
        "text": "Bodytraffic is led by the artistic directors Lillian Barbeito"
      },
      {
        "originalSentence": "It is a full day, and Matheny, who begins it by reviewing video, makes sure to work out at the ballpark every day",
        "emotions": {
          "joy": 0.7074649930000305,
          "sadness": 0.12404099851846695,
          "disgust": 0.1598699986934662,
          "anger": 0.13069400191307068,
          "fear": 0.2092359960079193
        },
        "mainColor": {
          "r": 162,
          "b": 84,
          "g": 119
        },
        "origin": "http://www.nytimes.com/2015/05/19/sports/baseball/grizzled-manager-part-of-a-bygone-era.html",
        "text": "who begins it by reviewing video"
      }
    ],
    [
      {
        "originalSentence": "work, though greatly successful in Japan and elsewhere, has been called un-Japanese in Japan",
        "emotions": {
          "joy": 0.7212839722633362,
          "sadness": 0.14339600503444672,
          "disgust": 0.34253400564193726,
          "anger": 0.1194709986448288,
          "fear": 0.10984600335359573
        },
        "mainColor": {
          "r": 221,
          "b": 216,
          "g": 222
        },
        "origin": "http://www.nytimes.com/2015/11/16/arts/dance/review-spectator-at-the-japan-society.html",
        "text": "though greatly successful in Japan"
      },
      {
        "originalSentence": "On Monday, as the subdued first section of the aria began, the wondrous Ms DiDonato and Mr Mariotti, the fast-rising young Italian conductor, seemed almost in competition to see who could make music with more delicacy",
        "emotions": {
          "joy": 0.7919039726257324,
          "sadness": 0.3824790120124817,
          "disgust": 0.09231399744749069,
          "anger": 0.10589099675416946,
          "fear": 0.10388500243425369
        },
        "mainColor": {
          "r": 28,
          "b": 89,
          "g": 56
        },
        "origin": "http://www.nytimes.com/2015/02/18/arts/music/review-a-la-donna-del-lago-with-melting-tenderness-at-the-met.html",
        "text": "as the subdued first section of the aria began"
      },
      {
        "originalSentence": "And good business is the best art,'",
        "emotions": {
          "joy": 0.8167819976806641,
          "sadness": 0.1498039960861206,
          "disgust": 0.012211999855935574,
          "anger": 0.11862300336360931,
          "fear": 0.24120500683784485
        },
        "mainColor": {
          "r": 212,
          "b": 198,
          "g": 204
        },
        "origin": "http://www.nytimes.com/2015/07/04/arts/international/at-art-auctions-missed-expectations-for-some-big-names.html",
        "text": "And good business is the best art"
      },
      {
        "originalSentence": "A new day brought a fresh start, though, and four consecutive birdies starting at No11 moved Harrington into contention",
        "emotions": {
          "joy": 0.8751159906387329,
          "sadness": 0.10697799921035767,
          "disgust": 0.027360999956727028,
          "anger": 0.04566900059580803,
          "fear": 0.2398580014705658
        },
        "mainColor": {
          "r": 110,
          "b": 43,
          "g": 109
        },
        "origin": "http://www.nytimes.com/2015/04/09/sports/golf/padraig-harrington-is-golfs-mind-game-champion.html",
        "text": "A new day brought a fresh start"
      },
      {
        "originalSentence": "has never been played before with live singers and orchestra; the lyrical impact of music and dance expanded marvelously",
        "emotions": {
          "joy": 0.8043239712715149,
          "sadness": 0.15576499700546265,
          "disgust": 0.04401399940252304,
          "anger": 0.12051499634981155,
          "fear": 0.04333199933171272
        },
        "mainColor": {
          "r": 35,
          "b": 14,
          "g": 15
        },
        "origin": "http://www.nytimes.com/2015/03/16/arts/dance/review-death-and-the-damsel-a-paul-taylor-premiere-on-sex-trafficking.html",
        "text": "has never been played before with live singers"
      },
      {
        "originalSentence": "After trailing Archbishop Molloy for three quarters, the Royals looked very much like a work in progress",
        "emotions": {
          "joy": 0.7578139901161194,
          "sadness": 0.1900150030851364,
          "disgust": 0.20808100700378418,
          "anger": 0.12204399704933167,
          "fear": 0.042674001306295395
        },
        "mainColor": {
          "r": 158,
          "b": 53,
          "g": 68
        },
        "origin": "http://www.nytimes.com/2015/03/25/sports/basketball/for-an-elite-girls-basketball-team-the-same-high-standards-amid-new-challenges.html",
        "text": "After trailing Archbishop Molloy for three quarters"
      }
    ]
  ]
}