{
  "credits": "an ode by Aandessa Caram",
  "author": "Aandessa Caram",
  "plain": "and as temperatures plummeted on Sunday afternoon - not to mention the flagship Art Basel in June - sheep bleat in the open pasture - seen Friday at Abrons Arts Center - 'There are not only sunny days - 'They've made some good plays - For the lucky few - 500 outpatients passed through - 'We made good progress - 'I love the process - Later we listen to carols - performing alongside four soloist couples - this made him really - a somewhere-on-the-spectrum savant with a perfect memory - ",
  "title": "Later we listen to carols ",
  "type": "ode",
  "strophen": [
    [
      {
        "originalSentence": "and as temperatures plummeted on Sunday afternoon, it felt particularly welcome to bask in the Auryn Quartet's glowing timbres in the snug acoustical cocoon of the Frick Collection's intimate Music Room",
        "emotions": {
          "joy": 0.7781469821929932,
          "sadness": 0.11122100055217743,
          "disgust": 0.3348050117492676,
          "anger": 0.0828080028295517,
          "fear": 0.08482299745082855
        },
        "mainColor": {
          "r": 81,
          "b": 29,
          "g": 48
        },
        "origin": "http://www.nytimes.com/2015/02/17/arts/auryn-quartet-forges-a-radiance-at-the-frick.html",
        "text": "and as temperatures plummeted on Sunday afternoon"
      },
      {
        "originalSentence": "will no longer run up against Frieze New York, Gallery Weekend in Berlin and the Venice Biennale in May, not to mention the flagship Art Basel in June",
        "emotions": {
          "joy": 0.7332059741020203,
          "sadness": 0.29022398591041565,
          "disgust": 0.07428800314664841,
          "anger": 0.125450998544693,
          "fear": 0.23265600204467773
        },
        "mainColor": {
          "r": 198,
          "b": 219,
          "g": 208
        },
        "origin": "http://www.nytimes.com/2015/03/13/arts/international/asia-gears-up-for-art-basel-hong-kong.html",
        "text": "not to mention the flagship Art Basel in June"
      },
      {
        "originalSentence": "On a sunny day at the Glyndebourne Festival here, an hour's train ride from London, bees buzz amiably through wildflowers, sheep bleat in the open pasture, and champagne glasses clink amid high-society chatter",
        "emotions": {
          "joy": 0.7673529982566833,
          "sadness": 0.07397899776697159,
          "disgust": 0.14721399545669556,
          "anger": 0.03282700106501579,
          "fear": 0.3133609890937805
        },
        "mainColor": {
          "r": 6,
          "b": 5,
          "g": 5
        },
        "origin": "http://www.nytimes.com/2015/06/24/arts/music/review-poliuto-a-rare-donizetti-bel-canto-thriller.html",
        "text": "sheep bleat in the open pasture"
      },
      {
        "originalSentence": "For those who think American Realness 2015, a festival of dance and performance, is about promoting one kind of art, two recent shows, seen Friday at Abrons Arts Center, presented two sides of contemporary choreography",
        "emotions": {
          "joy": 0.7196679711341858,
          "sadness": 0.14785200357437134,
          "disgust": 0.12884999811649323,
          "anger": 0.09446699917316437,
          "fear": 0.09312400221824646
        },
        "mainColor": {
          "r": 10,
          "b": 18,
          "g": 13
        },
        "origin": "http://www.nytimes.com/2015/01/12/arts/dance/two-sides-of-contemporary-choreography-at-american-realness.html",
        "text": "seen Friday at Abrons Arts Center"
      },
      {
        "originalSentence": "'There are not only sunny days,'",
        "emotions": {
          "joy": 0.9549340009689331,
          "sadness": 0.17068299651145935,
          "disgust": 0.03853800147771835,
          "anger": 0.0477139987051487,
          "fear": 0.049077000468969345
        },
        "mainColor": {
          "r": 233,
          "b": 36,
          "g": 184
        },
        "origin": "http://www.nytimes.com/2015/10/14/sports/soccer/days-after-emotional-us-loss-a-lackluster-one.html",
        "text": "'There are not only sunny days"
      },
      {
        "originalSentence": "'They've made some good plays, but we need to score some runs",
        "emotions": {
          "joy": 0.7074390053749084,
          "sadness": 0.2579529881477356,
          "disgust": 0.03901899978518486,
          "anger": 0.1721930056810379,
          "fear": 0.1568170040845871
        },
        "mainColor": {
          "r": 142,
          "b": 101,
          "g": 153
        },
        "origin": "http://www.nytimes.com/2015/07/01/sports/baseball/angels-back-to-back-home-runs-help-sink-yankees.html",
        "text": "'They've made some good plays"
      }
    ],
    [
      {
        "originalSentence": "For the lucky few, invitations to Champagne receptions for luxury brands started arriving in August",
        "emotions": {
          "joy": 0.7709450125694275,
          "sadness": 0.09457200020551682,
          "disgust": 0.11052499711513519,
          "anger": 0.06787999719381332,
          "fear": 0.16540899872779846
        },
        "mainColor": {
          "r": 124,
          "b": 158,
          "g": 137
        },
        "origin": "http://www.nytimes.com/2015/12/03/arts/international/art-basel-in-miami-beach-shines-a-light-on-the-americas.html",
        "text": "For the lucky few"
      },
      {
        "originalSentence": "Each day, 8,500 outpatients passed through",
        "emotions": {
          "joy": 0.7107679843902588,
          "sadness": 0.20995399355888367,
          "disgust": 0.24436800181865692,
          "anger": 0.07237300276756287,
          "fear": 0.16757699847221375
        },
        "mainColor": {
          "r": 255,
          "b": 255,
          "g": 255
        },
        "origin": "http://www.nytimes.com/2015/06/18/world/asia/south-korean-hospital-scrutinized-in-mers-outbreak.html",
        "text": "500 outpatients passed through"
      },
      {
        "originalSentence": "'We made good progress,'",
        "emotions": {
          "joy": 0.8741099834442139,
          "sadness": 0.045805998146533966,
          "disgust": 0.04619700089097023,
          "anger": 0.14619800448417664,
          "fear": 0.09283500164747238
        },
        "mainColor": {
          "r": 84,
          "b": 41,
          "g": 100
        },
        "origin": "http://www.nytimes.com/2015/03/21/world/middleeast/latest-round-of-iran-nuclear-talks-ends.html",
        "text": "'We made good progress"
      },
      {
        "originalSentence": "'I love the process",
        "emotions": {
          "joy": 0.7071260213851929,
          "sadness": 0.11121100187301636,
          "disgust": 0.08296199887990952,
          "anger": 0.06283800303936005,
          "fear": 0.09781099855899811
        },
        "mainColor": {
          "r": 104,
          "b": 40,
          "g": 83
        },
        "origin": "http://www.nytimes.com/2015/05/31/sports/olympian-natalie-coughlin-prefers-rio-over-retirement.html",
        "text": "'I love the process"
      }
    ],
    [
      {
        "originalSentence": "Later we listen to carols and Christmas music",
        "emotions": {
          "joy": 0.7693399786949158,
          "sadness": 0.2595129907131195,
          "disgust": 0.012445000000298023,
          "anger": 0.1498440057039261,
          "fear": 0.10404700040817261
        },
        "mainColor": {
          "r": 28,
          "b": 28,
          "g": 28
        },
        "origin": "http://www.nytimes.com/2015/01/22/arts/john-bayley-oxford-don-who-wrote-of-his-wife-iris-murdoch-dies-at-89.html",
        "text": "Later we listen to carols"
      },
      {
        "originalSentence": "New to this ballet, created in 1994, are its sprightly leads, Sterling Hyltin and Andrew Veyette, performing alongside four soloist couples and 16 members of the corps de ballet",
        "emotions": {
          "joy": 0.8261860013008118,
          "sadness": 0.0717490017414093,
          "disgust": 0.09670399874448776,
          "anger": 0.07533200085163116,
          "fear": 0.184471994638443
        },
        "mainColor": {
          "r": 0,
          "b": 0,
          "g": 0
        },
        "origin": "http://www.nytimes.com/2015/01/23/arts/dance/from-city-ballet-hear-the-dance-russia.html",
        "text": "performing alongside four soloist couples"
      },
      {
        "originalSentence": "I wanted him to be happy, and this made him really, really happy,'",
        "emotions": {
          "joy": 0.8586000204086304,
          "sadness": 0.19019199907779694,
          "disgust": 0.045301999896764755,
          "anger": 0.0778300017118454,
          "fear": 0.01885399967432022
        },
        "mainColor": {
          "r": 28,
          "b": 5,
          "g": 5
        },
        "origin": "http://www.nytimes.com/2015/10/04/arts/television/pete-davidson-nuzzles-up-to-the-prickly-joke.html",
        "text": "this made him really"
      },
      {
        "originalSentence": "Alex (Gavin Stenhouse), a somewhere-on-the-spectrum savant with a perfect memory and stilted sociability, has joined the CIA",
        "emotions": {
          "joy": 0.743245005607605,
          "sadness": 0.19821099936962128,
          "disgust": 0.08004699647426605,
          "anger": 0.05381900072097778,
          "fear": 0.26200801134109497
        },
        "mainColor": {
          "r": 36,
          "b": 10,
          "g": 19
        },
        "origin": "http://www.nytimes.com/2015/02/05/arts/television/hope-davis-stars-in-allegiance-on-nbc.html",
        "text": "a somewhere-on-the-spectrum savant with a perfect memory"
      }
    ]
  ]
}