{
  "credits": "an ode by Nygerlanke Acau",
  "author": "Nygerlanke Acau",
  "plain": "By celebrating the past - whose star is rising fast - the art patrons Sydney - including three with Cincinnati - It is a full day - I'm happy I won in three sets today - Palms will be read to this music - Izzo means March (and early April) magic - (Stats provides live scores - On Monday night came Mr McGregor's - played with complete conviction - will also visit Washington - like the Tate Britain in London - now undergoing a $5 million renovation - This was 15 years ago - Red Bull Music Academy Festival show - When Bailey does score - fragments of two more - ",
  "title": "Monday night came Mr McGregor's ",
  "type": "ode",
  "strophen": [
    [
      {
        "originalSentence": "By celebrating the past, though, Dance Machine hopes to encourage a new generation of choreographers to embrace the storytelling spirit of earlier Broadway dance-makers like de Mille and Robbins and to discover their own singular style",
        "emotions": {
          "joy": 0.7269880175590515,
          "sadness": 0.20755399763584137,
          "disgust": 0.045340001583099365,
          "anger": 0.10395999997854233,
          "fear": 0.174018993973732
        },
        "mainColor": {
          "r": 151,
          "b": 80,
          "g": 117
        },
        "origin": "http://www.nytimes.com/2015/12/21/arts/dance/dance-machine-of-the-21st-century-imparts-vintage-broadway-steps-to-a-new-generation.html",
        "text": "By celebrating the past"
      },
      {
        "originalSentence": "The virile-voiced tenor Aleksandrs Antonenko is Otello; the splendid soprano Sonya Yoncheva, whose star is rising fast, sings Desdemona",
        "emotions": {
          "joy": 0.8143789768218994,
          "sadness": 0.15170900523662567,
          "disgust": 0.15588800609111786,
          "anger": 0.08477000147104263,
          "fear": 0.1379140019416809
        },
        "mainColor": {
          "r": 18,
          "b": 0,
          "g": 0
        },
        "origin": "http://www.nytimes.com/2015/09/13/arts/music/revivals-that-illuminate-the-mets-future.html",
        "text": "whose star is rising fast"
      },
      {
        "originalSentence": "In New Orleans, the art patrons Sydney and Walda Besthoff have been working with the New Orleans Museum of Art to create a major sculpture garden with over 60 works",
        "emotions": {
          "joy": 0.8923230171203613,
          "sadness": 0.13023099303245544,
          "disgust": 0.06015000119805336,
          "anger": 0.06280799955129623,
          "fear": 0.09874600172042847
        },
        "mainColor": {
          "r": 117,
          "b": 66,
          "g": 147
        },
        "origin": "http://www.nytimes.com/2015/11/01/arts/design/sculpture-gets-its-day-in-the-sun-as-prices-rise.html",
        "text": "the art patrons Sydney"
      },
      {
        "originalSentence": "Holds the major league record for most opening day starts (16), including three with Cincinnati and two with the Chicago White Sox",
        "emotions": {
          "joy": 0.7084320187568665,
          "sadness": 0.10189799964427948,
          "disgust": 0.20933499932289124,
          "anger": 0.09352999925613403,
          "fear": 0.21024300158023834
        },
        "mainColor": {
          "r": 108,
          "b": 75,
          "g": 146
        },
        "origin": "http://www.nytimes.com/2015/03/28/sports/baseball/so-who-needs-matt-harvey.html",
        "text": "including three with Cincinnati"
      },
      {
        "originalSentence": "It is a full day, and Matheny, who begins it by reviewing video, makes sure to work out at the ballpark every day",
        "emotions": {
          "joy": 0.7074649930000305,
          "sadness": 0.12404099851846695,
          "disgust": 0.1598699986934662,
          "anger": 0.13069400191307068,
          "fear": 0.2092359960079193
        },
        "mainColor": {
          "r": 162,
          "b": 84,
          "g": 119
        },
        "origin": "http://www.nytimes.com/2015/05/19/sports/baseball/grizzled-manager-part-of-a-bygone-era.html",
        "text": "It is a full day"
      },
      {
        "originalSentence": "I'm happy I won in three sets today",
        "emotions": {
          "joy": 0.966251015663147,
          "sadness": 0.18164099752902985,
          "disgust": 0.020468000322580338,
          "anger": 0.027319999411702156,
          "fear": 0.03047100082039833
        },
        "mainColor": {
          "r": 42,
          "b": 162,
          "g": 70
        },
        "origin": "http://www.nytimes.com/2015/01/29/sports/tennis/nishikoris-late-rally-not-enough-to-overcome-wawrinka.html",
        "text": "I'm happy I won in three sets today"
      }
    ],
    [
      {
        "originalSentence": "Palms will be read to this music, miracles foretold",
        "emotions": {
          "joy": 0.7256870269775391,
          "sadness": 0.20721900463104248,
          "disgust": 0.03430100157856941,
          "anger": 0.11614900082349777,
          "fear": 0.13266299664974213
        },
        "mainColor": {
          "r": 33,
          "b": 43,
          "g": 37
        },
        "origin": "http://www.nytimes.com/2015/04/26/arts/music/los-angeles-jazz-with-kamasi-washington-and-others.html",
        "text": "Palms will be read to this music"
      },
      {
        "originalSentence": "Yet Michigan State means Izzo, and Izzo means March (and early April) magic",
        "emotions": {
          "joy": 0.7243009805679321,
          "sadness": 0.31988000869750977,
          "disgust": 0.11476600170135498,
          "anger": 0.12770000100135803,
          "fear": 0.09250999987125397
        },
        "mainColor": {
          "r": 223,
          "b": 140,
          "g": 171
        },
        "origin": "http://www.nytimes.com/2015/04/05/sports/ncaabasketball/duke-defeats-michigan-state-to-advance-to-ncaa-title-game.html",
        "text": "Izzo means March (and early April) magic"
      },
      {
        "originalSentence": "(Stats provides live scores and statistics to The New York Times)",
        "emotions": {
          "joy": 0.8687459826469421,
          "sadness": 0.10440099984407425,
          "disgust": 0.0745059996843338,
          "anger": 0.1200060024857521,
          "fear": 0.1596750020980835
        },
        "mainColor": {
          "r": 98,
          "b": 121,
          "g": 165
        },
        "origin": "http://www.nytimes.com/2015/12/19/sports/sportradar-nfl-gambling.html",
        "text": "(Stats provides live scores"
      },
      {
        "originalSentence": "On Monday night came Mr McGregor's",
        "emotions": {
          "joy": 0.7964079976081848,
          "sadness": 0.21711499989032745,
          "disgust": 0.03816299885511398,
          "anger": 0.104823999106884,
          "fear": 0.2774919867515564
        },
        "mainColor": {
          "r": 82,
          "b": 47,
          "g": 62
        },
        "origin": "http://www.nytimes.com/2015/05/15/arts/dance/review-woolf-works-by-the-royal-ballet.html",
        "text": "On Monday night came Mr McGregor's"
      },
      {
        "originalSentence": "was gloriously vivid: played with complete conviction and danced with heroic beauty",
        "emotions": {
          "joy": 0.8892580270767212,
          "sadness": 0.0497019998729229,
          "disgust": 0.08288899809122086,
          "anger": 0.08196999877691269,
          "fear": 0.07208900153636932
        },
        "mainColor": {
          "r": 85,
          "b": 43,
          "g": 69
        },
        "origin": "http://www.nytimes.com/2015/05/26/arts/dance/review-city-ballets-spring-season-includes-ny-export-opus-jazz.html",
        "text": "played with complete conviction"
      },
      {
        "originalSentence": "The pope is expected to visit Philadelphia in September for the World Meeting of Families, and will also visit Washington and New York during the trip",
        "emotions": {
          "joy": 0.7780470252037048,
          "sadness": 0.12545999884605408,
          "disgust": 0.20778299868106842,
          "anger": 0.08493699878454208,
          "fear": 0.17416700720787048
        },
        "mainColor": {
          "r": 67,
          "b": 158,
          "g": 103
        },
        "origin": "http://www.nytimes.com/2015/04/23/world/europe/pope-francis-plans-to-visit-cuba-this-year.html",
        "text": "will also visit Washington"
      }
    ],
    [
      {
        "originalSentence": "Expected to attend this year are the heads of major arts institutions, like the Tate Britain in London; the Museum of Modern Art in New York; the Mori Art Museum in Tokyo; the Art Gallery of New South Wales, in Sydney, Australia; the Museum of Contemporary Art in Taipei; and M+, Hong Kong's visual culture museum, which is scheduled to open in 2018",
        "emotions": {
          "joy": 0.8880850076675415,
          "sadness": 0.32051700353622437,
          "disgust": 0.06346599757671356,
          "anger": 0.045802999287843704,
          "fear": 0.1158209964632988
        },
        "mainColor": {
          "r": 198,
          "b": 219,
          "g": 208
        },
        "origin": "http://www.nytimes.com/2015/03/13/arts/international/asia-gears-up-for-art-basel-hong-kong.html",
        "text": "like the Tate Britain in London"
      },
      {
        "originalSentence": "The club, now undergoing a $5 million renovation, will present two shows a night, Tuesday through Sunday",
        "emotions": {
          "joy": 0.8297150135040283,
          "sadness": 0.12065199762582779,
          "disgust": 0.2512570023536682,
          "anger": 0.03003700077533722,
          "fear": 0.09364800155162811
        },
        "mainColor": {
          "r": 21,
          "b": 21,
          "g": 21
        },
        "origin": "http://www.nytimes.com/2015/06/25/arts/music/blue-note-jazz-club-plans-expansion-to-china.html",
        "text": "now undergoing a $5 million renovation"
      },
      {
        "originalSentence": "This was 15 years ago, in the twilight of Chris Mullin's wonderful basketball-playing life",
        "emotions": {
          "joy": 0.7054240107536316,
          "sadness": 0.30247199535369873,
          "disgust": 0.23007500171661377,
          "anger": 0.03660599887371063,
          "fear": 0.08670300245285034
        },
        "mainColor": {
          "r": 50,
          "b": 160,
          "g": 104
        },
        "origin": "http://www.nytimes.com/2015/04/01/sports/ncaabasketball/can-chris-mullin-thrive-on-name-and-local-ties-peers-say-yes.html",
        "text": "This was 15 years ago"
      },
      {
        "originalSentence": "Red Bull Music Academy Festival show, a fifth birthday celebration for the Tri Angle Records label",
        "emotions": {
          "joy": 0.8647440075874329,
          "sadness": 0.0866210013628006,
          "disgust": 0.0652260035276413,
          "anger": 0.05023699998855591,
          "fear": 0.05127999931573868
        },
        "mainColor": {
          "r": 1,
          "b": 25,
          "g": 1
        },
        "origin": "http://www.nytimes.com/2015/05/18/arts/music/an-apt-basement-celebration-of-tri-angle-records.html",
        "text": "Red Bull Music Academy Festival show"
      },
      {
        "originalSentence": "When Bailey does score, the last two lines become: 'What do you know, you scored a goal'\nBailey, 25, who scored a career-high 16 goals in 2009-10, enjoys the cheering",
        "emotions": {
          "joy": 0.8054010272026062,
          "sadness": 0.18675799667835236,
          "disgust": 0.07710099965333939,
          "anger": 0.06297300010919571,
          "fear": 0.09357599914073944
        },
        "mainColor": {
          "r": 183,
          "b": 168,
          "g": 153
        },
        "origin": "http://www.nytimes.com/2015/01/04/sports/hockey/new-york-islanders-enjoy-a-raucous-advantage-in-their-soon-to-be-former-home.html",
        "text": "When Bailey does score"
      },
      {
        "originalSentence": "This exhibition presents 22 works, and fragments of two more",
        "emotions": {
          "joy": 0.7500680088996887,
          "sadness": 0.20261499285697937,
          "disgust": 0.133432999253273,
          "anger": 0.15737499296665192,
          "fear": 0.10568899661302567
        },
        "mainColor": {
          "r": 92,
          "b": 58,
          "g": 62
        },
        "origin": "http://www.nytimes.com/2015/03/06/arts/design/review-ennion-at-the-met-profiles-an-ancient-glassmaker.html",
        "text": "fragments of two more"
      }
    ]
  ]
}