{
  "credits": "an ode by Hcelkare Ncott",
  "author": "Hcelkare Ncott",
  "plain": "'You've just got to keep working - and wonderfully arched) are especially heart-catching - where Kizer would spend time with Thatcher - He also performed with the singer - I'm happy for my family - The old catcher smiled wryly - But it is also a thing of joy - backdoor top 10 for McIlroy - A Grammy Award-winning producer - to the National Theater - my interest in art - A new day brought a fresh start - For five days a week - 'That makes it unique - called for May Day - were in Johnson's gallery Sunday - ",
  "title": "new day brought a week to ",
  "type": "ode",
  "strophen": [
    [
      {
        "originalSentence": "'You've just got to keep working,'",
        "emotions": {
          "joy": 0.7296620011329651,
          "sadness": 0.12103299796581268,
          "disgust": 0.09160099923610687,
          "anger": 0.20212100446224213,
          "fear": 0.16228799521923065
        },
        "mainColor": {
          "r": 130,
          "b": 104,
          "g": 157
        },
        "origin": "http://www.nytimes.com/2015/09/08/sports/football/back-at-practice-jets-geno-smith-says-he-wont-press-charges.html",
        "text": "'You've just got to keep working"
      },
      {
        "originalSentence": "and wonderfully arched) are especially heart-catching, while Patricia's",
        "emotions": {
          "joy": 0.7981719970703125,
          "sadness": 0.14811299741268158,
          "disgust": 0.10431399941444397,
          "anger": 0.09037599712610245,
          "fear": 0.1348789930343628
        },
        "mainColor": {
          "r": 8,
          "b": 10,
          "g": 7
        },
        "origin": "http://www.nytimes.com/2015/03/25/arts/dance/review-richard-alstons-carmen-in-fort-lauderdale.html",
        "text": "and wonderfully arched) are especially heart-catching"
      },
      {
        "originalSentence": "That transition was eased through the bond that developed between the quarterbacks this year on long drives to Columbus, where Kizer would spend time with Thatcher, and Zaire, another Ohio native, would visit friends",
        "emotions": {
          "joy": 0.7368239760398865,
          "sadness": 0.16090300679206848,
          "disgust": 0.19491000473499298,
          "anger": 0.06773199886083603,
          "fear": 0.21921199560165405
        },
        "mainColor": {
          "r": 97,
          "b": 60,
          "g": 75
        },
        "origin": "http://www.nytimes.com/2015/11/25/sports/ncaafootball/handed-lifes-twists-notre-dame-quarterback-turns-it-around.html",
        "text": "where Kizer would spend time with Thatcher"
      },
      {
        "originalSentence": "He also performed with the singer and music historian Mike Seeger and with Jerry Garcia (better known for playing guitar and singing with the Grateful Dead)",
        "emotions": {
          "joy": 0.7092900276184082,
          "sadness": 0.22589999437332153,
          "disgust": 0.07762300223112106,
          "anger": 0.16255700588226318,
          "fear": 0.09158500283956528
        },
        "mainColor": {
          "r": 33,
          "b": 33,
          "g": 33
        },
        "origin": "http://www.nytimes.com/2015/05/06/arts/music/benjamin-f-logan-engineer-by-day-and-bluegrass-fiddler-by-night-dies-at-87.html",
        "text": "He also performed with the singer"
      },
      {
        "originalSentence": "So personally, I'm happy for my family, my trainer, the jockey '",
        "emotions": {
          "joy": 0.7237060070037842,
          "sadness": 0.1599469929933548,
          "disgust": 0.1238740012049675,
          "anger": 0.11358100175857544,
          "fear": 0.030640000477433205
        },
        "mainColor": {
          "r": 97,
          "b": 69,
          "g": 87
        },
        "origin": "http://www.nytimes.com/2015/06/03/sports/american-pharoah-arrives-at-belmont.html",
        "text": "I'm happy for my family"
      },
      {
        "originalSentence": "The old catcher smiled wryly",
        "emotions": {
          "joy": 0.9587169885635376,
          "sadness": 0.20097200572490692,
          "disgust": 0.037429001182317734,
          "anger": 0.007178000174462795,
          "fear": 0.029423000290989876
        },
        "mainColor": {
          "r": 24,
          "b": 138,
          "g": 61
        },
        "origin": "http://www.nytimes.com/2015/04/05/sports/baseball/baseball-2015-preview-in-a-pitching-rich-era-baseball-ponders-legal-ways-to-boost-offense.html",
        "text": "The old catcher smiled wryly"
      }
    ],
    [
      {
        "originalSentence": "But it is also a thing of joy: It brings the work of a wonderful and underappreciated artist to the fore",
        "emotions": {
          "joy": 0.8876609802246094,
          "sadness": 0.16047599911689758,
          "disgust": 0.07816199958324432,
          "anger": 0.0462459996342659,
          "fear": 0.15280500054359436
        },
        "mainColor": {
          "r": 243,
          "b": 244,
          "g": 241
        },
        "origin": "http://www.nytimes.com/2015/07/10/arts/design/reviewart-carved-from-inequality-by-james-son-ford-thomas.html",
        "text": "But it is also a thing of joy"
      },
      {
        "originalSentence": "It is victory or backdoor top 10 for McIlroy, who tied for ninth Sunday",
        "emotions": {
          "joy": 0.8566740155220032,
          "sadness": 0.051952000707387924,
          "disgust": 0.07935500144958496,
          "anger": 0.12941500544548035,
          "fear": 0.090768001973629
        },
        "mainColor": {
          "r": 69,
          "b": 101,
          "g": 83
        },
        "origin": "http://www.nytimes.com/2015/06/23/sports/from-an-outcome-out-of-his-hands-to-the-world-at-his-fingertips.html",
        "text": "backdoor top 10 for McIlroy"
      },
      {
        "originalSentence": "A Grammy Award-winning producer, composer and jazz performer, he smiled broadly",
        "emotions": {
          "joy": 0.9237200021743774,
          "sadness": 0.11797499656677246,
          "disgust": 0.10192599892616272,
          "anger": 0.02352299913764,
          "fear": 0.03574699908494949
        },
        "mainColor": {
          "r": 3,
          "b": 12,
          "g": 3
        },
        "origin": "http://www.nytimes.com/2015/02/24/world/rebirth-of-the-cool-american-music-makes-a-return-to-iran.html",
        "text": "A Grammy Award-winning producer"
      },
      {
        "originalSentence": "Others quickly followed suit, from the Royal Shakespeare Company, which started mixing in new works with daring stagings of Shakespeare, to the National Theater, which premiered new works by Samuel Beckett and Peter Shaffer shortly after its founding in 1963",
        "emotions": {
          "joy": 0.7029359936714172,
          "sadness": 0.14125999808311462,
          "disgust": 0.3318080008029938,
          "anger": 0.03972100093960762,
          "fear": 0.15546299517154694
        },
        "mainColor": {
          "r": 240,
          "b": 61,
          "g": 90
        },
        "origin": "http://www.nytimes.com/2015/05/21/arts/international/is-it-curtains-for-the-classics-more-new-plays-are-hitting-the-stage-in-britain.html",
        "text": "to the National Theater"
      },
      {
        "originalSentence": "Through new relationships and travel, my interest in art, particularly new art, including photography, was growing",
        "emotions": {
          "joy": 0.8100849986076355,
          "sadness": 0.19803200662136078,
          "disgust": 0.03600599989295006,
          "anger": 0.06798200309276581,
          "fear": 0.236285999417305
        },
        "mainColor": {
          "r": 219,
          "b": 107,
          "g": 157
        },
        "origin": "http://www.nytimes.com/2015/08/20/arts/design/what-i-learned-from-a-disgraced-art-show-on-harlem.html",
        "text": "my interest in art"
      },
      {
        "originalSentence": "A new day brought a fresh start, though, and four consecutive birdies starting at No11 moved Harrington into contention",
        "emotions": {
          "joy": 0.8751159906387329,
          "sadness": 0.10697799921035767,
          "disgust": 0.027360999956727028,
          "anger": 0.04566900059580803,
          "fear": 0.2398580014705658
        },
        "mainColor": {
          "r": 110,
          "b": 43,
          "g": 109
        },
        "origin": "http://www.nytimes.com/2015/04/09/sports/golf/padraig-harrington-is-golfs-mind-game-champion.html",
        "text": "A new day brought a fresh start"
      }
    ],
    [
      {
        "originalSentence": "For five days a week, Turner tweaked his swing with Byrd",
        "emotions": {
          "joy": 0.787784993648529,
          "sadness": 0.23185500502586365,
          "disgust": 0.18877799808979034,
          "anger": 0.046890001744031906,
          "fear": 0.07349900156259537
        },
        "mainColor": {
          "r": 60,
          "b": 15,
          "g": 79
        },
        "origin": "http://www.nytimes.com/2015/10/14/sports/baseball/former-met-justin-turner-provides-offensive-lift-for-dodgers.html",
        "text": "For five days a week"
      },
      {
        "originalSentence": "'That makes it unique and very alive'",
        "emotions": {
          "joy": 0.7318300008773804,
          "sadness": 0.1019740030169487,
          "disgust": 0.0931600034236908,
          "anger": 0.16574400663375854,
          "fear": 0.13774700462818146
        },
        "mainColor": {
          "r": 34,
          "b": 14,
          "g": 28
        },
        "origin": "http://www.nytimes.com/2015/05/27/arts/international/performing-music-inside-a-work-of-art.html",
        "text": "'That makes it unique"
      },
      {
        "originalSentence": "Mr Erdogan met on Friday with representatives of labor groups at the presidential palace in Ankara, and called for May Day, a national holiday in Turkey, to be celebrated in a festive atmosphere",
        "emotions": {
          "joy": 0.9368929862976074,
          "sadness": 0.24600200355052948,
          "disgust": 0.07276000082492828,
          "anger": 0.023524999618530273,
          "fear": 0.04104800149798393
        },
        "mainColor": {
          "r": 86,
          "b": 96,
          "g": 90
        },
        "origin": "http://www.nytimes.com/2015/05/02/world/europe/istanbul-may-day-protests.html",
        "text": "called for May Day"
      },
      {
        "originalSentence": "No matter what, I'm going to keep my head high and be happy'\nGretzky's parents, Wayne and Janet, were in Johnson's gallery Sunday",
        "emotions": {
          "joy": 0.703603982925415,
          "sadness": 0.126910001039505,
          "disgust": 0.04641899839043617,
          "anger": 0.11863099783658981,
          "fear": 0.06928600370883942
        },
        "mainColor": {
          "r": 172,
          "b": 98,
          "g": 152
        },
        "origin": "http://www.nytimes.com/2015/06/22/sports/golf/dustin-johnsons-dream-turns-real-on-no-18-then-nightmare-sets-in.html",
        "text": "were in Johnson's gallery Sunday"
      }
    ]
  ]
}