{
  "credits": "an ode by Rvie Onad",
  "author": "Rvie Onad",
  "plain": "deGrom kept his hair short - thank you for your support - BEST GAME Stunned the Patriots on Sunday - The 65th Berlin International Film Festival opens on Thursday - 'It's all great fun - focus on what needs to be done - I'm happy to say something - is responsible for planting - and works by Grisey - 'I'm happy that it happened so early - was among the weekend hackers - every solo of hers - ",
  "title": "opens on Thursday and works ",
  "type": "ode",
  "strophen": [
    [
      {
        "originalSentence": "Growing up, deGrom kept his hair short, perfect for the warm Florida summers",
        "emotions": {
          "joy": 0.7812119722366333,
          "sadness": 0.21597400307655334,
          "disgust": 0.16158899664878845,
          "anger": 0.02171500027179718,
          "fear": 0.08439700305461884
        },
        "mainColor": {
          "r": 44,
          "b": 152,
          "g": 87
        },
        "origin": "http://www.nytimes.com/2015/08/22/sports/baseball/jacob-degrom-a-met-known-for-his-hair-may-gasp-cut-it.html",
        "text": "deGrom kept his hair short"
      },
      {
        "originalSentence": "Armando Yanez; Mexico\nA Dear Armando, thank you for your support",
        "emotions": {
          "joy": 0.8069760203361511,
          "sadness": 0.026978999376296997,
          "disgust": 0.07580800354480743,
          "anger": 0.1781100034713745,
          "fear": 0.10851900279521942
        },
        "mainColor": {
          "r": 101,
          "b": 63,
          "g": 87
        },
        "origin": "http://www.nytimes.com/2015/04/08/world/middleeast/iran-our-man-in-tehran.html",
        "text": "thank you for your support"
      },
      {
        "originalSentence": "BEST GAME Stunned the Patriots on Sunday, 35-28",
        "emotions": {
          "joy": 0.7306259870529175,
          "sadness": 0.14807599782943726,
          "disgust": 0.1965399980545044,
          "anger": 0.0957999974489212,
          "fear": 0.07301799952983856
        },
        "mainColor": {
          "r": 16,
          "b": 25,
          "g": 16
        },
        "origin": "http://www.nytimes.com/2015/12/09/sports/football/nfc-east-still-up-for-grabs-for-all-four-teams.html",
        "text": "BEST GAME Stunned the Patriots on Sunday"
      },
      {
        "originalSentence": "The 65th Berlin International Film Festival opens on Thursday, featuring new films by Werner Herzog, Peter Greenaway, Terrence Malick, Jafar Panahi and Wim Wenders, who will also receive the 2015 honorary Golden Bear for lifetime achievement",
        "emotions": {
          "joy": 0.7144520282745361,
          "sadness": 0.08212900161743164,
          "disgust": 0.24671900272369385,
          "anger": 0.08178800344467163,
          "fear": 0.2662929892539978
        },
        "mainColor": {
          "r": 97,
          "b": 34,
          "g": 63
        },
        "origin": "http://www.nytimes.com/2015/02/05/arts/international/berlin-film-festivals-varied-climates.html",
        "text": "The 65th Berlin International Film Festival opens on Thursday"
      }
    ],
    [
      {
        "originalSentence": "'It's all great fun, and quite rousing as well '",
        "emotions": {
          "joy": 0.8080949783325195,
          "sadness": 0.2008489966392517,
          "disgust": 0.05192599818110466,
          "anger": 0.06829699873924255,
          "fear": 0.06213799864053726
        },
        "mainColor": {
          "r": 193,
          "b": 223,
          "g": 206
        },
        "origin": "http://www.nytimes.com/2015/12/12/arts/television/what-to-watch-saturday.html",
        "text": "'It's all great fun"
      },
      {
        "originalSentence": "'I think our guys stay in the moment, stay in the present and focus on what needs to be done",
        "emotions": {
          "joy": 0.7460200190544128,
          "sadness": 0.11454100161790848,
          "disgust": 0.11376500129699707,
          "anger": 0.1643179953098297,
          "fear": 0.13224999606609344
        },
        "mainColor": {
          "r": 239,
          "b": 211,
          "g": 231
        },
        "origin": "http://www.nytimes.com/2015/05/15/sports/hockey/its-a-process-rangers-say-and-sometimes-it-takes-seven-games.html",
        "text": "focus on what needs to be done"
      },
      {
        "originalSentence": "I'm happy to say something, even if it's",
        "emotions": {
          "joy": 0.7708029747009277,
          "sadness": 0.07308900356292725,
          "disgust": 0.21519500017166138,
          "anger": 0.0683550015091896,
          "fear": 0.05175499990582466
        },
        "mainColor": {
          "r": 99,
          "b": 53,
          "g": 60
        },
        "origin": "http://www.nytimes.com/2015/06/27/sports/tennis/andy-roddick-talks-about-his-life-after-tennis.html",
        "text": "I'm happy to say something"
      },
      {
        "originalSentence": "The garden is unique because the crops are grown in milk crates, which make it possible to move the farm if needed, said Jessie Banhazl, whose company, Green City Growers, is responsible for planting and maintaining the garden",
        "emotions": {
          "joy": 0.7052220106124878,
          "sadness": 0.043977998197078705,
          "disgust": 0.1943099945783615,
          "anger": 0.3380019962787628,
          "fear": 0.06672800332307816
        },
        "mainColor": {
          "r": 97,
          "b": 51,
          "g": 69
        },
        "origin": "http://www.nytimes.com/2015/07/19/sports/baseball/famous-for-its-green-monster-fenway-hones-its-green-thumb.html",
        "text": "is responsible for planting"
      }
    ],
    [
      {
        "originalSentence": "and works by Grisey and Saariaho",
        "emotions": {
          "joy": 0.7491210103034973,
          "sadness": 0.23397399485111237,
          "disgust": 0.08555100113153458,
          "anger": 0.15526500344276428,
          "fear": 0.12348400056362152
        },
        "mainColor": {
          "r": 21,
          "b": 92,
          "g": 71
        },
        "origin": "http://www.nytimes.com/2015/09/13/arts/music/classical-music-listings-for-the-fall-season-and-beyond.html",
        "text": "and works by Grisey"
      },
      {
        "originalSentence": "'I'm happy that it happened so early",
        "emotions": {
          "joy": 0.9249780178070068,
          "sadness": 0.07559499889612198,
          "disgust": 0.11790800094604492,
          "anger": 0.048544999212026596,
          "fear": 0.04193799942731857
        },
        "mainColor": {
          "r": 1,
          "b": 31,
          "g": 34
        },
        "origin": "http://www.nytimes.com/2015/05/28/sports/tennis/sesil-karatantcheva-a-onetime-rising-star-is-rising-again-at-age-25.html",
        "text": "'I'm happy that it happened so early"
      },
      {
        "originalSentence": "Matsui, 41, a retired Yankees star outfielder and a revered figure in Japan, was among the weekend hackers and seemed to be having the time of his life",
        "emotions": {
          "joy": 0.7239329814910889,
          "sadness": 0.33371201157569885,
          "disgust": 0.13683800399303436,
          "anger": 0.05577699840068817,
          "fear": 0.0684489980340004
        },
        "mainColor": {
          "r": 223,
          "b": 224,
          "g": 225
        },
        "origin": "http://www.nytimes.com/2015/07/20/sports/baseball/hideki-matsui-suits-up-for-nippon-club-baseball-tournament-on-randalls-island.html",
        "text": "was among the weekend hackers"
      },
      {
        "originalSentence": "On Friday, every solo of hers, light and intricate, was at least tasty and at best breathtakingly beautiful",
        "emotions": {
          "joy": 0.7644230127334595,
          "sadness": 0.1969909965991974,
          "disgust": 0.09577099978923798,
          "anger": 0.05089300125837326,
          "fear": 0.11909300088882446
        },
        "mainColor": {
          "r": 211,
          "b": 198,
          "g": 200
        },
        "origin": "http://www.nytimes.com/2015/03/09/arts/dance/review-the-peggy-spina-tap-company-at-the-spina-loft-in-soho.html",
        "text": "every solo of hers"
      }
    ]
  ]
}