{
  "credits": "an ode by Chel Rae",
  "author": "Chel Rae",
  "plain": "How do you decide who gets a happy ending - The latest sinking occurred on Sunday morning - is good (so good you want it improved) - 'I'm happy with the way I played - Onassis Cultural Center NY Festival Family Day - saying that I am happy today - From the back of the room - while the gardens are still in late-summer bloom - the director of Art Basel - It was the start of a beautiful - Rios hit three homers in spring training - the Third on Friday evening - ",
  "title": "Rios hit three homers in ",
  "type": "ode",
  "strophen": [
    [
      {
        "originalSentence": "How do you decide who gets a happy ending and who doesn't'\nA Happiness is quite a difficult concept when you have an ongoing drama",
        "emotions": {
          "joy": 0.828669011592865,
          "sadness": 0.09331099689006805,
          "disgust": 0.06235500052571297,
          "anger": 0.13062000274658203,
          "fear": 0.07647799700498581
        },
        "mainColor": {
          "r": 92,
          "b": 48,
          "g": 80
        },
        "origin": "http://www.nytimes.com/2015/03/02/arts/television/julian-fellowes-on-twists-in-the-downton-abbey-season-finale.html",
        "text": "How do you decide who gets a happy ending"
      },
      {
        "originalSentence": "The latest sinking occurred on Sunday morning",
        "emotions": {
          "joy": 0.8005110025405884,
          "sadness": 0.1359889954328537,
          "disgust": 0.06353200227022171,
          "anger": 0.08594600111246109,
          "fear": 0.16715900599956512
        },
        "mainColor": {
          "r": 65,
          "b": 96,
          "g": 86
        },
        "origin": "http://www.nytimes.com/2015/05/06/world/europe/italy-migrants-mediterranean-sinking.html",
        "text": "The latest sinking occurred on Sunday morning"
      },
      {
        "originalSentence": "The staging, by its artistic director, Kevin McKenzie, is good (so good you want it improved), with picturesque scenery by Gianni Quaranta and costumes by Anna Anni",
        "emotions": {
          "joy": 0.769940972328186,
          "sadness": 0.11809200048446655,
          "disgust": 0.03331400081515312,
          "anger": 0.11566899716854095,
          "fear": 0.06971699744462967
        },
        "mainColor": {
          "r": 12,
          "b": 3,
          "g": 3
        },
        "origin": "http://www.nytimes.com/2015/05/25/arts/dance/review-american-ballet-theaters-giselle-bounds-as-past-giselles-watch.html",
        "text": "is good (so good you want it improved)"
      },
      {
        "originalSentence": "'I'm happy with the way I played",
        "emotions": {
          "joy": 0.7937629818916321,
          "sadness": 0.07212799787521362,
          "disgust": 0.16195200383663177,
          "anger": 0.06728000193834305,
          "fear": 0.015483999624848366
        },
        "mainColor": {
          "r": 3,
          "b": 29,
          "g": 15
        },
        "origin": "http://www.nytimes.com/2015/04/05/sports/baseball/final-tweaks-to-mets-roster-made-with-higher-aspirations.html",
        "text": "'I'm happy with the way I played"
      }
    ],
    [
      {
        "originalSentence": "Onassis Cultural Center NY Festival Family Day\nThis weekend the Onassis Cultural Center NY will show a lot of love to someone who's famous for loving only himself: Narcissus",
        "emotions": {
          "joy": 0.869504988193512,
          "sadness": 0.28837698698043823,
          "disgust": 0.06504300236701965,
          "anger": 0.04159900173544884,
          "fear": 0.0552930012345314
        },
        "mainColor": {
          "r": 2,
          "b": 2,
          "g": 2
        },
        "origin": "http://www.nytimes.com/2015/10/09/arts/spare-times-for-children-for-oct-9-15.html",
        "text": "Onassis Cultural Center NY Festival Family Day"
      },
      {
        "originalSentence": "'I am leaving this with closure, saying that I am happy today, more happy today than I was the day I was drafted",
        "emotions": {
          "joy": 0.9318490028381348,
          "sadness": 0.22341099381446838,
          "disgust": 0.024630999192595482,
          "anger": 0.0413610003888607,
          "fear": 0.033445000648498535
        },
        "mainColor": {
          "r": 163,
          "b": 220,
          "g": 187
        },
        "origin": "http://www.nytimes.com/2015/03/11/sports/football/nfl-roundup-trades.html",
        "text": "saying that I am happy today"
      },
      {
        "originalSentence": "From the back of the room, Everald Flowers nodded and smiled",
        "emotions": {
          "joy": 0.8920739889144897,
          "sadness": 0.10834000259637833,
          "disgust": 0.12124600261449814,
          "anger": 0.027329999953508377,
          "fear": 0.09961000084877014
        },
        "mainColor": {
          "r": 23,
          "b": 159,
          "g": 74
        },
        "origin": "http://www.nytimes.com/2015/05/03/sports/football/ny-giants-top-pick-brings-one-man-support-team-his-father.html",
        "text": "From the back of the room"
      },
      {
        "originalSentence": "Now's the time, while the gardens are still in late-summer bloom, blanched by the sun, scented with lavender",
        "emotions": {
          "joy": 0.7448779940605164,
          "sadness": 0.09568600356578827,
          "disgust": 0.14073799550533295,
          "anger": 0.09318999946117401,
          "fear": 0.038061998784542084
        },
        "mainColor": {
          "r": 91,
          "b": 40,
          "g": 62
        },
        "origin": "http://www.nytimes.com/2015/09/10/arts/what-to-do-this-weekend.html",
        "text": "while the gardens are still in late-summer bloom"
      }
    ],
    [
      {
        "originalSentence": "Some international art world figures, including Marc Spiegler, the director of Art Basel, who attended the opening weekend, laud Mr Salam'",
        "emotions": {
          "joy": 0.8551719784736633,
          "sadness": 0.33535000681877136,
          "disgust": 0.09284599870443344,
          "anger": 0.0639370009303093,
          "fear": 0.11318500339984894
        },
        "mainColor": {
          "r": 210,
          "b": 171,
          "g": 195
        },
        "origin": "http://www.nytimes.com/2015/12/06/arts/design/aishti-foundation-puts-shimmering-works-amid-the-turmoil-of-beirut.html",
        "text": "the director of Art Basel"
      },
      {
        "originalSentence": "It was the start of a beautiful and dysfunctional relationship",
        "emotions": {
          "joy": 0.7205399870872498,
          "sadness": 0.1502169966697693,
          "disgust": 0.16556699573993683,
          "anger": 0.1097479984164238,
          "fear": 0.10971999913454056
        },
        "mainColor": {
          "r": 159,
          "b": 95,
          "g": 122
        },
        "origin": "http://www.nytimes.com/2015/03/01/sports/basketball/edgy-knick-anthony-mason-was-true-to-the-city.html",
        "text": "It was the start of a beautiful"
      },
      {
        "originalSentence": "Healthy now, Rios hit three homers in spring training and enjoyed the company of his new teammates",
        "emotions": {
          "joy": 0.8636369705200195,
          "sadness": 0.1814969927072525,
          "disgust": 0.26919400691986084,
          "anger": 0.0371129997074604,
          "fear": 0.013913000002503395
        },
        "mainColor": {
          "r": 168,
          "b": 25,
          "g": 41
        },
        "origin": "http://www.nytimes.com/2015/04/12/sports/baseball/diamondbacks-overhaul-starts-on-mound.html",
        "text": "Rios hit three homers in spring training"
      },
      {
        "originalSentence": "One was a commemoration of the centenary of Alexander Scriabin, a composer Mr Muti has long championed, with two symphonies, the Third on Friday evening and the First on Sunday",
        "emotions": {
          "joy": 0.9257379770278931,
          "sadness": 0.07428400218486786,
          "disgust": 0.09740599989891052,
          "anger": 0.04092299938201904,
          "fear": 0.07599200308322906
        },
        "mainColor": {
          "r": 33,
          "b": 20,
          "g": 20
        },
        "origin": "http://www.nytimes.com/2015/02/04/arts/music/chicago-orchestra-at-carnegie-hall-and-beyond.html",
        "text": "the Third on Friday evening"
      }
    ]
  ]
}