{
  "credits": "an ode by Samhon Chine",
  "author": "Samhon Chine",
  "plain": "It's a new year - 'We've had some good accomplishments in here - He gave us a fishy - infused the final Gigue with hearty - But this is a beautiful ballet that deserves more - inquisitive dancers to improvise within an open-ended score - (Friday through Sunday at various times - Mr Masser told The Sun-Times - Palms will be read to this music - GCHQ also works with Britain's domestic - With six Olympic medals - aligning himself with the festival's - backdoor top 10 for McIlroy - I am playing for a club that I enjoy - 'There aren't many things in life you do night - indeed everything was all right - ",
  "title": "that I enjoy infused the ",
  "type": "ode",
  "strophen": [
    [
      {
        "originalSentence": "It's a new year, new team, new series",
        "emotions": {
          "joy": 0.805633008480072,
          "sadness": 0.25918498635292053,
          "disgust": 0.05691099911928177,
          "anger": 0.06481099873781204,
          "fear": 0.09447000175714493
        },
        "mainColor": {
          "r": 33,
          "b": 101,
          "g": 42
        },
        "origin": "http://www.nytimes.com/2015/05/12/sports/hockey/rangers-find-little-comfort-in-history-of-success-in-game-7s.html",
        "text": "It's a new year"
      },
      {
        "originalSentence": "'We've had some good accomplishments in here and some things to be proud of,'",
        "emotions": {
          "joy": 0.7293639779090881,
          "sadness": 0.12954699993133545,
          "disgust": 0.18655699491500854,
          "anger": 0.04332900047302246,
          "fear": 0.11848899722099304
        },
        "mainColor": {
          "r": 19,
          "b": 17,
          "g": 17
        },
        "origin": "http://www.nytimes.com/2015/06/01/sports/hockey/blackhawks-coach-joel-quenneville-still-marvels-at-turn-of-events.html",
        "text": "'We've had some good accomplishments in here"
      },
      {
        "originalSentence": "He gave us a fishy, sideways smile as we climbed into the cab",
        "emotions": {
          "joy": 0.7347630262374878,
          "sadness": 0.06920299679040909,
          "disgust": 0.14839999377727509,
          "anger": 0.08976399898529053,
          "fear": 0.1456499993801117
        },
        "mainColor": {
          "r": 117,
          "b": 150,
          "g": 123
        },
        "origin": "http://www.nytimes.com/2015/05/20/world/asia/a-long-trek-through-nepal-to-deliver-a-stiff-drink.html",
        "text": "He gave us a fishy"
      },
      {
        "originalSentence": "He revealed the bittersweet inner life of the stately Polonaise and infused the final Gigue with hearty, bouncing happiness",
        "emotions": {
          "joy": 0.7980859875679016,
          "sadness": 0.1969510018825531,
          "disgust": 0.056120000779628754,
          "anger": 0.05393499881029129,
          "fear": 0.05619100108742714
        },
        "mainColor": {
          "r": 24,
          "b": 12,
          "g": 12
        },
        "origin": "http://www.nytimes.com/2015/04/04/arts/music/review-murray-perahia-at-carnegie-hall.html",
        "text": "infused the final Gigue with hearty"
      },
      {
        "originalSentence": "But this is a beautiful ballet that deserves more: more 'paulement",
        "emotions": {
          "joy": 0.7363240122795105,
          "sadness": 0.31710198521614075,
          "disgust": 0.28001999855041504,
          "anger": 0.04952099919319153,
          "fear": 0.021382000297307968
        },
        "mainColor": {
          "r": 12,
          "b": 28,
          "g": 23
        },
        "origin": "http://www.nytimes.com/2015/05/13/arts/dance/review-american-ballet-theater-opens-season-at-lincoln-center.html",
        "text": "But this is a beautiful ballet that deserves more"
      },
      {
        "originalSentence": "Created for the Live Ideas Festival at New York Live Arts, organized this year by the multimedia innovator Laurie Anderson, the work brings together nine superb, inquisitive dancers to improvise within an open-ended score",
        "emotions": {
          "joy": 0.9348840117454529,
          "sadness": 0.15332399308681488,
          "disgust": 0.05072399973869324,
          "anger": 0.03550099954009056,
          "fear": 0.14481200277805328
        },
        "mainColor": {
          "r": 17,
          "b": 17,
          "g": 17
        },
        "origin": "http://www.nytimes.com/2015/04/12/arts/dance/collaboration-improvisation.html",
        "text": "inquisitive dancers to improvise within an open-ended score"
      }
    ],
    [
      {
        "originalSentence": "(Friday through Sunday at various times, 14th Street from Avenue C to the Hudson River; recallartinoddplacesorg",
        "emotions": {
          "joy": 0.9114620089530945,
          "sadness": 0.14440800249576569,
          "disgust": 0.0999549999833107,
          "anger": 0.06866899877786636,
          "fear": 0.08230700343847275
        },
        "mainColor": {
          "r": 159,
          "b": 15,
          "g": 32
        },
        "origin": "http://www.nytimes.com/2015/10/09/arts/festivals-of-art-knitting-and-crafts-in-new-york.html",
        "text": "(Friday through Sunday at various times"
      },
      {
        "originalSentence": "Mr Masser told The Sun-Times",
        "emotions": {
          "joy": 0.8279209733009338,
          "sadness": 0.20345400273799896,
          "disgust": 0.046372998505830765,
          "anger": 0.16692399978637695,
          "fear": 0.04761499911546707
        },
        "mainColor": {
          "r": 166,
          "b": 166,
          "g": 166
        },
        "origin": "http://www.nytimes.com/2015/07/14/arts/music/michael-masser-composer-who-wrote-hits-for-whitney-houston-dies-at-74.html",
        "text": "Mr Masser told The Sun-Times"
      },
      {
        "originalSentence": "Palms will be read to this music, miracles foretold",
        "emotions": {
          "joy": 0.7256870269775391,
          "sadness": 0.20721900463104248,
          "disgust": 0.03430100157856941,
          "anger": 0.11614900082349777,
          "fear": 0.13266299664974213
        },
        "mainColor": {
          "r": 33,
          "b": 43,
          "g": 37
        },
        "origin": "http://www.nytimes.com/2015/04/26/arts/music/los-angeles-jazz-with-kamasi-washington-and-others.html",
        "text": "Palms will be read to this music"
      },
      {
        "originalSentence": "GCHQ also works with Britain's domestic and overseas intelligence services",
        "emotions": {
          "joy": 0.7235209941864014,
          "sadness": 0.08569099754095078,
          "disgust": 0.19329600036144257,
          "anger": 0.11834999918937683,
          "fear": 0.2538039982318878
        },
        "mainColor": {
          "r": 100,
          "b": 87,
          "g": 88
        },
        "origin": "http://www.nytimes.com/2015/01/27/world/europe/gchq-britain-prank-caller.html",
        "text": "GCHQ also works with Britain's domestic"
      },
      {
        "originalSentence": "With six Olympic medals, five world championship medals, two World Cup overall titles and 33 World Cup victories, Miller is widely considered the most successful male ski racer in United States history",
        "emotions": {
          "joy": 0.7207649946212769,
          "sadness": 0.25738099217414856,
          "disgust": 0.10086899995803833,
          "anger": 0.10176900029182434,
          "fear": 0.14504699409008026
        },
        "mainColor": {
          "r": 255,
          "b": 254,
          "g": 254
        },
        "origin": "http://www.nytimes.com/2015/02/06/sports/skiing/bode-miller-crashes-out-of-super-g.html",
        "text": "With six Olympic medals"
      },
      {
        "originalSentence": "The poet Nathaniel Mackey, who gave the conference keynote, also read recent work at the Judson Church on Tuesday night, aligning himself with the festival's",
        "emotions": {
          "joy": 0.7523959875106812,
          "sadness": 0.05280900001525879,
          "disgust": 0.20787200331687927,
          "anger": 0.14217600226402283,
          "fear": 0.16357499361038208
        },
        "mainColor": {
          "r": 35,
          "b": 10,
          "g": 20
        },
        "origin": "http://www.nytimes.com/2015/07/09/arts/music/vision-festival-celebrates-jazz-both-past-and-future.html",
        "text": "aligning himself with the festival's"
      }
    ],
    [
      {
        "originalSentence": "It is victory or backdoor top 10 for McIlroy, who tied for ninth Sunday",
        "emotions": {
          "joy": 0.8566740155220032,
          "sadness": 0.051952000707387924,
          "disgust": 0.07935500144958496,
          "anger": 0.12941500544548035,
          "fear": 0.090768001973629
        },
        "mainColor": {
          "r": 69,
          "b": 101,
          "g": 83
        },
        "origin": "http://www.nytimes.com/2015/06/23/sports/from-an-outcome-out-of-his-hands-to-the-world-at-his-fingertips.html",
        "text": "backdoor top 10 for McIlroy"
      },
      {
        "originalSentence": "I am in a city that I enjoy living in, and I am playing for a club that I enjoy",
        "emotions": {
          "joy": 0.722694993019104,
          "sadness": 0.24102599918842316,
          "disgust": 0.1232760027050972,
          "anger": 0.057767998427152634,
          "fear": 0.11126799881458282
        },
        "mainColor": {
          "r": 228,
          "b": 163,
          "g": 190
        },
        "origin": "http://www.nytimes.com/2015/08/10/sports/soccer/loyalty-goes-a-long-way-at-swansea-city.html",
        "text": "I am playing for a club that I enjoy"
      },
      {
        "originalSentence": "'There aren't many things in life you do night and day, night and day",
        "emotions": {
          "joy": 0.79544997215271,
          "sadness": 0.27726998925209045,
          "disgust": 0.0294560007750988,
          "anger": 0.04599900171160698,
          "fear": 0.11423499882221222
        },
        "mainColor": {
          "r": 229,
          "b": 235,
          "g": 230
        },
        "origin": "http://www.nytimes.com/2015/08/15/sports/international/father-and-son-attempt-to-defend-their-rolex-fastnet-race-title.html",
        "text": "'There aren't many things in life you do night"
      },
      {
        "originalSentence": "When peace came, indeed everything was all right and the world was rejoicing",
        "emotions": {
          "joy": 0.8246849775314331,
          "sadness": 0.2466920018196106,
          "disgust": 0.03454500064253807,
          "anger": 0.084866002202034,
          "fear": 0.1809920072555542
        },
        "mainColor": {
          "r": 34,
          "b": 10,
          "g": 33
        },
        "origin": "http://www.nytimes.com/2015/06/18/arts/international/alexander-napoleon-josephine-hermitage-amsterdam-a-tale-of-wars-friendship-and-loves-lost.html",
        "text": "indeed everything was all right"
      }
    ]
  ]
}