{
  "credits": "an ode by Tair Croula",
  "author": "Tair Croula",
  "plain": "'That makes it unique - 'Josephine is a lady who comes from Martinique - when it meets Thursday - He reached base a career-best six times on Sunday - 'We tell each other we have the sun - focus on what needs to be done - Ockeghem's music is both intricate - wore his kindness like an amulet - Schalke started the weekend fourth in the league standings - an afternoon with offerings for children (free animated-film screenings) - Wayne is in love with me - Scott's scorecard Friday was bogey-free - As the profile of the xx has grown - The choreographer Emery LeCrone - ",
  "title": "the league standings an afternoon ",
  "type": "ode",
  "strophen": [
    [
      {
        "originalSentence": "'That makes it unique and very alive'",
        "emotions": {
          "joy": 0.7318300008773804,
          "sadness": 0.1019740030169487,
          "disgust": 0.0931600034236908,
          "anger": 0.16574400663375854,
          "fear": 0.13774700462818146
        },
        "mainColor": {
          "r": 34,
          "b": 14,
          "g": 28
        },
        "origin": "http://www.nytimes.com/2015/05/27/arts/international/performing-music-inside-a-work-of-art.html",
        "text": "'That makes it unique"
      },
      {
        "originalSentence": "'Josephine is a lady who comes from Martinique and who makes the most wonderful career ever",
        "emotions": {
          "joy": 0.7265599966049194,
          "sadness": 0.09926699846982956,
          "disgust": 0.27195900678634644,
          "anger": 0.08699700236320496,
          "fear": 0.09415999799966812
        },
        "mainColor": {
          "r": 34,
          "b": 10,
          "g": 33
        },
        "origin": "http://www.nytimes.com/2015/06/18/arts/international/alexander-napoleon-josephine-hermitage-amsterdam-a-tale-of-wars-friendship-and-loves-lost.html",
        "text": "'Josephine is a lady who comes from Martinique"
      },
      {
        "originalSentence": "when it meets Thursday and Friday in Zurich",
        "emotions": {
          "joy": 0.8806840181350708,
          "sadness": 0.13936200737953186,
          "disgust": 0.05530399829149246,
          "anger": 0.0720829963684082,
          "fear": 0.0989060029387474
        },
        "mainColor": {
          "r": 160,
          "b": 46,
          "g": 27
        },
        "origin": "http://www.nytimes.com/2015/03/15/sports/soccer/a-world-cup-late-in-the-year-promises-smiles-and-headaches.html",
        "text": "when it meets Thursday"
      },
      {
        "originalSentence": "He reached base a career-best six times on Sunday",
        "emotions": {
          "joy": 0.7725120186805725,
          "sadness": 0.12850399315357208,
          "disgust": 0.06060599908232689,
          "anger": 0.0754460021853447,
          "fear": 0.2185550034046173
        },
        "mainColor": {
          "r": 205,
          "b": 26,
          "g": 194
        },
        "origin": "http://www.nytimes.com/2015/05/04/sports/baseball/after-eight-run-lead-yankees-lean-on-bullpen-to-finish-off-a-sweep.html",
        "text": "He reached base a career-best six times on Sunday"
      }
    ],
    [
      {
        "originalSentence": "'We tell each other we have the sun, the clean air, the beautiful sea",
        "emotions": {
          "joy": 0.8693140149116516,
          "sadness": 0.09790199995040894,
          "disgust": 0.16150599718093872,
          "anger": 0.15584099292755127,
          "fear": 0.014062000438570976
        },
        "mainColor": {
          "r": 223,
          "b": 167,
          "g": 193
        },
        "origin": "http://www.nytimes.com/2015/11/11/world/middleeast/egyptian-resort-is-accustomed-to-shocks.html",
        "text": "'We tell each other we have the sun"
      },
      {
        "originalSentence": "'I think our guys stay in the moment, stay in the present and focus on what needs to be done",
        "emotions": {
          "joy": 0.7460200190544128,
          "sadness": 0.11454100161790848,
          "disgust": 0.11376500129699707,
          "anger": 0.1643179953098297,
          "fear": 0.13224999606609344
        },
        "mainColor": {
          "r": 239,
          "b": 211,
          "g": 231
        },
        "origin": "http://www.nytimes.com/2015/05/15/sports/hockey/its-a-process-rangers-say-and-sometimes-it-takes-seven-games.html",
        "text": "focus on what needs to be done"
      },
      {
        "originalSentence": "Sunday, Ockeghem's music is both intricate and expressive",
        "emotions": {
          "joy": 0.9120399951934814,
          "sadness": 0.18681600689888,
          "disgust": 0.016868000850081444,
          "anger": 0.017892999574542046,
          "fear": 0.024983000010252
        },
        "mainColor": {
          "r": 103,
          "b": 54,
          "g": 84
        },
        "origin": "http://www.nytimes.com/2015/02/18/arts/music/review-blue-heron-performs-missa-de-plus-en-plus-at-corpus-christi-church.html",
        "text": "Ockeghem's music is both intricate"
      },
      {
        "originalSentence": "He tried to make people happy and wore his kindness like an amulet",
        "emotions": {
          "joy": 0.7080860137939453,
          "sadness": 0.17311300337314606,
          "disgust": 0.36860400438308716,
          "anger": 0.06757300347089767,
          "fear": 0.017159000039100647
        },
        "mainColor": {
          "r": 163,
          "b": 163,
          "g": 163
        },
        "origin": "http://www.nytimes.com/2015/01/26/sports/baseball/a-star-who-found-joy-in-baseball-and-reflected-it-every-day.html",
        "text": "wore his kindness like an amulet"
      },
      {
        "originalSentence": "Schalke started the weekend fourth in the league standings, and Dortmund was in 12th",
        "emotions": {
          "joy": 0.8793550133705139,
          "sadness": 0.10393399745225906,
          "disgust": 0.07169000059366226,
          "anger": 0.042079001665115356,
          "fear": 0.14800900220870972
        },
        "mainColor": {
          "r": 35,
          "b": 15,
          "g": 16
        },
        "origin": "http://www.nytimes.com/2015/03/02/sports/soccer/whodunit-in-the-penalty-area-referees-could-use-help.html",
        "text": "Schalke started the weekend fourth in the league standings"
      },
      {
        "originalSentence": "Uptown, the French Institute Alliance Fran'aise hosts its annual Bastille Day on East 60th Street, an afternoon with offerings for children (free animated-film screenings) and adults (tastings of cocktails, wine, beer and cheese for $25)",
        "emotions": {
          "joy": 0.7799360156059265,
          "sadness": 0.14655199646949768,
          "disgust": 0.25623899698257446,
          "anger": 0.0779850035905838,
          "fear": 0.047419000416994095
        },
        "mainColor": {
          "r": 216,
          "b": 163,
          "g": 170
        },
        "origin": "http://www.nytimes.com/2015/07/10/arts/celebrate-bastille-day-take-to-the-streets-like-its-1789.html",
        "text": "an afternoon with offerings for children (free animated-film screenings)"
      }
    ],
    [
      {
        "originalSentence": "'I am 100 percent in love with Wayne, and Wayne is in love with me, but it's",
        "emotions": {
          "joy": 0.7110220193862915,
          "sadness": 0.15703800320625305,
          "disgust": 0.021253999322652817,
          "anger": 0.09627199918031693,
          "fear": 0.24325500428676605
        },
        "mainColor": {
          "r": 12,
          "b": 7,
          "g": 7
        },
        "origin": "http://www.nytimes.com/2015/09/01/arts/music/miley-cyrus-and-her-dead-petz.html",
        "text": "Wayne is in love with me"
      },
      {
        "originalSentence": "Scott's scorecard Friday was bogey-free",
        "emotions": {
          "joy": 0.909479022026062,
          "sadness": 0.08571399748325348,
          "disgust": 0.027643999084830284,
          "anger": 0.038582999259233475,
          "fear": 0.057326000183820724
        },
        "mainColor": {
          "r": 247,
          "b": 247,
          "g": 247
        },
        "origin": "http://www.nytimes.com/2015/07/18/sports/golf/adam-scott-gets-british-open-lift-from-compatriots-blessing-and-caddies-savvy.html",
        "text": "Scott's scorecard Friday was bogey-free"
      },
      {
        "originalSentence": "As the profile of the xx has grown, so has the electronic dance music scene",
        "emotions": {
          "joy": 0.8343039751052856,
          "sadness": 0.3300899863243103,
          "disgust": 0.08483400195837021,
          "anger": 0.06298399716615677,
          "fear": 0.07002399861812592
        },
        "mainColor": {
          "r": 198,
          "b": 242,
          "g": 231
        },
        "origin": "http://www.nytimes.com/2015/05/31/arts/music/jamie-xx-looks-inward-and-back-on-in-colour.html",
        "text": "As the profile of the xx has grown"
      },
      {
        "originalSentence": "The choreographer Emery LeCrone, who has been making chamber-scale ballets for some years, shows work on Thursday and Friday; Amy Seiwert, an unknown quantity to me, presents on Saturday and Sunday",
        "emotions": {
          "joy": 0.9603869915008545,
          "sadness": 0.0974539965391159,
          "disgust": 0.05750399827957153,
          "anger": 0.06071700155735016,
          "fear": 0.02889000065624714
        },
        "mainColor": {
          "r": 8,
          "b": 1,
          "g": 10
        },
        "origin": "http://www.nytimes.com/2015/08/11/arts/dance/dance-this-week-india-dance-and-ashtons-monotones.html",
        "text": "The choreographer Emery LeCrone"
      }
    ]
  ]
}