{
  "credits": "an ode by Allan Lprwel",
  "author": "Allan Lprwel",
  "plain": "Both works are lively - happiness mixes with melancholy - So we have the Super Bowl media day - The draw for the semifinals is Friday - its adjoining Little River area - Towns enjoyed that idea - Our moments of truth arrive unwanted in life's mail - After Friday night's 67-49 pummeling of Yale - while the gardens are still in late-summer bloom - From the back of the room - RED-DOT JUNE From January to May - he had pitched only once since Friday - surveyed the course early Sunday morning - put together good at-bats during all of spring training' - ",
  "title": "The draw for the semifinals ",
  "type": "ode",
  "strophen": [
    [
      {
        "originalSentence": "Both works are lively and colorful, with vivid tone painting and ingenious orchestration",
        "emotions": {
          "joy": 0.781952977180481,
          "sadness": 0.1506049931049347,
          "disgust": 0.12435299903154373,
          "anger": 0.08077000081539154,
          "fear": 0.13905799388885498
        },
        "mainColor": {
          "r": 96,
          "b": 31,
          "g": 55
        },
        "origin": "http://www.nytimes.com/2015/09/13/arts/music/the-american-classical-orchestra-and-juilliard415-mine-telemanns-gold.html",
        "text": "Both works are lively"
      },
      {
        "originalSentence": "With the Islanders winning with regularity in front of sellout crowds and resurrecting the thrilling buzz of the glory years, happiness mixes with melancholy",
        "emotions": {
          "joy": 0.8541489839553833,
          "sadness": 0.11385499686002731,
          "disgust": 0.09481699764728546,
          "anger": 0.017413999885320663,
          "fear": 0.055987000465393066
        },
        "mainColor": {
          "r": 229,
          "b": 17,
          "g": 166
        },
        "origin": "http://www.nytimes.com/2015/02/20/sports/hockey/never-an-islandereric-nystrom-returns-to-home-to-nassau-coliseum.html",
        "text": "happiness mixes with melancholy"
      },
      {
        "originalSentence": "So we have the Super Bowl media day, which marries the American love of carnivals with its adoration of marketing",
        "emotions": {
          "joy": 0.749068021774292,
          "sadness": 0.2590799927711487,
          "disgust": 0.06831000000238419,
          "anger": 0.03664200007915497,
          "fear": 0.18495799601078033
        },
        "mainColor": {
          "r": 33,
          "b": 15,
          "g": 16
        },
        "origin": "http://www.nytimes.com/2015/01/29/sports/football/disrupting-nfls-careful-order-richard-sherman-speaks-his-mind.html",
        "text": "So we have the Super Bowl media day"
      },
      {
        "originalSentence": "The draw for the semifinals is Friday",
        "emotions": {
          "joy": 0.7031630277633667,
          "sadness": 0.1443829983472824,
          "disgust": 0.09952700138092041,
          "anger": 0.09039100259542465,
          "fear": 0.0942389965057373
        },
        "mainColor": {
          "r": 95,
          "b": 69,
          "g": 50
        },
        "origin": "http://www.nytimes.com/2015/04/22/sports/soccer/a-sublime-champions-league-matchup-if-soccer-gods-cooperate.html",
        "text": "The draw for the semifinals is Friday"
      }
    ],
    [
      {
        "originalSentence": "Gallery Diet is one of nearly a dozen art galleries that have relocated from Wynwood to Little Haiti and its adjoining Little River area, including the Michael Jon Gallery (one of only two Miami dealers selected for the annual Art Basel Miami Beach fair in December), as well as the local stalwarts Emerson Dorsch, Pan American Art Projects and Spinello Projects",
        "emotions": {
          "joy": 0.8847129940986633,
          "sadness": 0.5428900122642517,
          "disgust": 0.037682000547647476,
          "anger": 0.10624799877405167,
          "fear": 0.03244699910283089
        },
        "mainColor": {
          "r": 217,
          "b": 184,
          "g": 206
        },
        "origin": "http://www.nytimes.com/2015/11/24/arts/design/miamis-art-world-sets-sights-on-little-haiti-neighborhood.html",
        "text": "its adjoining Little River area"
      },
      {
        "originalSentence": "Towns enjoyed that idea",
        "emotions": {
          "joy": 0.7342900037765503,
          "sadness": 0.1741739958524704,
          "disgust": 0.21570399403572083,
          "anger": 0.048287998884916306,
          "fear": 0.07083000242710114
        },
        "mainColor": {
          "r": 168,
          "b": 137,
          "g": 150
        },
        "origin": "http://www.nytimes.com/2015/04/04/sports/ncaabasketball/two-parts-to-his-name-but-karl-anthony-towns-is-one-complete-player.html",
        "text": "Towns enjoyed that idea"
      },
      {
        "originalSentence": "Our moments of truth arrive unwanted in life's mail, and so Zen Phil's Excellent Adventure itinerary landed in his inbox this week",
        "emotions": {
          "joy": 0.7861679792404175,
          "sadness": 0.30474498867988586,
          "disgust": 0.06622099876403809,
          "anger": 0.041682999581098557,
          "fear": 0.17380599677562714
        },
        "mainColor": {
          "r": 223,
          "b": 61,
          "g": 129
        },
        "origin": "http://www.nytimes.com/2015/06/25/sports/basketball/phil-jacksons-moment-of-truth-has-arrived.html",
        "text": "Our moments of truth arrive unwanted in life's mail"
      },
      {
        "originalSentence": "After Friday night's 67-49 pummeling of Yale, Princeton is 10-0 in the Ivy League",
        "emotions": {
          "joy": 0.789080023765564,
          "sadness": 0.11303900182247162,
          "disgust": 0.2708140015602112,
          "anger": 0.07929600030183792,
          "fear": 0.1665640026330948
        },
        "mainColor": {
          "r": 33,
          "b": 7,
          "g": 17
        },
        "origin": "http://www.nytimes.com/2015/02/28/sports/ncaabasketball/princeton-women-pull-away-in-rout-and-move-4-games-from-goal-of-30-0.html",
        "text": "After Friday night's 67-49 pummeling of Yale"
      }
    ],
    [
      {
        "originalSentence": "Now's the time, while the gardens are still in late-summer bloom, blanched by the sun, scented with lavender",
        "emotions": {
          "joy": 0.7448779940605164,
          "sadness": 0.09568600356578827,
          "disgust": 0.14073799550533295,
          "anger": 0.09318999946117401,
          "fear": 0.038061998784542084
        },
        "mainColor": {
          "r": 91,
          "b": 40,
          "g": 62
        },
        "origin": "http://www.nytimes.com/2015/09/10/arts/what-to-do-this-weekend.html",
        "text": "while the gardens are still in late-summer bloom"
      },
      {
        "originalSentence": "From the back of the room, Everald Flowers nodded and smiled",
        "emotions": {
          "joy": 0.8920739889144897,
          "sadness": 0.10834000259637833,
          "disgust": 0.12124600261449814,
          "anger": 0.027329999953508377,
          "fear": 0.09961000084877014
        },
        "mainColor": {
          "r": 23,
          "b": 159,
          "g": 74
        },
        "origin": "http://www.nytimes.com/2015/05/03/sports/football/ny-giants-top-pick-brings-one-man-support-team-his-father.html",
        "text": "From the back of the room"
      },
      {
        "originalSentence": "RED-DOT JUNE From January to May, the Art Students League exhibits student work",
        "emotions": {
          "joy": 0.7112269997596741,
          "sadness": 0.22129599750041962,
          "disgust": 0.07568900287151337,
          "anger": 0.10785900056362152,
          "fear": 0.2659670114517212
        },
        "mainColor": {
          "r": 238,
          "b": 183,
          "g": 223
        },
        "origin": "http://www.nytimes.com/2015/05/08/arts/design/how-to-buy-art-a-beginners-cheat-sheet.html",
        "text": "RED-DOT JUNE From January to May"
      },
      {
        "originalSentence": "Though Girardi said Betances had worked three of the previous four days, he had pitched only once since Friday, throwing 23 pitches on Sunday",
        "emotions": {
          "joy": 0.7219489812850952,
          "sadness": 0.3627069890499115,
          "disgust": 0.09163299947977066,
          "anger": 0.10580600053071976,
          "fear": 0.03241100162267685
        },
        "mainColor": {
          "r": 21,
          "b": 38,
          "g": 40
        },
        "origin": "http://www.nytimes.com/2015/05/13/sports/baseball/yankees-look-great-through-six-innings.html",
        "text": "he had pitched only once since Friday"
      },
      {
        "originalSentence": "Day's caddie, Colin Swatton, surveyed the course early Sunday morning, taking note of the pin placements",
        "emotions": {
          "joy": 0.8235679864883423,
          "sadness": 0.12776599824428558,
          "disgust": 0.09451399743556976,
          "anger": 0.10294199734926224,
          "fear": 0.07169800251722336
        },
        "mainColor": {
          "r": 246,
          "b": 253,
          "g": 255
        },
        "origin": "http://www.nytimes.com/2015/09/21/sports/golf/jason-day-holds-on-to-win-and-grabs-top-ranking.html",
        "text": "surveyed the course early Sunday morning"
      },
      {
        "originalSentence": "time to continue to get better and put together good at-bats during all of spring training'\nBeltran is one of many Yankees who are hoping for a happier, healthier year",
        "emotions": {
          "joy": 0.849370002746582,
          "sadness": 0.11154499650001526,
          "disgust": 0.173676997423172,
          "anger": 0.08915700018405914,
          "fear": 0.05187999829649925
        },
        "mainColor": {
          "r": 126,
          "b": 161,
          "g": 148
        },
        "origin": "http://www.nytimes.com/2015/03/07/sports/baseball/carlos-beltran-has-no-hits-but-no-pain-in-his-return-for-yankees.html",
        "text": "put together good at-bats during all of spring training'"
      }
    ]
  ]
}