{
  "credits": "an ode by Airncele Ayherramsb",
  "author": "Airncele Ayherramsb",
  "plain": "splendor of France's Second Empire - 'Winning makes everything better - 'So when I smile - With a victory Saturday in the 800-meter freestyle - I can do what makes me happy - so hitters must swing up to meet it squarely - Ivanisevic has said he will be happy - The good thing is he's healthy - Seven were packed into New Year's Eve - positive outlook to be childishly naive - Queer New York International Arts Festival - which is set to Mahler's great song cycle - 150 West 17th Street - how much he loves to compete - ",
  "title": "the 800-meter freestyle so hitters ",
  "type": "ode",
  "strophen": [
    [
      {
        "originalSentence": "The opera house evokes the elegance and splendor of France's Second Empire, a time made famous by numerous paintings and literary works",
        "emotions": {
          "joy": 0.7805520296096802,
          "sadness": 0.13541099429130554,
          "disgust": 0.07798899710178375,
          "anger": 0.25859901309013367,
          "fear": 0.14445799589157104
        },
        "mainColor": {
          "r": 93,
          "b": 41,
          "g": 48
        },
        "origin": "http://www.nytimes.com/2015/12/23/arts/international/in-paris-an-outcry-over-an-operatic-gem.html",
        "text": "splendor of France's Second Empire"
      },
      {
        "originalSentence": "'Winning makes everything better,'",
        "emotions": {
          "joy": 0.7501490116119385,
          "sadness": 0.16703499853610992,
          "disgust": 0.04696600139141083,
          "anger": 0.10526800155639648,
          "fear": 0.3598819971084595
        },
        "mainColor": {
          "r": 165,
          "b": 109,
          "g": 128
        },
        "origin": "http://www.nytimes.com/2015/04/29/sports/basketball/nets-exceeding-expectations-against-hawks-stay-loose.html",
        "text": "'Winning makes everything better"
      },
      {
        "originalSentence": "'So when I smile, it's",
        "emotions": {
          "joy": 0.8250579833984375,
          "sadness": 0.15154099464416504,
          "disgust": 0.047196000814437866,
          "anger": 0.07698799669742584,
          "fear": 0.02317800000309944
        },
        "mainColor": {
          "r": 150,
          "b": 123,
          "g": 135
        },
        "origin": "http://www.nytimes.com/2015/02/22/arts/television/tina-feys-unbreakable-kimmy-schmidt-heads-to-netflix.html",
        "text": "'So when I smile"
      },
      {
        "originalSentence": "With a victory Saturday in the 800-meter freestyle, Ledecky would become the first swimmer to win the 200, 400, 800 and 1,500 freestyles at a single world championships meet",
        "emotions": {
          "joy": 0.7256069779396057,
          "sadness": 0.44394901394844055,
          "disgust": 0.26482900977134705,
          "anger": 0.05477000027894974,
          "fear": 0.10756199806928635
        },
        "mainColor": {
          "r": 40,
          "b": 217,
          "g": 202
        },
        "origin": "http://www.nytimes.com/2015/08/06/sports/katie-ledecky-claims-third-gold-medal-at-world-championships.html",
        "text": "With a victory Saturday in the 800-meter freestyle"
      }
    ],
    [
      {
        "originalSentence": "'I thought it was brilliant from his standpoint to be able to say, I've done all this, I know my family is secure and I can do what makes me happy,'",
        "emotions": {
          "joy": 0.7897509932518005,
          "sadness": 0.14587199687957764,
          "disgust": 0.09492100030183792,
          "anger": 0.14831699430942535,
          "fear": 0.028331000357866287
        },
        "mainColor": {
          "r": 3,
          "b": 0,
          "g": 2
        },
        "origin": "http://www.nytimes.com/2015/11/04/sports/basketball/in-free-agency-spurs-david-west-sought-meaning-not-money.html",
        "text": "I can do what makes me happy"
      },
      {
        "originalSentence": "But it made perfect sense: Pitchers throw the ball on a downhill plane, so hitters must swing up to meet it squarely",
        "emotions": {
          "joy": 0.7493579983711243,
          "sadness": 0.2540000081062317,
          "disgust": 0.08812399953603745,
          "anger": 0.0860389992594719,
          "fear": 0.28075501322746277
        },
        "mainColor": {
          "r": 41,
          "b": 158,
          "g": 88
        },
        "origin": "http://www.nytimes.com/2015/05/11/sports/baseball/a-cub-plans-to-be-the-next-greatest-hitter-who-ever-lived.html",
        "text": "so hitters must swing up to meet it squarely"
      },
      {
        "originalSentence": "Ivanisevic has said he will be happy and proud to see his countryman pass him",
        "emotions": {
          "joy": 0.754235029220581,
          "sadness": 0.2086459994316101,
          "disgust": 0.23377999663352966,
          "anger": 0.02999899908900261,
          "fear": 0.06766699999570847
        },
        "mainColor": {
          "r": 26,
          "b": 9,
          "g": 10
        },
        "origin": "http://www.nytimes.com/2015/08/13/sports/tennis/ivo-karlovic-king-of-aces-closes-in-on-a-record.html",
        "text": "Ivanisevic has said he will be happy"
      },
      {
        "originalSentence": "The good thing is he's healthy",
        "emotions": {
          "joy": 0.8504769802093506,
          "sadness": 0.230880007147789,
          "disgust": 0.05073599889874458,
          "anger": 0.05218200013041496,
          "fear": 0.03911200165748596
        },
        "mainColor": {
          "r": 14,
          "b": 7,
          "g": 7
        },
        "origin": "http://www.nytimes.com/2015/06/10/sports/baseball/masahiro-tanaka-flashes-form-and-substance-in-win.html",
        "text": "The good thing is he's healthy"
      }
    ],
    [
      {
        "originalSentence": "Seven were packed into New Year's Eve and New Year's Day",
        "emotions": {
          "joy": 0.8665080070495605,
          "sadness": 0.18688200414180756,
          "disgust": 0.10685200244188309,
          "anger": 0.05262700095772743,
          "fear": 0.0841049998998642
        },
        "mainColor": {
          "r": 12,
          "b": 6,
          "g": 7
        },
        "origin": "http://www.nytimes.com/2015/03/27/sports/ncaabasketball/meaningless-bowls-eclipse-very-meaningful-basketball-games-at-least-in-viewership.html",
        "text": "Seven were packed into New Year's Eve"
      },
      {
        "originalSentence": "positive outlook to be childishly naive",
        "emotions": {
          "joy": 0.914376974105835,
          "sadness": 0.06136399880051613,
          "disgust": 0.08387099951505661,
          "anger": 0.03889499977231026,
          "fear": 0.10281699895858765
        },
        "mainColor": {
          "r": 48,
          "b": 9,
          "g": 23
        },
        "origin": "http://www.nytimes.com/2015/11/20/arts/television/jessica-jones-episode-2-the-devil-did.html",
        "text": "positive outlook to be childishly naive"
      },
      {
        "originalSentence": "Queer New York International Arts Festival, it's",
        "emotions": {
          "joy": 0.7898039817810059,
          "sadness": 0.19322699308395386,
          "disgust": 0.13799099624156952,
          "anger": 0.0491349995136261,
          "fear": 0.14086900651454926
        },
        "mainColor": {
          "r": 11,
          "b": 26,
          "g": 11
        },
        "origin": "http://www.nytimes.com/2015/09/26/arts/dance/review-disclosures-bruno-isakovics-show-and-tell.html",
        "text": "Queer New York International Arts Festival"
      },
      {
        "originalSentence": "(1965), which is set to Mahler's great song cycle",
        "emotions": {
          "joy": 0.7962750196456909,
          "sadness": 0.1775680035352707,
          "disgust": 0.023048000410199165,
          "anger": 0.05913199856877327,
          "fear": 0.210330992937088
        },
        "mainColor": {
          "r": 5,
          "b": 28,
          "g": 21
        },
        "origin": "http://www.nytimes.com/2015/06/23/arts/dance/dance-this-week-misty-copeland-the-royal-ballet-and-ashtons-cinderella.html",
        "text": "which is set to Mahler's great song cycle"
      },
      {
        "originalSentence": "(Friday from 6 to 10 pm, 150 West 17th Street, Manhattan, 212-620-5000, rubinmuseumorg;",
        "emotions": {
          "joy": 0.782850980758667,
          "sadness": 0.11171700060367584,
          "disgust": 0.16098399460315704,
          "anger": 0.10003100335597992,
          "fear": 0.08663000166416168
        },
        "mainColor": {
          "r": 17,
          "b": 17,
          "g": 17
        },
        "origin": "http://www.nytimes.com/2015/10/30/arts/halloween-thrills-and-festivities-with-or-without-costumes.html",
        "text": "150 West 17th Street"
      },
      {
        "originalSentence": "I see how hard Alex works every day and how much he loves to win and how much he loves to compete, and I'm really happy for him'",
        "emotions": {
          "joy": 0.8003659844398499,
          "sadness": 0.3210580050945282,
          "disgust": 0.050314001739025116,
          "anger": 0.06195399910211563,
          "fear": 0.027654999867081642
        },
        "mainColor": {
          "r": 156,
          "b": 91,
          "g": 121
        },
        "origin": "http://www.nytimes.com/2015/05/09/sports/baseball/in-alex-rodriguezs-big-moments-yankees-start-to-look-small.html",
        "text": "how much he loves to compete"
      }
    ]
  ]
}