{
  "credits": "an ode by Justi Hsa",
  "author": "Justi Hsa",
  "plain": "Looking ahead to Sunday - who turned 28 on Friday - was among the weekend hackers - and performs new choreography with world-class dancers - At the end of the day - The final is Saturday - new arrivals like Horizon Zero Dawn - 000 on the Great Lawn - is about promoting one kind of art - I'm looking forward to making my next start' - rushing for 74 yards on 12 carries - with a combination of elegant harmonies - but that's an improvement from moment to moment - dance are mutually independent - and works by Grisey - The setting is cozy - ",
  "title": "The final is Saturday new choreography ",
  "type": "ode",
  "strophen": [
    [
      {
        "originalSentence": "Looking ahead to Sunday, Spieth said patience would be the key",
        "emotions": {
          "joy": 0.7132610082626343,
          "sadness": 0.09505099803209305,
          "disgust": 0.12678499519824982,
          "anger": 0.0790340006351471,
          "fear": 0.08256100118160248
        },
        "mainColor": {
          "r": 150,
          "b": 71,
          "g": 151
        },
        "origin": "http://www.nytimes.com/2015/04/12/sports/golf/jordan-spieth-holds-on-to-masters-lead-despite-all-star-charge.html",
        "text": "Looking ahead to Sunday"
      },
      {
        "originalSentence": "That did not feel like much of a birthday present for Djokovic, who turned 28 on Friday, and it might not feel like much of a birthday present for Nadal if they play on June 3, which would be his 29th birthday",
        "emotions": {
          "joy": 0.9316949844360352,
          "sadness": 0.10074800252914429,
          "disgust": 0.0655359998345375,
          "anger": 0.04035300016403198,
          "fear": 0.07399000227451324
        },
        "mainColor": {
          "r": 236,
          "b": 88,
          "g": 182
        },
        "origin": "http://www.nytimes.com/2015/05/23/sports/tennis/rafael-nadal-faces-toughest-draw-in-his-french-open-career.html",
        "text": "who turned 28 on Friday"
      },
      {
        "originalSentence": "Matsui, 41, a retired Yankees star outfielder and a revered figure in Japan, was among the weekend hackers and seemed to be having the time of his life",
        "emotions": {
          "joy": 0.7239329814910889,
          "sadness": 0.33371201157569885,
          "disgust": 0.13683800399303436,
          "anger": 0.05577699840068817,
          "fear": 0.0684489980340004
        },
        "mainColor": {
          "r": 223,
          "b": 224,
          "g": 225
        },
        "origin": "http://www.nytimes.com/2015/07/20/sports/baseball/hideki-matsui-suits-up-for-nippon-club-baseball-tournament-on-randalls-island.html",
        "text": "was among the weekend hackers"
      },
      {
        "originalSentence": "and performs new choreography with world-class dancers, set to live music'",
        "emotions": {
          "joy": 0.8839250206947327,
          "sadness": 0.3067130148410797,
          "disgust": 0.025987999513745308,
          "anger": 0.0885000005364418,
          "fear": 0.06293900310993195
        },
        "mainColor": {
          "r": 70,
          "b": 84,
          "g": 68
        },
        "origin": "http://www.nytimes.com/2015/02/12/arts/dance/review-balletnext-takes-risks-in-baroqued.html",
        "text": "and performs new choreography with world-class dancers"
      },
      {
        "originalSentence": "At the end of the day, it feels like a great experience",
        "emotions": {
          "joy": 0.7031810283660889,
          "sadness": 0.30728599429130554,
          "disgust": 0.03781599923968315,
          "anger": 0.04287299886345863,
          "fear": 0.15630799531936646
        },
        "mainColor": {
          "r": 1,
          "b": 31,
          "g": 34
        },
        "origin": "http://www.nytimes.com/2015/05/28/sports/tennis/sesil-karatantcheva-a-onetime-rising-star-is-rising-again-at-age-25.html",
        "text": "At the end of the day"
      },
      {
        "originalSentence": "The final is Saturday, and promises to be a good one as long as Chile keeps its hands to itself",
        "emotions": {
          "joy": 0.7271159887313843,
          "sadness": 0.29294100403785706,
          "disgust": 0.16890600323677063,
          "anger": 0.08838000148534775,
          "fear": 0.07643499970436096
        },
        "mainColor": {
          "r": 156,
          "b": 96,
          "g": 135
        },
        "origin": "http://www.nytimes.com/2015/06/30/sports/soccer/live-and-kicking-soccer-games-to-watch-this-week.html",
        "text": "The final is Saturday"
      }
    ],
    [
      {
        "originalSentence": "Creed and new arrivals like Horizon Zero Dawn and ReCore",
        "emotions": {
          "joy": 0.7399460077285767,
          "sadness": 0.268000990152359,
          "disgust": 0.07557299733161926,
          "anger": 0.05920000001788139,
          "fear": 0.14396299421787262
        },
        "mainColor": {
          "r": 24,
          "b": 14,
          "g": 14
        },
        "origin": "http://www.nytimes.com/2015/12/29/arts/lara-croft-has-company-more-female-heroes-appear-in-big-budget-games.html",
        "text": "new arrivals like Horizon Zero Dawn"
      },
      {
        "originalSentence": "(The series peaked in 1986 during Statue of Liberty Weekend, with 800,000 on the Great Lawn, a world record)",
        "emotions": {
          "joy": 0.8271859884262085,
          "sadness": 0.0821790024638176,
          "disgust": 0.13556399941444397,
          "anger": 0.03639800101518631,
          "fear": 0.24206699430942535
        },
        "mainColor": {
          "r": 32,
          "b": 27,
          "g": 31
        },
        "origin": "http://www.nytimes.com/2015/06/14/arts/music/celebrating-50-years-of-new-york-philharmonic-outdoor-concerts.html",
        "text": "000 on the Great Lawn"
      },
      {
        "originalSentence": "For those who think American Realness 2015, a festival of dance and performance, is about promoting one kind of art, two recent shows, seen Friday at Abrons Arts Center, presented two sides of contemporary choreography",
        "emotions": {
          "joy": 0.7196679711341858,
          "sadness": 0.14785200357437134,
          "disgust": 0.12884999811649323,
          "anger": 0.09446699917316437,
          "fear": 0.09312400221824646
        },
        "mainColor": {
          "r": 10,
          "b": 18,
          "g": 13
        },
        "origin": "http://www.nytimes.com/2015/01/12/arts/dance/two-sides-of-contemporary-choreography-at-american-realness.html",
        "text": "is about promoting one kind of art"
      },
      {
        "originalSentence": "'I feel like I've had some pretty good success here, and I'm looking forward to making my next start'\nSyndergaard, the Mets'",
        "emotions": {
          "joy": 0.8111289739608765,
          "sadness": 0.13591299951076508,
          "disgust": 0.011832999996840954,
          "anger": 0.04873400181531906,
          "fear": 0.10949099808931351
        },
        "mainColor": {
          "r": 5,
          "b": 99,
          "g": 93
        },
        "origin": "http://www.nytimes.com/2015/05/23/sports/baseball/noah-syndergaard-takes-a-loss-but-he-may-get-more-chances.html",
        "text": "I'm looking forward to making my next start'"
      }
    ],
    [
      {
        "originalSentence": "We are still not particularly excited about him over the long haul, but he had a career day Sunday, rushing for 74 yards on 12 carries and scoring two touchdowns (one receiving)",
        "emotions": {
          "joy": 0.7035530209541321,
          "sadness": 0.2868350148200989,
          "disgust": 0.14899900555610657,
          "anger": 0.07234500348567963,
          "fear": 0.06954500079154968
        },
        "mainColor": {
          "r": 155,
          "b": 100,
          "g": 126
        },
        "origin": "http://www.nytimes.com/2015/09/17/sports/football/fantasy-football-week-2-rankings-and-matchup-analysis.html",
        "text": "rushing for 74 yards on 12 carries"
      },
      {
        "originalSentence": "But while the titles may have been works in progress, the music sounded complete, with a combination of elegant harmonies, textural interest and melodic lines soulfully rendered",
        "emotions": {
          "joy": 0.8055340051651001,
          "sadness": 0.22473500669002533,
          "disgust": 0.06862500309944153,
          "anger": 0.06725999712944031,
          "fear": 0.09971000254154205
        },
        "mainColor": {
          "r": 102,
          "b": 55,
          "g": 73
        },
        "origin": "http://www.nytimes.com/2015/07/09/arts/music/review-gyan-riley-begins-an-intimate-residency-at-the-stone.html",
        "text": "with a combination of elegant harmonies"
      },
      {
        "originalSentence": "day to day, but that's an improvement from moment to moment,'",
        "emotions": {
          "joy": 0.7892000079154968,
          "sadness": 0.4371260106563568,
          "disgust": 0.046769000589847565,
          "anger": 0.08734700083732605,
          "fear": 0.0455860011279583
        },
        "mainColor": {
          "r": 224,
          "b": 53,
          "g": 77
        },
        "origin": "http://www.nytimes.com/2015/02/13/sports/basketball/anthony-mason-heart-attack.html",
        "text": "but that's an improvement from moment to moment"
      },
      {
        "originalSentence": "As is customary with Cunningham (1919-2009), though, music and dance are mutually independent",
        "emotions": {
          "joy": 0.816690981388092,
          "sadness": 0.1873449981212616,
          "disgust": 0.043623000383377075,
          "anger": 0.10441800206899643,
          "fear": 0.06961700320243835
        },
        "mainColor": {
          "r": 0,
          "b": 0,
          "g": 0
        },
        "origin": "http://www.nytimes.com/2015/03/29/arts/dance/rainforest-cunninghams-primeval-rarity-returns-to-the-joyce.html",
        "text": "dance are mutually independent"
      },
      {
        "originalSentence": "and works by Grisey and Saariaho",
        "emotions": {
          "joy": 0.7491210103034973,
          "sadness": 0.23397399485111237,
          "disgust": 0.08555100113153458,
          "anger": 0.15526500344276428,
          "fear": 0.12348400056362152
        },
        "mainColor": {
          "r": 21,
          "b": 92,
          "g": 71
        },
        "origin": "http://www.nytimes.com/2015/09/13/arts/music/classical-music-listings-for-the-fall-season-and-beyond.html",
        "text": "and works by Grisey"
      },
      {
        "originalSentence": "The setting is cozy, and the hostess and narrator, at 90, a lingeringly beautiful charmer",
        "emotions": {
          "joy": 0.706695020198822,
          "sadness": 0.1179409995675087,
          "disgust": 0.22269999980926514,
          "anger": 0.1302269995212555,
          "fear": 0.067671999335289
        },
        "mainColor": {
          "r": 36,
          "b": 5,
          "g": 18
        },
        "origin": "http://www.nytimes.com/2015/03/14/world/europe/a-holocaust-survivor-tells-of-auschwitz-at-18-and-again-at-90.html",
        "text": "The setting is cozy"
      }
    ]
  ]
}