{
  "credits": "an ode by Ara Amacaram",
  "author": "Ara Amacaram",
  "plain": "Playing like an elite quarterback - depth hinders Mr Zustiak - makes us appreciate Dubuffet as a restless innovator - who clearly enjoys his role as an Islander ambassador - Jermel Johnson (both principals) - two Olympic gold medals - thanks to 3-pointers by Trice - Allow yourself to be loved twice - Queer New York International Arts Festival - Andy Warhol is a perfect (and well-known) example - At 51 years 4 months 10 days - families to the Sunday's - New York Theater Ballet will also perform - the Russian tenor Dmitry Korchak brings a warm - ",
  "title": "years 4 months 10 days ",
  "type": "ode",
  "strophen": [
    [
      {
        "originalSentence": "Playing like an elite quarterback, Dalton led Cincinnati from a 17-point deficit to a victory against the Seattle Seahawks on Sunday",
        "emotions": {
          "joy": 0.7649310231208801,
          "sadness": 0.08355499804019928,
          "disgust": 0.2633950114250183,
          "anger": 0.1159529983997345,
          "fear": 0.1691949963569641
        },
        "mainColor": {
          "r": 220,
          "b": 145,
          "g": 156
        },
        "origin": "http://www.nytimes.com/2015/10/12/sports/football/dalton-helps-bengals-rally-past-seahawks-to-stay-perfect.html",
        "text": "Playing like an elite quarterback"
      },
      {
        "originalSentence": "vastness and depth hinders Mr Zustiak, who was recently named the 2015 Juried Award Recipient for the New York Dance and Performance Awards",
        "emotions": {
          "joy": 0.7862570285797119,
          "sadness": 0.125900000333786,
          "disgust": 0.14104899764060974,
          "anger": 0.10073699802160263,
          "fear": 0.1117120012640953
        },
        "mainColor": {
          "r": 11,
          "b": 9,
          "g": 13
        },
        "origin": "http://www.nytimes.com/2015/12/05/arts/dance/review-pavel-zustiaks-custodians-of-beauty.html",
        "text": "depth hinders Mr Zustiak"
      },
      {
        "originalSentence": "makes us appreciate Dubuffet as a restless innovator and recycler",
        "emotions": {
          "joy": 0.7458620071411133,
          "sadness": 0.0690549984574318,
          "disgust": 0.2721099853515625,
          "anger": 0.21054400503635406,
          "fear": 0.12342599779367447
        },
        "mainColor": {
          "r": 99,
          "b": 54,
          "g": 75
        },
        "origin": "http://www.nytimes.com/2015/01/02/arts/design/jean-dubuffet-at-museum-of-modern-art.html",
        "text": "makes us appreciate Dubuffet as a restless innovator"
      },
      {
        "originalSentence": "'The atmosphere at the Coliseum is very special'\nEric was happy to share the local spotlight with a young teammate as well as his famous father, who clearly enjoys his role as an Islander ambassador",
        "emotions": {
          "joy": 0.7749670147895813,
          "sadness": 0.16570700705051422,
          "disgust": 0.19241300225257874,
          "anger": 0.1065400019288063,
          "fear": 0.02513599954545498
        },
        "mainColor": {
          "r": 229,
          "b": 17,
          "g": 166
        },
        "origin": "http://www.nytimes.com/2015/02/20/sports/hockey/never-an-islandereric-nystrom-returns-to-home-to-nassau-coliseum.html",
        "text": "who clearly enjoys his role as an Islander ambassador"
      },
      {
        "originalSentence": "Lauren Fadeley and Jermel Johnson (both principals), and Loris Mathis (a tall experienced corps dancer) delivered three central roles with happy panache",
        "emotions": {
          "joy": 0.7487300038337708,
          "sadness": 0.1428450047969818,
          "disgust": 0.15897800028324127,
          "anger": 0.0656839981675148,
          "fear": 0.13956700265407562
        },
        "mainColor": {
          "r": 8,
          "b": 38,
          "g": 22
        },
        "origin": "http://www.nytimes.com/2015/02/10/arts/dance/review-pennsylvania-ballet-at-the-merriam-theater-shows-exuberance-and-panache.html",
        "text": "Jermel Johnson (both principals)"
      },
      {
        "originalSentence": "He scored two early goals Saturday, to match his two Stanley Cups, two Olympic gold medals and two World Junior Championship gold medals",
        "emotions": {
          "joy": 0.7133830189704895,
          "sadness": 0.22251899540424347,
          "disgust": 0.09345600008964539,
          "anger": 0.16968600451946259,
          "fear": 0.03507699817419052
        },
        "mainColor": {
          "r": 19,
          "b": 17,
          "g": 17
        },
        "origin": "http://www.nytimes.com/2015/06/01/sports/hockey/blackhawks-coach-joel-quenneville-still-marvels-at-turn-of-events.html",
        "text": "two Olympic gold medals"
      }
    ],
    [
      {
        "originalSentence": "lead to 2, thanks to 3-pointers by Trice and Denzel Valentine",
        "emotions": {
          "joy": 0.734466016292572,
          "sadness": 0.08226100355386734,
          "disgust": 0.09428899735212326,
          "anger": 0.2105640023946762,
          "fear": 0.10781600326299667
        },
        "mainColor": {
          "r": 212,
          "b": 102,
          "g": 153
        },
        "origin": "http://www.nytimes.com/2015/03/28/sports/ncaabasketball/michigan-state-edges-oklahoma-with-second-half-surge.html",
        "text": "thanks to 3-pointers by Trice"
      },
      {
        "originalSentence": "Allow yourself to be loved twice",
        "emotions": {
          "joy": 0.7407860159873962,
          "sadness": 0.08412600308656693,
          "disgust": 0.045513998717069626,
          "anger": 0.15909600257873535,
          "fear": 0.19346199929714203
        },
        "mainColor": {
          "r": 2,
          "b": 2,
          "g": 2
        },
        "origin": "http://www.nytimes.com/2015/03/22/arts/music/the-lengths-to-go-for-love.html",
        "text": "Allow yourself to be loved twice"
      },
      {
        "originalSentence": "Queer New York International Arts Festival, it's",
        "emotions": {
          "joy": 0.7898039817810059,
          "sadness": 0.19322699308395386,
          "disgust": 0.13799099624156952,
          "anger": 0.0491349995136261,
          "fear": 0.14086900651454926
        },
        "mainColor": {
          "r": 11,
          "b": 26,
          "g": 11
        },
        "origin": "http://www.nytimes.com/2015/09/26/arts/dance/review-disclosures-bruno-isakovics-show-and-tell.html",
        "text": "Queer New York International Arts Festival"
      },
      {
        "originalSentence": "Andy Warhol is a perfect (and well-known) example",
        "emotions": {
          "joy": 0.7558689713478088,
          "sadness": 0.17981399595737457,
          "disgust": 0.07433599978685379,
          "anger": 0.2073020040988922,
          "fear": 0.0979819968342781
        },
        "mainColor": {
          "r": 162,
          "b": 107,
          "g": 130
        },
        "origin": "http://www.nytimes.com/2015/02/19/arts/international/magnificent-obsessions-show-at-the-barbican-explores-portraits-of-the-artist-as-collector.html",
        "text": "Andy Warhol is a perfect (and well-known) example"
      }
    ],
    [
      {
        "originalSentence": "At 51 years 4 months 10 days, he trails only Sam Snead and Art Wall on the list of oldest tour winners",
        "emotions": {
          "joy": 0.7060210108757019,
          "sadness": 0.41075798869132996,
          "disgust": 0.08243700116872787,
          "anger": 0.07973100244998932,
          "fear": 0.12875300645828247
        },
        "mainColor": {
          "r": 144,
          "b": 22,
          "g": 6
        },
        "origin": "http://www.nytimes.com/2015/08/24/sports/golf/davis-love-51-surges-to-victory-as-tiger-woods-falters.html",
        "text": "At 51 years 4 months 10 days"
      },
      {
        "originalSentence": "families to the Sunday's",
        "emotions": {
          "joy": 0.7624800205230713,
          "sadness": 0.2247850000858307,
          "disgust": 0.14599500596523285,
          "anger": 0.09837999939918518,
          "fear": 0.06590399891138077
        },
        "mainColor": {
          "r": 99,
          "b": 65,
          "g": 81
        },
        "origin": "http://www.nytimes.com/2015/01/28/world/europe/life-of-italian-nobility-for-sale-complete-with-regulations-and-taxes.html",
        "text": "families to the Sunday's"
      },
      {
        "originalSentence": "New York Theater Ballet will also perform and give lessons",
        "emotions": {
          "joy": 0.7519819736480713,
          "sadness": 0.08997700363397598,
          "disgust": 0.12765899300575256,
          "anger": 0.15286299586296082,
          "fear": 0.35876598954200745
        },
        "mainColor": {
          "r": 216,
          "b": 163,
          "g": 170
        },
        "origin": "http://www.nytimes.com/2015/07/10/arts/celebrate-bastille-day-take-to-the-streets-like-its-1789.html",
        "text": "New York Theater Ballet will also perform"
      },
      {
        "originalSentence": "Making his Met debut, the Russian tenor Dmitry Korchak brings a warm and ardent though periodically insecure voice to Ottavio",
        "emotions": {
          "joy": 0.7037780284881592,
          "sadness": 0.23216000199317932,
          "disgust": 0.2708739936351776,
          "anger": 0.053679998964071274,
          "fear": 0.09911199659109116
        },
        "mainColor": {
          "r": 37,
          "b": 12,
          "g": 22
        },
        "origin": "http://www.nytimes.com/2015/02/07/arts/music/don-giovanni-at-the-met-opera-and-in-two-other-stagings.html",
        "text": "the Russian tenor Dmitry Korchak brings a warm"
      }
    ]
  ]
}