{
  "credits": "a sonett by Pete Derbas-tam",
  "author": "Pete Derbas-tam",
  "plain": "he has spoken out against conflicts in Ukraine - His older brother was stabbed - particularly by Eddie Marsan as the crabbed - whether from the left-leaning Podemos party in Spain - everybody was kind of in panic mode - is definitely someone to look out for - 'Until when do we wait for a savior'' - so Harden had to carry a disproportionate load - it would get me farther out of his spotlight - Their removal came amid steep financial losses - called for more oversight - to investigate the causes - while his teammates enjoy the limelight - Jorgeson split one finger in five places - ",
  "title": "is definitely someone to look out ",
  "type": "sonett",
  "strophen": [
    [
      {
        "originalSentence": "At different times, he has spoken out against conflicts in Ukraine, Iraq and Syria as well as in Africa",
        "emotions": {
          "joy": 0.027132000774145126,
          "sadness": 0.32903701066970825,
          "disgust": 0.5958179831504822,
          "anger": 0.4686479866504669,
          "fear": 0.33576199412345886
        },
        "mainColor": {
          "r": 93,
          "b": 68,
          "g": 79
        },
        "origin": "http://www.nytimes.com/2015/04/13/world/europe/pope-calls-killings-of-armenians-genocide-provoking-turkish-anger.html",
        "text": "he has spoken out against conflicts in Ukraine"
      },
      {
        "originalSentence": "Violent events surrounded his collapse: His older brother was stabbed and nearly died in front of Mr Birch",
        "emotions": {
          "joy": 0.011385999619960785,
          "sadness": 0.351408988237381,
          "disgust": 0.620058000087738,
          "anger": 0.27020999789237976,
          "fear": 0.3120119869709015
        },
        "mainColor": {
          "r": 99,
          "b": 51,
          "g": 75
        },
        "origin": "http://www.nytimes.com/2015/12/27/arts/design/betting-3-million-on-a-wall-street-art-spectacle.html",
        "text": "His older brother was stabbed"
      },
      {
        "originalSentence": "Most important, it has appealing performances by Bertie Carvel as Strange and particularly by Eddie Marsan as the crabbed and proud Norrell",
        "emotions": {
          "joy": 0.4889259934425354,
          "sadness": 0.1717199981212616,
          "disgust": 0.3029690086841583,
          "anger": 0.17434799671173096,
          "fear": 0.20194800198078156
        },
        "mainColor": {
          "r": 15,
          "b": 43,
          "g": 28
        },
        "origin": "http://www.nytimes.com/2015/06/11/arts/television/review-jonathan-strange-mr-norrell-a-battlefield-where-magic-is-the-weapon-of-choice.html",
        "text": "particularly by Eddie Marsan as the crabbed"
      },
      {
        "originalSentence": "Analysts note that populist threats remain potent in several European countries, whether from the left-leaning Podemos party in Spain or the far-right National Front in France",
        "emotions": {
          "joy": 0.07835099846124649,
          "sadness": 0.2835739850997925,
          "disgust": 0.6237319707870483,
          "anger": 0.10138099640607834,
          "fear": 0.2887679934501648
        },
        "mainColor": {
          "r": 32,
          "b": 14,
          "g": 26
        },
        "origin": "http://www.nytimes.com/2015/06/03/world/europe/greeces-alliances-fade-in-european-debate-about-its-debt-crisis.html",
        "text": "whether from the left-leaning Podemos party in Spain"
      }
    ],
    [
      {
        "originalSentence": "'I think she kind of started off slow and everybody was kind of in panic mode, like, 'We're struggling,''' Augustus said",
        "emotions": {
          "joy": 0.02307800017297268,
          "sadness": 0.3103710114955902,
          "disgust": 0.44529101252555847,
          "anger": 0.29861798882484436,
          "fear": 0.4534269869327545
        },
        "mainColor": {
          "r": 10,
          "b": 7,
          "g": 7
        },
        "origin": "http://www.nytimes.com/2015/09/17/sports/basketball/after-trade-sylvia-fowles-helps-lynx-flourish.html",
        "text": "everybody was kind of in panic mode"
      },
      {
        "originalSentence": "'Tejay, I've said from the beginning of the race, is definitely someone to look out for,' Froome said, adding that van Garderen was particularly strong on climbs in the Crit'rium du Dauphin', a race last month in which van Garderen was the runner-up, behind Froome",
        "emotions": {
          "joy": 0.0500589981675148,
          "sadness": 0.36607998609542847,
          "disgust": 0.46978598833084106,
          "anger": 0.1916469931602478,
          "fear": 0.38029998540878296
        },
        "mainColor": {
          "r": 100,
          "b": 42,
          "g": 49
        },
        "origin": "http://www.nytimes.com/2015/07/13/sports/cycling/tour-de-france-2015-team-time-trial-win-bolsters-americans-tejay-van-garderen-shot-at-podium.html",
        "text": "is definitely someone to look out for"
      },
      {
        "originalSentence": "'Until when do we wait for a savior''\nMicky Rosenfeld, an Israeli police spokesman, declined to say how many women have been barred from the site since they began their activities",
        "emotions": {
          "joy": 0.007899999618530273,
          "sadness": 0.5622569918632507,
          "disgust": 0.7534859776496887,
          "anger": 0.4933539927005768,
          "fear": 0.1905589997768402
        },
        "mainColor": {
          "r": 19,
          "b": 16,
          "g": 16
        },
        "origin": "http://www.nytimes.com/2015/04/17/world/middleeast/palestinian-women-join-effort-to-keep-jews-from-contested-holy-site.html",
        "text": "'Until when do we wait for a savior''"
      },
      {
        "originalSentence": "Houston lost Chandler Parsons to free agency and played much of the season without Dwight Howard, so Harden had to carry a disproportionate load",
        "emotions": {
          "joy": 0.043719999492168427,
          "sadness": 0.6621490120887756,
          "disgust": 0.3768090009689331,
          "anger": 0.3853060007095337,
          "fear": 0.14689800143241882
        },
        "mainColor": {
          "r": 36,
          "b": 36,
          "g": 36
        },
        "origin": "http://www.nytimes.com/2015/05/06/sports/stephen-curry-was-mvp-but-was-he-most-valuable.html",
        "text": "so Harden had to carry a disproportionate load"
      }
    ],
    [
      {
        "originalSentence": "Sydney said: 'Through high school, I was known as 'Randy Moss's daughter, Randy Moss's daughter' I feel like if we win a national championship, it would get me farther out of his spotlight and kind of make me into my own person, my own name'",
        "emotions": {
          "joy": 0.3103469908237457,
          "sadness": 0.33064699172973633,
          "disgust": 0.28325098752975464,
          "anger": 0.16241200268268585,
          "fear": 0.11044400185346603
        },
        "mainColor": {
          "r": 95,
          "b": 48,
          "g": 78
        },
        "origin": "http://www.nytimes.com/2015/03/20/sports/ncaabasketball/on-kentuckys-other-undefeated-team-the-other-star-named-moss.html",
        "text": "it would get me farther out of his spotlight"
      },
      {
        "originalSentence": "Their removal came amid steep financial losses, but also followed the publication of articles that had ruffled feathers in Spain's political establishment",
        "emotions": {
          "joy": 0.036607999354600906,
          "sadness": 0.3874579966068268,
          "disgust": 0.47460299730300903,
          "anger": 0.15488000214099884,
          "fear": 0.33997800946235657
        },
        "mainColor": {
          "r": 225,
          "b": 173,
          "g": 196
        },
        "origin": "http://www.nytimes.com/2015/11/06/world/europe/as-spains-media-industry-changes-rapidly-some-worry-about-objectivity.html",
        "text": "Their removal came amid steep financial losses"
      },
      {
        "originalSentence": "Some members of Congress criticized the administration or called for more oversight",
        "emotions": {
          "joy": 0.019179999828338623,
          "sadness": 0.2362550050020218,
          "disgust": 0.7776790261268616,
          "anger": 0.4296469986438751,
          "fear": 0.08620999753475189
        },
        "mainColor": {
          "r": 184,
          "b": 174,
          "g": 183
        },
        "origin": "http://www.nytimes.com/2015/04/24/world/asia/2-qaeda-hostages-were-accidentally-killed-in-us-raid-white-house-says.html",
        "text": "called for more oversight"
      }
    ],
    [
      {
        "originalSentence": "Few other countries would have had the courage to publicly investigate such actions, he wrote, but he added that the Senate report must now be followed by action to hold people accountable, to investigate the causes and to ensure they do not recur",
        "emotions": {
          "joy": 0.03493199869990349,
          "sadness": 0.4229390025138855,
          "disgust": 0.42880699038505554,
          "anger": 0.271014004945755,
          "fear": 0.3037259876728058
        },
        "mainColor": {
          "r": 217,
          "b": 179,
          "g": 206
        },
        "origin": "http://www.nytimes.com/2015/03/06/world/europe/un-rights-chief-denounces-world-powers-over-abuses.html",
        "text": "to investigate the causes"
      },
      {
        "originalSentence": "'Goalkeeper With a Cigarette' is an ode to a goalie who kills time waiting for the occasional play by chain-smoking, while his teammates enjoy the limelight",
        "emotions": {
          "joy": 0.14636699855327606,
          "sadness": 0.24146999418735504,
          "disgust": 0.7470269799232483,
          "anger": 0.12638700008392334,
          "fear": 0.03991900011897087
        },
        "mainColor": {
          "r": 203,
          "b": 220,
          "g": 210
        },
        "origin": "http://www.nytimes.com/2015/07/11/world/europe/simon-armitage-oxford-poetry-professor-finds-inspiration-in-the-mundane.html",
        "text": "while his teammates enjoy the limelight"
      },
      {
        "originalSentence": "I will succeed'\nIn making it past Pitch 15 on Friday afternoon, Jorgeson split one finger in five places",
        "emotions": {
          "joy": 0.373320996761322,
          "sadness": 0.21697300672531128,
          "disgust": 0.1379290074110031,
          "anger": 0.12111199647188187,
          "fear": 0.24571099877357483
        },
        "mainColor": {
          "r": 0,
          "b": 3,
          "g": 0
        },
        "origin": "http://www.nytimes.com/2015/01/10/sports/kevin-jorgeson-completes-crucial-pitch-on-el-capitans-dawn-wall.html",
        "text": "Jorgeson split one finger in five places"
      }
    ]
  ]
}