{
  "credits": "a sonett by Janel Ntagu",
  "author": "Janel Ntagu",
  "plain": "the Socialist Party leader - Talk to music lovers - 'All the World's Futures - thinking they could defeat a much larger - 'They have to do it before - researching it on the computer - the United States ambassador - then I am not afraid anymore - with nine catches for 95 yards - Gittel's attempt ends in murder - got their tour cards - Had he been a year older - 000 new border guards - because they have not tried to register - ",
  "title": "new border guards 000 new ",
  "type": "sonett",
  "strophen": [
    [
      {
        "originalSentence": "'We cannot live without the Russian market,' said Igor Dodon, the Socialist Party leader, as he sat in an office bedecked with photographs of himself meeting Mr Putin in Moscow",
        "emotions": {
          "joy": 0.040922001004219055,
          "sadness": 0.40817201137542725,
          "disgust": 0.6446380019187927,
          "anger": 0.151186004281044,
          "fear": 0.36933401226997375
        },
        "mainColor": {
          "r": 155,
          "b": 94,
          "g": 99
        },
        "origin": "http://www.nytimes.com/2015/05/22/world/europe/moldova-eyes-russias-embrace-as-flirtation-with-europe-fades.html",
        "text": "the Socialist Party leader"
      },
      {
        "originalSentence": "Talk to music lovers, and a crystal-clear consensus emerges",
        "emotions": {
          "joy": 0.611329972743988,
          "sadness": 0.15047000348567963,
          "disgust": 0.12008599936962128,
          "anger": 0.1066960021853447,
          "fear": 0.0798100009560585
        },
        "mainColor": {
          "r": 207,
          "b": 8,
          "g": 50
        },
        "origin": "http://www.nytimes.com/2015/03/15/arts/music/the-new-york-philharmonic-and-the-search-for-a-new-music-director.html",
        "text": "Talk to music lovers"
      },
      {
        "originalSentence": "Seven are in the official curated central exhibition, 'All the World's Futures,'",
        "emotions": {
          "joy": 0.14347800612449646,
          "sadness": 0.5017610192298889,
          "disgust": 0.3725380003452301,
          "anger": 0.07955300062894821,
          "fear": 0.32055601477622986
        },
        "mainColor": {
          "r": 183,
          "b": 255,
          "g": 232
        },
        "origin": "http://www.nytimes.com/2015/05/07/arts/international/australian-politics-at-the-venice-biennale.html",
        "text": "'All the World's Futures"
      },
      {
        "originalSentence": "But Shabab commanders made the mistake of hubris, thinking they could defeat a much larger, better-armed African Union force in conventional warfare",
        "emotions": {
          "joy": 0.018498999997973442,
          "sadness": 0.3744739890098572,
          "disgust": 0.28599101305007935,
          "anger": 0.4600540101528168,
          "fear": 0.3641200065612793
        },
        "mainColor": {
          "r": 159,
          "b": 90,
          "g": 124
        },
        "origin": "http://www.nytimes.com/2015/04/07/world/africa/setbacks-press-shabab-fighters-to-kill-inexpensively.html",
        "text": "thinking they could defeat a much larger"
      }
    ],
    [
      {
        "originalSentence": "'They have to do it before or after work",
        "emotions": {
          "joy": 0.15378299355506897,
          "sadness": 0.2117149978876114,
          "disgust": 0.18980999290943146,
          "anger": 0.37509098649024963,
          "fear": 0.27904799580574036
        },
        "mainColor": {
          "r": 40,
          "b": 91,
          "g": 62
        },
        "origin": "http://www.nytimes.com/2015/04/25/sports/basketball/for-some-in-the-nba-pregame-chapel-can-be-a-spiritual-ankle-taping.html",
        "text": "'They have to do it before"
      },
      {
        "originalSentence": "'He would delve into it headfirst, researching it on the computer,'",
        "emotions": {
          "joy": 0.12748399376869202,
          "sadness": 0.07915099710226059,
          "disgust": 0.5676829814910889,
          "anger": 0.24176199734210968,
          "fear": 0.4019469916820526
        },
        "mainColor": {
          "r": 235,
          "b": 219,
          "g": 221
        },
        "origin": "http://www.nytimes.com/2015/06/22/sports/an-athlete-felled-by-concussions-despite-playing-a-safer-sport.html",
        "text": "researching it on the computer"
      },
      {
        "originalSentence": "At the Security Council, where Britain, Russia and the United States had sought to come to a consensus on the text in recent days, the United States ambassador, Samantha Power, condemned the Russian veto",
        "emotions": {
          "joy": 0.049966000020504,
          "sadness": 0.17291900515556335,
          "disgust": 0.3928079903125763,
          "anger": 0.5064259767532349,
          "fear": 0.24727299809455872
        },
        "mainColor": {
          "r": 77,
          "b": 31,
          "g": 76
        },
        "origin": "http://www.nytimes.com/2015/07/09/world/europe/srebrenica-genocide-massacre.html",
        "text": "the United States ambassador"
      },
      {
        "originalSentence": "'But then I get into the zone and then I am not afraid anymore",
        "emotions": {
          "joy": 0.09662099927663803,
          "sadness": 0.6163880228996277,
          "disgust": 0.09595400094985962,
          "anger": 0.168831005692482,
          "fear": 0.2601659893989563
        },
        "mainColor": {
          "r": 220,
          "b": 175,
          "g": 204
        },
        "origin": "http://www.nytimes.com/2015/01/19/sports/thierry-omeyer-of-france-rules-handballs-hardest-position.html",
        "text": "then I am not afraid anymore"
      }
    ],
    [
      {
        "originalSentence": "Marvin Jones was Dalton's top target, with nine catches for 95 yards and a score",
        "emotions": {
          "joy": 0.5595549941062927,
          "sadness": 0.12601999938488007,
          "disgust": 0.377936989068985,
          "anger": 0.2011760026216507,
          "fear": 0.1846500039100647
        },
        "mainColor": {
          "r": 239,
          "b": 93,
          "g": 124
        },
        "origin": "http://www.nytimes.com/2015/10/19/sports/football/broncos-absorb-interceptions-and-swallow-up-browns.html",
        "text": "with nine catches for 95 yards"
      },
      {
        "originalSentence": "Gittel's attempt ends in murder; Maura's (at least so far) ends in self-righteous alienation from her entire family and a ride off into the sunset in Vicki's sedan",
        "emotions": {
          "joy": 0.029273999854922295,
          "sadness": 0.25863999128341675,
          "disgust": 0.5792289972305298,
          "anger": 0.20519399642944336,
          "fear": 0.16980800032615662
        },
        "mainColor": {
          "r": 41,
          "b": 26,
          "g": 32
        },
        "origin": "http://www.nytimes.com/2015/12/17/arts/television/transparent-episodes-8-9-review-womens-festival.html",
        "text": "Gittel's attempt ends in murder"
      },
      {
        "originalSentence": "Tour, played well, got their tour cards, and only got six or seven starts,'",
        "emotions": {
          "joy": 0.10696499794721603,
          "sadness": 0.4703499972820282,
          "disgust": 0.21533599495887756,
          "anger": 0.15597400069236755,
          "fear": 0.364778995513916
        },
        "mainColor": {
          "r": 55,
          "b": 79,
          "g": 67
        },
        "origin": "http://www.nytimes.com/2015/02/27/sports/golf/practicing-in-the-dark-some-early-starters-grumble-at-the-honda-classic.html",
        "text": "got their tour cards"
      }
    ],
    [
      {
        "originalSentence": "Had he been a year older, he would doubtless have stood alongside his cousin Jon-Paul Gilhooley at Hillsborough Stadium in April 1989",
        "emotions": {
          "joy": 0.07739599794149399,
          "sadness": 0.4947980046272278,
          "disgust": 0.847366988658905,
          "anger": 0.11543399840593338,
          "fear": 0.09418699890375137
        },
        "mainColor": {
          "r": 92,
          "b": 69,
          "g": 70
        },
        "origin": "http://www.nytimes.com/2015/01/03/sports/soccer/steven-gerrard-leaving-liverpool.html",
        "text": "Had he been a year older"
      },
      {
        "originalSentence": "Not to be outdone, the Labour Party has pledged to hire 1,000 new border guards, and it, too, vows to limit benefits to recent immigrants",
        "emotions": {
          "joy": 0.38533899188041687,
          "sadness": 0.13443100452423096,
          "disgust": 0.28812000155448914,
          "anger": 0.20949800312519073,
          "fear": 0.3029420077800751
        },
        "mainColor": {
          "r": 168,
          "b": 122,
          "g": 128
        },
        "origin": "http://www.nytimes.com/2015/05/02/world/europe/ukip-has-changed-britains-conversation-now-it-needs-a-big-win.html",
        "text": "000 new border guards"
      },
      {
        "originalSentence": "representative in Malaysia, estimates that there are an additional 30,000 or more Rohingya who are not registered, either because their applications have not been processed or because they have not tried to register",
        "emotions": {
          "joy": 0.035562001168727875,
          "sadness": 0.46519699692726135,
          "disgust": 0.4991829991340637,
          "anger": 0.4136370122432709,
          "fear": 0.16958199441432953
        },
        "mainColor": {
          "r": 36,
          "b": 17,
          "g": 24
        },
        "origin": "http://www.nytimes.com/2015/05/26/world/asia/migrants-flooding-into-malaysia-trade-one-nightmare-for-another.html",
        "text": "because they have not tried to register"
      }
    ]
  ]
}