{
  "credits": "a sonett by Ehwlan Chranmacfa",
  "author": "Ehwlan Chranmacfa",
  "plain": "'We don't really care who gives us a chance - that has become evident since I began covering him - Mr Zayat alternately identifies as Muslim - The Houthis nonetheless continued their advance - Reduced to the status of hostile aliens - who began the season at Class AA Trenton - Rodriguez has 30 days to challenge the decision - so far none have come near the Philippines - On a street leading to the Serail - this is just the beginning' - objections to the missile sale - after decades of trying - has reverberated in Israel - Tom Rakewell in 'The Rake's Progress' (Even seeing everything - ",
  "title": "reverberated in Israel after decades ",
  "type": "sonett",
  "strophen": [
    [
      {
        "originalSentence": "'We don't really care who gives us a chance, because we feel good about ourselves in that locker room and we know what we're about,'",
        "emotions": {
          "joy": 0.31589600443840027,
          "sadness": 0.3786830008029938,
          "disgust": 0.126350998878479,
          "anger": 0.26940399408340454,
          "fear": 0.25173598527908325
        },
        "mainColor": {
          "r": 152,
          "b": 218,
          "g": 181
        },
        "origin": "http://www.nytimes.com/2015/11/16/sports/football/football-scores-roundup.html",
        "text": "'We don't really care who gives us a chance"
      },
      {
        "originalSentence": "It's a relationship that is well known to those close to Mr Clinton and that has become evident since I began covering him and his wife, Hillary Rodham Clinton",
        "emotions": {
          "joy": 0.07337599992752075,
          "sadness": 0.5379340052604675,
          "disgust": 0.5978800058364868,
          "anger": 0.11165399849414825,
          "fear": 0.15120400488376617
        },
        "mainColor": {
          "r": 26,
          "b": 23,
          "g": 44
        },
        "origin": "http://www.nytimes.com/2015/02/22/arts/television/kevin-spacey-star-of-house-of-cards-and-a-bromance-with-bill-clinton.html",
        "text": "that has become evident since I began covering him"
      },
      {
        "originalSentence": "Publicly, Mr Zayat alternately identifies as Muslim and Jewish",
        "emotions": {
          "joy": 0.2652150094509125,
          "sadness": 0.47512000799179077,
          "disgust": 0.2626419961452484,
          "anger": 0.13937999308109283,
          "fear": 0.2141920030117035
        },
        "mainColor": {
          "r": 36,
          "b": 13,
          "g": 22
        },
        "origin": "http://www.nytimes.com/2015/06/05/sports/american-pharoah-cant-erase-all-of-ahmed-zayats-missteps.html",
        "text": "Mr Zayat alternately identifies as Muslim"
      },
      {
        "originalSentence": "The Houthis nonetheless continued their advance, and aid groups warned of a compounding humanitarian catastrophe, particularly in the port city of Aden",
        "emotions": {
          "joy": 0.04410399869084358,
          "sadness": 0.21314500272274017,
          "disgust": 0.6064339876174927,
          "anger": 0.0828159973025322,
          "fear": 0.3867360055446625
        },
        "mainColor": {
          "r": 199,
          "b": 239,
          "g": 227
        },
        "origin": "http://www.nytimes.com/2015/04/10/world/middleeast/yemen-fighting.html",
        "text": "The Houthis nonetheless continued their advance"
      }
    ],
    [
      {
        "originalSentence": "Reduced to the status of hostile aliens, American Indians battled one another over whatever scraps were left",
        "emotions": {
          "joy": 0.0064130001701414585,
          "sadness": 0.351500004529953,
          "disgust": 0.604079008102417,
          "anger": 0.38367998600006104,
          "fear": 0.5906149744987488
        },
        "mainColor": {
          "r": 108,
          "b": 107,
          "g": 107
        },
        "origin": "http://www.nytimes.com/2015/03/13/arts/design/review-the-plains-indians-americans-early-artists-at-the-met.html",
        "text": "Reduced to the status of hostile aliens"
      },
      {
        "originalSentence": "definitely a different environment here and atmosphere'\nBird, who began the season at Class AA Trenton, has impressed his new teammates not only with his bat, but with the way he carries himself",
        "emotions": {
          "joy": 0.07569000124931335,
          "sadness": 0.43046799302101135,
          "disgust": 0.40989699959754944,
          "anger": 0.30479300022125244,
          "fear": 0.14485600590705872
        },
        "mainColor": {
          "r": 23,
          "b": 110,
          "g": 55
        },
        "origin": "http://www.nytimes.com/2015/09/23/sports/greg-birds-home-run-in-10th-lifts-yankees-over-blue-jays.html",
        "text": "who began the season at Class AA Trenton"
      },
      {
        "originalSentence": "If the Yankees decline, as they have said they will, Rodriguez has 30 days to challenge the decision",
        "emotions": {
          "joy": 0.08987899869680405,
          "sadness": 0.2027990072965622,
          "disgust": 0.1939609944820404,
          "anger": 0.32924699783325195,
          "fear": 0.4434430003166199
        },
        "mainColor": {
          "r": 156,
          "b": 91,
          "g": 121
        },
        "origin": "http://www.nytimes.com/2015/05/09/sports/baseball/in-alex-rodriguezs-big-moments-yankees-start-to-look-small.html",
        "text": "Rodriguez has 30 days to challenge the decision"
      },
      {
        "originalSentence": "But the crisis is unfolding more than 1,500 miles away with migrants using flimsy boats, and so far none have come near the Philippines",
        "emotions": {
          "joy": 0.05839100107550621,
          "sadness": 0.6619489789009094,
          "disgust": 0.26155900955200195,
          "anger": 0.14029400050640106,
          "fear": 0.2515900135040283
        },
        "mainColor": {
          "r": 233,
          "b": 131,
          "g": 123
        },
        "origin": "http://www.nytimes.com/2015/05/21/world/asia/indonesia-malaysia-rohingya-bangladeshi-migrants-agreement.html",
        "text": "so far none have come near the Philippines"
      }
    ],
    [
      {
        "originalSentence": "On a street leading to the Serail, traffic lights and shop windows had been smashed",
        "emotions": {
          "joy": 0.18890799582004547,
          "sadness": 0.1333789974451065,
          "disgust": 0.17936299741268158,
          "anger": 0.42011699080467224,
          "fear": 0.2980690002441406
        },
        "mainColor": {
          "r": 160,
          "b": 146,
          "g": 148
        },
        "origin": "http://www.nytimes.com/2015/08/24/world/middleeast/lebanese-protest-as-trash-piles-up-in-beirut.html",
        "text": "On a street leading to the Serail"
      },
      {
        "originalSentence": "'Someone likes playing games, and this is just the beginning'\nIf that's all this is '",
        "emotions": {
          "joy": 0.033032000064849854,
          "sadness": 0.3366340100765228,
          "disgust": 0.44548299908638,
          "anger": 0.3466610014438629,
          "fear": 0.2481199949979782
        },
        "mainColor": {
          "r": 177,
          "b": 178,
          "g": 179
        },
        "origin": "http://www.nytimes.com/2015/09/21/arts/television/review-in-blindspot-an-amnesiacs-tattoos-are-the-clues.html",
        "text": "this is just the beginning'"
      },
      {
        "originalSentence": "objections to the missile sale, noting that Secretary of State John Kerry had expressed those concerns recently to Mr Lavrov",
        "emotions": {
          "joy": 0.04106000065803528,
          "sadness": 0.21657399833202362,
          "disgust": 0.6513550281524658,
          "anger": 0.32214000821113586,
          "fear": 0.24361799657344818
        },
        "mainColor": {
          "r": 154,
          "b": 241,
          "g": 186
        },
        "origin": "http://www.nytimes.com/2015/04/14/world/europe/putin-lifts-ban-on-russian-missile-sales-to-iran.html",
        "text": "objections to the missile sale"
      }
    ],
    [
      {
        "originalSentence": "after decades of trying, and this year it returns to Mexico after decades of absence",
        "emotions": {
          "joy": 0.09881199896335602,
          "sadness": 0.3935999870300293,
          "disgust": 0.3231950104236603,
          "anger": 0.188851997256279,
          "fear": 0.18466700613498688
        },
        "mainColor": {
          "r": 238,
          "b": 238,
          "g": 238
        },
        "origin": "http://www.nytimes.com/2015/03/06/sports/autoracing/a-bright-new-formula-one-season-full-of-soul-searching.html",
        "text": "after decades of trying"
      },
      {
        "originalSentence": "The backlash, not only from the White House but also from congressional Democrats, has reverberated in Israel, where maintaining bipartisan support in Congress is considered as crucial as preventing Iran from developing nuclear weapons",
        "emotions": {
          "joy": 0.09463100135326385,
          "sadness": 0.3223629891872406,
          "disgust": 0.5636829733848572,
          "anger": 0.12097799777984619,
          "fear": 0.5282269716262817
        },
        "mainColor": {
          "r": 165,
          "b": 109,
          "g": 151
        },
        "origin": "http://www.nytimes.com/2015/01/28/world/middleeast/israeli-opposition-takes-aim-at-netanyahu-over-planned-speech-to-congress.html",
        "text": "has reverberated in Israel"
      },
      {
        "originalSentence": "Tamara Wilson, joining a run of 'Aida' in the title role, made a far more passionate pair with the mezzo Violeta Urmana than Liudmyla Monastyrska and Olga Borodina had earlier in the run, and the young tenor Paul Appleby was a bright spot as David in 'Die Meistersinger' and Tom Rakewell in 'The Rake's Progress' (Even seeing everything, you can't see everything: Among many regretful omissions, I missed the tenor Michael Fabiano's much-praised last-minute performances in 'La Boh'me' and 'Lucia di Lammermoor')\nOh, right, those",
        "emotions": {
          "joy": 0.20327399671077728,
          "sadness": 0.5362250208854675,
          "disgust": 0.2876780033111572,
          "anger": 0.2579149901866913,
          "fear": 0.1836549937725067
        },
        "mainColor": {
          "r": 19,
          "b": 12,
          "g": 8
        },
        "origin": "http://www.nytimes.com/2015/05/10/arts/music/monitoring-the-metropolitan-operas-vital-signs.html",
        "text": "Tom Rakewell in 'The Rake's Progress' (Even seeing everything"
      }
    ]
  ]
}