{
  "credits": "a sonett by Benmarcjas Nliine",
  "author": "Benmarcjas Nliine",
  "plain": "where he is director of conducting - He thinks Harrington was still joking when he added - There was nothing to suggest the militants were routed - models of destroyed ceiling - Quarterback Jay Cutler dumped the ball off to Miller - Slow the heart rate down - the drummer Justin Brown - They nearly ran Al Kooper - a lot trickier than I thought they'd get' - And not only because Yannick Noah - 'He already had that mind-set - but he can't throw' - She smoked a cigarette - In his current show - ",
  "title": "She smoked a lot trickier than ",
  "type": "sonett",
  "strophen": [
    [
      {
        "originalSentence": "For the most part, when he is not working with the Philharmonic at David Geffen Hall, Mr Gilbert can be found just across the street at the Juilliard School, where he is director of conducting and orchestral studies",
        "emotions": {
          "joy": 0.0695509985089302,
          "sadness": 0.45107799768447876,
          "disgust": 0.45167800784111023,
          "anger": 0.3895620107650757,
          "fear": 0.18437199294567108
        },
        "mainColor": {
          "r": 26,
          "b": 13,
          "g": 13
        },
        "origin": "http://www.nytimes.com/2015/11/26/arts/music/review-juilliard-orchestra-grabbing-the-ring-cycle.html",
        "text": "where he is director of conducting"
      },
      {
        "originalSentence": "He thinks Harrington was still joking when he added, 'After 20 years, you won't be singing on the putting green'\nHarrington, who birdied holes 11 through 14, credited a pep talk from his wife, Caroline, before Monday's finish with his positive frame of mind on the Champion greens",
        "emotions": {
          "joy": 0.2313770055770874,
          "sadness": 0.1880200058221817,
          "disgust": 0.4330640137195587,
          "anger": 0.1637199968099594,
          "fear": 0.09884099662303925
        },
        "mainColor": {
          "r": 111,
          "b": 45,
          "g": 110
        },
        "origin": "http://www.nytimes.com/2015/03/03/sports/golf/padraig-harrington-beats-daniel-berger-in-honda-classic-playoff.html",
        "text": "He thinks Harrington was still joking when he added"
      },
      {
        "originalSentence": "There was nothing to suggest the militants were routed, only that they may have staged a tactical retreat",
        "emotions": {
          "joy": 0.08765000104904175,
          "sadness": 0.3911550045013428,
          "disgust": 0.2199079990386963,
          "anger": 0.2723509967327118,
          "fear": 0.44227200746536255
        },
        "mainColor": {
          "r": 94,
          "b": 60,
          "g": 64
        },
        "origin": "http://www.nytimes.com/2015/07/02/world/middleeast/sinai-isis-attack.html",
        "text": "There was nothing to suggest the militants were routed"
      },
      {
        "originalSentence": "In November, curators of 'St Louis Modern' at the St Louis Art Museum plan to park a 1950s Corvette near abstract stained-glass windows from a demolished church and models of destroyed ceiling and wall components designed by the sculptors Harry Bertoia and Isamu Noguchi",
        "emotions": {
          "joy": 0.05853100121021271,
          "sadness": 0.3111110031604767,
          "disgust": 0.4034689962863922,
          "anger": 0.36851000785827637,
          "fear": 0.1868470013141632
        },
        "mainColor": {
          "r": 160,
          "b": 81,
          "g": 116
        },
        "origin": "http://www.nytimes.com/2015/01/30/arts/design/celebrating-images-of-a-long-gone-florida.html",
        "text": "models of destroyed ceiling"
      }
    ],
    [
      {
        "originalSentence": "Quarterback Jay Cutler dumped the ball off to Miller, who caught the ball at the 15 yard line, before rumbling 85 yards through poor Rams tackling for a touchdown",
        "emotions": {
          "joy": 0.13040100038051605,
          "sadness": 0.10686299949884415,
          "disgust": 0.404215008020401,
          "anger": 0.4802420139312744,
          "fear": 0.20197799801826477
        },
        "mainColor": {
          "r": 11,
          "b": 33,
          "g": 10
        },
        "origin": "http://www.nytimes.com/2015/11/17/sports/football/nfl-had-lots-of-short-passes-for-long-gains-this-week.html",
        "text": "Quarterback Jay Cutler dumped the ball off to Miller"
      },
      {
        "originalSentence": "Slow the heart rate down; slow the thinking process; slow it down",
        "emotions": {
          "joy": 0.1359349936246872,
          "sadness": 0.38708600401878357,
          "disgust": 0.1143840029835701,
          "anger": 0.3237200081348419,
          "fear": 0.20344600081443787
        },
        "mainColor": {
          "r": 5,
          "b": 88,
          "g": 49
        },
        "origin": "http://www.nytimes.com/2015/10/01/sports/baseball/mets-psychologist-helps-players-catch-their-breath.html",
        "text": "Slow the heart rate down"
      },
      {
        "originalSentence": "led a band full of aces: the tenor saxophonist Ben Wendel, the guitarist Ben Monder and the drummer Justin Brown",
        "emotions": {
          "joy": 0.241580992937088,
          "sadness": 0.28462499380111694,
          "disgust": 0.40107399225234985,
          "anger": 0.17421600222587585,
          "fear": 0.15546900033950806
        },
        "mainColor": {
          "r": 4,
          "b": 32,
          "g": 18
        },
        "origin": "http://www.nytimes.com/2015/05/30/arts/music/greenleaf-music-label-turns-10-with-a-show-at-subculture.html",
        "text": "the drummer Justin Brown"
      },
      {
        "originalSentence": "They nearly ran Al Kooper, Robbie Robertson and me out of town for having long hair' Nonetheless, his trip resulted in the monumental double-album 'Blonde on Blonde,' which he later told Playboy was 'the closest I ever got to the sound I hear in my mind'",
        "emotions": {
          "joy": 0.052191998809576035,
          "sadness": 0.3560290038585663,
          "disgust": 0.4324589967727661,
          "anger": 0.3155139982700348,
          "fear": 0.2812570035457611
        },
        "mainColor": {
          "r": 94,
          "b": 94,
          "g": 94
        },
        "origin": "http://www.nytimes.com/2015/03/29/arts/music/dylan-cash-and-the-nashville-cats-an-unlikely-alliance-of-rock-and-country.html",
        "text": "They nearly ran Al Kooper"
      }
    ],
    [
      {
        "originalSentence": "Putnam said, adding, 'The USGA got tricky with the pin placements, a lot trickier than I thought they'd get'\nIf Putnam is the local favorite, Phil Mickelson is this week's",
        "emotions": {
          "joy": 0.07022300362586975,
          "sadness": 0.5015019774436951,
          "disgust": 0.4409100115299225,
          "anger": 0.3178279995918274,
          "fear": 0.22897300124168396
        },
        "mainColor": {
          "r": 232,
          "b": 243,
          "g": 236
        },
        "origin": "http://www.nytimes.com/2015/06/19/sports/golf/us-open-2015-tiger-woods-sees-another-round-slip-away.html",
        "text": "a lot trickier than I thought they'd get'"
      },
      {
        "originalSentence": "And not only because Yannick Noah, one of the most iconic captains in the competition's",
        "emotions": {
          "joy": 0.18864600360393524,
          "sadness": 0.3696320056915283,
          "disgust": 0.2859329879283905,
          "anger": 0.2349729984998703,
          "fear": 0.2320609986782074
        },
        "mainColor": {
          "r": 96,
          "b": 57,
          "g": 51
        },
        "origin": "http://www.nytimes.com/2015/09/22/sports/tennis/the-davis-cup-could-use-a-little-polishing.html",
        "text": "And not only because Yannick Noah"
      },
      {
        "originalSentence": "'He already had that mind-set,'",
        "emotions": {
          "joy": 0.1544640064239502,
          "sadness": 0.5313860177993774,
          "disgust": 0.1839209944009781,
          "anger": 0.2316499948501587,
          "fear": 0.24850599467754364
        },
        "mainColor": {
          "r": 95,
          "b": 53,
          "g": 70
        },
        "origin": "http://www.nytimes.com/2015/01/28/sports/football/in-seahawks-fierce-secondary-new-members-make-the-cut.html",
        "text": "'He already had that mind-set"
      }
    ],
    [
      {
        "originalSentence": "Tell him to go play receiver, he could play that'\nFrerotte added, 'He could play quarterback, but he can't throw'\nElliott committed to Ohio State not half a year after Meyer became coach and more than a year before he graduated high school",
        "emotions": {
          "joy": 0.018818000331521034,
          "sadness": 0.43651899695396423,
          "disgust": 0.6018890142440796,
          "anger": 0.43432900309562683,
          "fear": 0.17321300506591797
        },
        "mainColor": {
          "r": 95,
          "b": 43,
          "g": 63
        },
        "origin": "http://www.nytimes.com/2015/01/14/sports/ncaafootball/after-monster-game-ezekiel-elliott-cherishes-his-and-ohio-states-glorious-run.html",
        "text": "but he can't throw'"
      },
      {
        "originalSentence": "She smoked a cigarette, in slow motion",
        "emotions": {
          "joy": 0.0518839992582798,
          "sadness": 0.2291249930858612,
          "disgust": 0.6994180083274841,
          "anger": 0.26836299896240234,
          "fear": 0.05144200101494789
        },
        "mainColor": {
          "r": 27,
          "b": 27,
          "g": 27
        },
        "origin": "http://www.nytimes.com/2015/06/28/arts/music/hearing-yoko-ono-all-over-again.html",
        "text": "She smoked a cigarette"
      },
      {
        "originalSentence": "In his current show, 'The Waning of Justice,' the chill is still there, but the human presence is back",
        "emotions": {
          "joy": 0.029030999168753624,
          "sadness": 0.7067580223083496,
          "disgust": 0.741927981376648,
          "anger": 0.04535499960184097,
          "fear": 0.2818860113620758
        },
        "mainColor": {
          "r": 9,
          "b": 9,
          "g": 9
        },
        "origin": "http://www.nytimes.com/2015/03/13/arts/design/charles-atlas-the-waning-of-justice.html",
        "text": "In his current show"
      }
    ]
  ]
}