{
  "credits": "a sonett by Monyc Tahug",
  "author": "Monyc Tahug",
  "plain": "but refused to provide a figure - The dynamic between a club coach - Following this hybrid approach - host Calgary rallied to defeat Vancouver - This episode of 'Jessica Jones - A chorus of 'Si - the tallest goaltender in NHL history - in particular last season's - When the mother saw Dua - 'They smuggle 35 percent of our national production - and lock Romain Taofif'nua - it is some of the saddest music ever written - ' said Chris Lewa - back there in the bullpen - ",
  "title": "tallest goaltender in particular last ",
  "type": "sonett",
  "strophen": [
    [
      {
        "originalSentence": "but refused to provide a figure, The AP reported",
        "emotions": {
          "joy": 0.05666600167751312,
          "sadness": 0.25623899698257446,
          "disgust": 0.4127500057220459,
          "anger": 0.4144670069217682,
          "fear": 0.26026099920272827
        },
        "mainColor": {
          "r": 13,
          "b": 12,
          "g": 12
        },
        "origin": "http://www.nytimes.com/2015/10/13/world/europe/ankara-terror-attack-turkey-nobel-prize-chemistry.html",
        "text": "but refused to provide a figure"
      },
      {
        "originalSentence": "The dynamic between a club coach and a college coach can be likened to a joint-custody arrangement in parenting",
        "emotions": {
          "joy": 0.22633199393749237,
          "sadness": 0.28684601187705994,
          "disgust": 0.384101003408432,
          "anger": 0.22790099680423737,
          "fear": 0.23599199950695038
        },
        "mainColor": {
          "r": 3,
          "b": 95,
          "g": 37
        },
        "origin": "http://www.nytimes.com/2015/08/02/sports/missy-franklin-sheds-her-youth-and-embraces-a-pros-challenges.html",
        "text": "The dynamic between a club coach"
      },
      {
        "originalSentence": "Following this hybrid approach, he chose to model the d'cors on a famous 1921 staging by Serge Diaghilev for the Ballets Russes",
        "emotions": {
          "joy": 0.2990350127220154,
          "sadness": 0.3312860131263733,
          "disgust": 0.19425800442695618,
          "anger": 0.09774199873209,
          "fear": 0.3175950050354004
        },
        "mainColor": {
          "r": 165,
          "b": 119,
          "g": 141
        },
        "origin": "http://www.nytimes.com/2015/05/31/arts/dance/the-sleeping-beauty-awakes-to-vibrant-ballet-costumes.html",
        "text": "Following this hybrid approach"
      },
      {
        "originalSentence": "FLAMES 7, CANUCKS 4 Matt Stajan broke a tie with 4:17 left, and host Calgary rallied to defeat Vancouver and win their Western Conference series, 4-2",
        "emotions": {
          "joy": 0.1490810066461563,
          "sadness": 0.37742099165916443,
          "disgust": 0.2587519884109497,
          "anger": 0.22284799814224243,
          "fear": 0.24286599457263947
        },
        "mainColor": {
          "r": 231,
          "b": 133,
          "g": 204
        },
        "origin": "http://www.nytimes.com/2015/04/26/sports/hockey/chicago-blackhawks-third-period-goal-eliminates-nashville-predators.html",
        "text": "host Calgary rallied to defeat Vancouver"
      }
    ],
    [
      {
        "originalSentence": "This episode of 'Jessica Jones,'",
        "emotions": {
          "joy": 0.08545900136232376,
          "sadness": 0.47085899114608765,
          "disgust": 0.4220139980316162,
          "anger": 0.10211600363254547,
          "fear": 0.39759400486946106
        },
        "mainColor": {
          "r": 164,
          "b": 237,
          "g": 217
        },
        "origin": "http://www.nytimes.com/2015/11/22/arts/television/jessica-jones-episode-3-youre-a-good-person.html",
        "text": "This episode of 'Jessica Jones"
      },
      {
        "originalSentence": "A chorus of 'Si!' came from the crowd",
        "emotions": {
          "joy": 0.14747099578380585,
          "sadness": 0.1340949982404709,
          "disgust": 0.5786449909210205,
          "anger": 0.14199699461460114,
          "fear": 0.39686399698257446
        },
        "mainColor": {
          "r": 89,
          "b": 161,
          "g": 121
        },
        "origin": "http://www.nytimes.com/2015/12/18/sports/baseball/mlb-tour-of-cuba-is-hardly-the-last-word.html",
        "text": "A chorus of 'Si"
      },
      {
        "originalSentence": "Bishop, the tallest goaltender in NHL history, allowed two goals between his legs, stuffed home off rebounds by Chris Kreider and Rick Nash",
        "emotions": {
          "joy": 0.09632200002670288,
          "sadness": 0.45580199360847473,
          "disgust": 0.5594789981842041,
          "anger": 0.09610100090503693,
          "fear": 0.26155298948287964
        },
        "mainColor": {
          "r": 10,
          "b": 25,
          "g": 8
        },
        "origin": "http://www.nytimes.com/2015/05/24/sports/hockey/pressure-shifts-to-ben-bishop-after-the-rangers-onslaught.html",
        "text": "the tallest goaltender in NHL history"
      },
      {
        "originalSentence": "'I would like to thank Gus,' it read, 'for his endeavors during his time at the club, in particular last season's",
        "emotions": {
          "joy": 0.09955400228500366,
          "sadness": 0.40408000349998474,
          "disgust": 0.6806700229644775,
          "anger": 0.14229999482631683,
          "fear": 0.06795600056648254
        },
        "mainColor": {
          "r": 14,
          "b": 36,
          "g": 24
        },
        "origin": "http://www.nytimes.com/2015/03/18/sports/soccer/coachs-door-revolves-again-at-sunderland.html",
        "text": "in particular last season's"
      }
    ],
    [
      {
        "originalSentence": "When the mother saw Dua, she rushed over and begged her to intercede",
        "emotions": {
          "joy": 0.015088999643921852,
          "sadness": 0.6324779987335205,
          "disgust": 0.7002159953117371,
          "anger": 0.19998300075531006,
          "fear": 0.12805800139904022
        },
        "mainColor": {
          "r": 215,
          "b": 190,
          "g": 202
        },
        "origin": "http://www.nytimes.com/2015/11/22/world/middleeast/isis-wives-and-enforcers-in-syria-recount-collaboration-anguish-and-escape.html",
        "text": "When the mother saw Dua"
      },
      {
        "originalSentence": "'They smuggle 35 percent of our national production, which has taken a tremendous toll on our economy,'",
        "emotions": {
          "joy": 0.1533689945936203,
          "sadness": 0.1035740002989769,
          "disgust": 0.6691870093345642,
          "anger": 0.13809800148010254,
          "fear": 0.3925189971923828
        },
        "mainColor": {
          "r": 15,
          "b": 12,
          "g": 12
        },
        "origin": "http://www.nytimes.com/2015/09/09/world/americas/venezuelas-un-envoy-defends-crackdown-along-border-with-colombia.html",
        "text": "'They smuggle 35 percent of our national production"
      },
      {
        "originalSentence": "and lock Romain Taofif'nua, who scored France's 70th-minute try, were able to dominate physically, while the scrumhalf Morgan Parra, whose exclusion from the starting lineup baffled many, excelled with his tactics in calling the shots",
        "emotions": {
          "joy": 0.04393399879336357,
          "sadness": 0.1392039954662323,
          "disgust": 0.6668199896812439,
          "anger": 0.27630001306533813,
          "fear": 0.22549499571323395
        },
        "mainColor": {
          "r": 40,
          "b": 24,
          "g": 30
        },
        "origin": "http://www.nytimes.com/2015/02/16/sports/rugby/ireland-and-england-win-to-set-up-a-six-nations-showdown.html",
        "text": "and lock Romain Taofif'nua"
      }
    ],
    [
      {
        "originalSentence": "Mr Furlanetto's full-bodied, elegant singing was chilling one moment and aching the next, especially during the wrenching Act IV aria when the king realizes the extent of his isolation; it is some of the saddest music ever written",
        "emotions": {
          "joy": 0.06536699831485748,
          "sadness": 0.7563340067863464,
          "disgust": 0.07227499783039093,
          "anger": 0.30357301235198975,
          "fear": 0.05040799826383591
        },
        "mainColor": {
          "r": 20,
          "b": 16,
          "g": 25
        },
        "origin": "http://www.nytimes.com/2015/04/01/arts/music/review-don-carlo-gets-a-gripping-revival-at-the-met-opera.html",
        "text": "it is some of the saddest music ever written"
      },
      {
        "originalSentence": "If a woman told her husband, 'most of the time the husband would not allow her to leave,' said Chris Lewa, a Rohingya rights advocate based in Bangkok",
        "emotions": {
          "joy": 0.02314399927854538,
          "sadness": 0.3519810140132904,
          "disgust": 0.7024800181388855,
          "anger": 0.3144589960575104,
          "fear": 0.16904699802398682
        },
        "mainColor": {
          "r": 40,
          "b": 12,
          "g": 23
        },
        "origin": "http://www.nytimes.com/2015/07/06/world/asia/myanmar-rohingya-refugee-crisis-malaysia.html",
        "text": "' said Chris Lewa"
      },
      {
        "originalSentence": "'We've got guys that can throw at the end of the game, all day long, back there in the bullpen,'",
        "emotions": {
          "joy": 0.13359899818897247,
          "sadness": 0.43211299180984497,
          "disgust": 0.41901499032974243,
          "anger": 0.17346900701522827,
          "fear": 0.08809900283813477
        },
        "mainColor": {
          "r": 58,
          "b": 162,
          "g": 112
        },
        "origin": "http://www.nytimes.com/2015/02/19/sports/baseball/as-bobby-parnell-recovers-mets-hold-his-place.html",
        "text": "back there in the bullpen"
      }
    ]
  ]
}