{
  "credits": "a sonett by Abett Dst",
  "author": "Abett Dst",
  "plain": "with some pieces repeating - When asked if their children could change schools - Citing a new interpretation of its rules - but pondering the alternatives is interesting - 'Not that the economic situation was florid - designed by the Brazilian architect Oscar Niemeyer - Hendrick supplies the HScott Motorsports drivers Justin Allgaier - 'I still don't know why I was arrested - hog farms in these rolling hills - 'So Cardinal Ortega distanced himself from these activities - demonstrated her formidable vocal skills - 'I'm pretty confident in my own abilities - through the grueling Newton hills - because they are influenced by business lobbies - ",
  "title": "the HScott Motorsports drivers Justin ",
  "type": "sonett",
  "strophen": [
    [
      {
        "originalSentence": "Each piece was or will be on display for at least a month, with some pieces repeating and others overlapping",
        "emotions": {
          "joy": 0.34334298968315125,
          "sadness": 0.11066900193691254,
          "disgust": 0.3565329909324646,
          "anger": 0.2591649889945984,
          "fear": 0.22629299759864807
        },
        "mainColor": {
          "r": 232,
          "b": 232,
          "g": 232
        },
        "origin": "http://www.nytimes.com/2015/10/22/arts/international/at-sehgal-show-in-amsterdam-it-all-depends-on-the-situations.html",
        "text": "with some pieces repeating"
      },
      {
        "originalSentence": "When asked if their children could change schools, the villagers laughed",
        "emotions": {
          "joy": 0.08082699775695801,
          "sadness": 0.16804300248622894,
          "disgust": 0.5937349796295166,
          "anger": 0.31083598732948303,
          "fear": 0.1931840032339096
        },
        "mainColor": {
          "r": 26,
          "b": 34,
          "g": 26
        },
        "origin": "http://www.nytimes.com/2015/12/12/world/asia/chinas-emissions-pledges-are-undercut-by-boom-in-coal-projects-abroad.html",
        "text": "When asked if their children could change schools"
      },
      {
        "originalSentence": "Citing a new interpretation of its rules, the NCAA, which previously permitted universities to offer $800-per-family stipends for championship travel, on Tuesday also approved reimbursements comparable to the ones for the playoff final to families headed to the men's and women's basketball Final Fours as part of a pilot program",
        "emotions": {
          "joy": 0.40560200810432434,
          "sadness": 0.2690509855747223,
          "disgust": 0.35826200246810913,
          "anger": 0.190543994307518,
          "fear": 0.19955900311470032
        },
        "mainColor": {
          "r": 213,
          "b": 225,
          "g": 218
        },
        "origin": "http://www.nytimes.com/2015/01/11/sports/ncaafootball/signs-of-college-footballs-clout-beer-sales-and-travel-aid-.html",
        "text": "Citing a new interpretation of its rules"
      },
      {
        "originalSentence": "Alon, but pondering the alternatives is interesting",
        "emotions": {
          "joy": 0.37707000970840454,
          "sadness": 0.49015000462532043,
          "disgust": 0.12876300513744354,
          "anger": 0.15508000552654266,
          "fear": 0.1892549991607666
        },
        "mainColor": {
          "r": 1,
          "b": 1,
          "g": 1
        },
        "origin": "http://www.nytimes.com/2015/03/24/world/middleeast/israel-benjamin-netanyahu-next-steps.html",
        "text": "but pondering the alternatives is interesting"
      }
    ],
    [
      {
        "originalSentence": "'Not that the economic situation was florid, on the contrary",
        "emotions": {
          "joy": 0.11129000037908554,
          "sadness": 0.20425699651241302,
          "disgust": 0.4004090130329132,
          "anger": 0.21513999998569489,
          "fear": 0.3151780068874359
        },
        "mainColor": {
          "r": 213,
          "b": 181,
          "g": 195
        },
        "origin": "http://www.nytimes.com/2015/06/23/world/europe/sicilian-town-tells-outsiders-take-our-homes-please.html",
        "text": "'Not that the economic situation was florid"
      },
      {
        "originalSentence": "The arena, designed by the Brazilian architect Oscar Niemeyer, features a wide runway flanked by tiers of stands, similar to the seating in a soccer stadium",
        "emotions": {
          "joy": 0.11823800206184387,
          "sadness": 0.22929300367832184,
          "disgust": 0.6420860290527344,
          "anger": 0.1293489933013916,
          "fear": 0.2949660122394562
        },
        "mainColor": {
          "r": 38,
          "b": 22,
          "g": 28
        },
        "origin": "http://www.nytimes.com/2015/09/20/sports/olympics/olympic-sites-both-new-and-familiar-for-rio-games.html",
        "text": "designed by the Brazilian architect Oscar Niemeyer"
      },
      {
        "originalSentence": "On top of that, Hendrick supplies the HScott Motorsports drivers Justin Allgaier and Michael Annett",
        "emotions": {
          "joy": 0.2577359974384308,
          "sadness": 0.13541699945926666,
          "disgust": 0.7107170224189758,
          "anger": 0.076944999396801,
          "fear": 0.22334399819374084
        },
        "mainColor": {
          "r": 11,
          "b": 24,
          "g": 11
        },
        "origin": "http://www.nytimes.com/2015/02/22/sports/autoracing/with-hendrick-motorsports-dominant-sprint-cup-is-becoming-a-one-team-race.html",
        "text": "Hendrick supplies the HScott Motorsports drivers Justin Allgaier"
      },
      {
        "originalSentence": "'I still don't know why I was arrested and why I was released,' said Roxana Saberi, an American journalist arrested on Jan",
        "emotions": {
          "joy": 0.006300000008195639,
          "sadness": 0.521543025970459,
          "disgust": 0.4170849919319153,
          "anger": 0.6445959806442261,
          "fear": 0.19579599797725677
        },
        "mainColor": {
          "r": 218,
          "b": 142,
          "g": 197
        },
        "origin": "http://www.nytimes.com/2015/05/28/world/middleeast/jason-rezaian-trial-in-iran-may-be-more-about-leverage-than-justice.html",
        "text": "'I still don't know why I was arrested"
      }
    ],
    [
      {
        "originalSentence": "Just off Highway 8, amid the cattle pastures, chicken houses and hog farms in these rolling hills, is Pole Vault Lane",
        "emotions": {
          "joy": 0.12476599961519241,
          "sadness": 0.09789299964904785,
          "disgust": 0.7528219819068909,
          "anger": 0.17821699380874634,
          "fear": 0.2788250148296356
        },
        "mainColor": {
          "r": 160,
          "b": 122,
          "g": 127
        },
        "origin": "http://www.nytimes.com/2015/02/25/sports/lexi-and-tori-weeks-chase-high-school-girls-pole-vault-records.html",
        "text": "hog farms in these rolling hills"
      },
      {
        "originalSentence": "'So Cardinal Ortega distanced himself from these activities and we see the rifts still visible today'\nReplacing the cardinal will be one of Francis' most complicated and important tasks",
        "emotions": {
          "joy": 0.05114699900150299,
          "sadness": 0.4869459867477417,
          "disgust": 0.44966399669647217,
          "anger": 0.23604600131511688,
          "fear": 0.3050920069217682
        },
        "mainColor": {
          "r": 38,
          "b": 13,
          "g": 8
        },
        "origin": "http://www.nytimes.com/2015/09/19/world/americas/pope-francis-cuba.html",
        "text": "'So Cardinal Ortega distanced himself from these activities"
      },
      {
        "originalSentence": "sung mostly in French, demonstrated her formidable vocal skills",
        "emotions": {
          "joy": 0.3923940062522888,
          "sadness": 0.2775309979915619,
          "disgust": 0.19714100658893585,
          "anger": 0.12960900366306305,
          "fear": 0.21995100378990173
        },
        "mainColor": {
          "r": 4,
          "b": 4,
          "g": 4
        },
        "origin": "http://www.nytimes.com/2015/06/22/arts/music/lady-gaga-brings-thrill-to-tony-bennetts-immutable-style.html",
        "text": "demonstrated her formidable vocal skills"
      }
    ],
    [
      {
        "originalSentence": "'I'm pretty confident in my own abilities,'",
        "emotions": {
          "joy": 0.30698299407958984,
          "sadness": 0.21524399518966675,
          "disgust": 0.09004800021648407,
          "anger": 0.24458999931812286,
          "fear": 0.38276898860931396
        },
        "mainColor": {
          "r": 45,
          "b": 158,
          "g": 82
        },
        "origin": "http://www.nytimes.com/2015/06/08/sports/hockey/questions-begin-at-third-draft-slot-as-top-prospects-perform-at-combine.html",
        "text": "'I'm pretty confident in my own abilities"
      },
      {
        "originalSentence": "In his first Boston Marathon, Dathan Ritzenhein, 32, held the lead for much of the middle of the race, through the grueling Newton hills",
        "emotions": {
          "joy": 0.19055600464344025,
          "sadness": 0.23610199987888336,
          "disgust": 0.311367005109787,
          "anger": 0.03093699924647808,
          "fear": 0.6459410190582275
        },
        "mainColor": {
          "r": 156,
          "b": 150,
          "g": 155
        },
        "origin": "http://www.nytimes.com/2015/04/21/sports/boston-marathon-lelisa-desisa-caroline-rotich.html",
        "text": "through the grueling Newton hills"
      },
      {
        "originalSentence": "because they are influenced by business lobbies and simple facts on the ground: that it is Chinese capacity that can deliver'\nYet the courtship comes as China has been extending its political and military reach in South Asia, and when Mr Modi's administration is also being wooed by other nations, notably Japan and the United States, as a counterbalance to China",
        "emotions": {
          "joy": 0.10103099793195724,
          "sadness": 0.12603899836540222,
          "disgust": 0.5938460230827332,
          "anger": 0.40698298811912537,
          "fear": 0.28697100281715393
        },
        "mainColor": {
          "r": 90,
          "b": 58,
          "g": 70
        },
        "origin": "http://www.nytimes.com/2015/05/14/world/asia/india-and-china-aim-to-table-territorial-rifts-amid-economic-courtship.html",
        "text": "because they are influenced by business lobbies"
      }
    ]
  ]
}