{
  "credits": "a sonett by Tta Reybu",
  "author": "Tta Reybu",
  "plain": "Acting on suggestions from both the Constitutional Court - That's a strange way to play her hand - setting off a chain of rhythmic command - according to the report - To learn how to handle the weapons convincingly - thanked O'Connor for holding the door to the bus - has a margin of sampling error of plus - he'll eventually slap it silly - 'If we win out - investigators appeared to be pursuing two sets of leads - At one point during a timeout - along with his prayer beads - economic development is beyond doubt - 'I don't want to lighten his deeds - ",
  "title": "To learn how to the report ",
  "type": "sonett",
  "strophen": [
    [
      {
        "originalSentence": "Acting on suggestions from both the Constitutional Court and the country's",
        "emotions": {
          "joy": 0.06377299875020981,
          "sadness": 0.23654800653457642,
          "disgust": 0.6032959818840027,
          "anger": 0.13363799452781677,
          "fear": 0.32882699370384216
        },
        "mainColor": {
          "r": 83,
          "b": 93,
          "g": 84
        },
        "origin": "http://www.nytimes.com/2015/10/04/world/south-korean-jehovahs-witnesses-face-stigma-of-not-serving-in-army.html",
        "text": "Acting on suggestions from both the Constitutional Court"
      },
      {
        "originalSentence": "That's a strange way to play her hand: Why wait so long for the surprise'",
        "emotions": {
          "joy": 0.15849900245666504,
          "sadness": 0.18373599648475647,
          "disgust": 0.49126601219177246,
          "anger": 0.20216700434684753,
          "fear": 0.2424280047416687
        },
        "mainColor": {
          "r": 225,
          "b": 178,
          "g": 183
        },
        "origin": "http://www.nytimes.com/2015/03/10/arts/music/reviews-of-purity-ring-sarah-bethe-nelson-and-jacky-terrasson.html",
        "text": "That's a strange way to play her hand"
      },
      {
        "originalSentence": "And in 'Jauk Manis,' the dancer Shoko Yamamuro, came out dressed as a demon figure in a mask and gloves with long, witchlike fingernails, setting off a chain of rhythmic command: dancer to drummer to metallophones",
        "emotions": {
          "joy": 0.03531099855899811,
          "sadness": 0.11021099984645844,
          "disgust": 0.4709169864654541,
          "anger": 0.3569589853286743,
          "fear": 0.41805198788642883
        },
        "mainColor": {
          "r": 1,
          "b": 38,
          "g": 4
        },
        "origin": "http://www.nytimes.com/2015/02/10/arts/music/review-gamelan-ensemble-hammers-out-ritual-rhythms-of-bali.html",
        "text": "setting off a chain of rhythmic command"
      },
      {
        "originalSentence": "Global sales by dealers and auction houses reached an all-time high of just over 51 billion euros, or about $59 billion, in 2014, according to the report",
        "emotions": {
          "joy": 0.14259399473667145,
          "sadness": 0.2688030004501343,
          "disgust": 0.5300390124320984,
          "anger": 0.19438700377941132,
          "fear": 0.2946319878101349
        },
        "mainColor": {
          "r": 202,
          "b": 136,
          "g": 165
        },
        "origin": "http://www.nytimes.com/2015/03/13/arts/design/european-fine-art-fair-showcases-shaker-furniture.html",
        "text": "according to the report"
      }
    ],
    [
      {
        "originalSentence": "To learn how to handle the weapons convincingly, the original cast underwent military training",
        "emotions": {
          "joy": 0.12117999792098999,
          "sadness": 0.1530890017747879,
          "disgust": 0.18631599843502045,
          "anger": 0.32997599244117737,
          "fear": 0.5495859980583191
        },
        "mainColor": {
          "r": 30,
          "b": 232,
          "g": 134
        },
        "origin": "http://www.nytimes.com/2015/07/05/arts/dance/national-ballet-of-china-conveys-its-history-at-lincoln-center-festival.html",
        "text": "To learn how to handle the weapons convincingly"
      },
      {
        "originalSentence": "One BU student, who had been on crutches, thanked O'Connor for holding the door to the bus and the classroom building one day",
        "emotions": {
          "joy": 0.17036700248718262,
          "sadness": 0.15975899994373322,
          "disgust": 0.37620699405670166,
          "anger": 0.250669002532959,
          "fear": 0.22449299693107605
        },
        "mainColor": {
          "r": 203,
          "b": 228,
          "g": 196
        },
        "origin": "http://www.nytimes.com/2015/05/10/sports/hockey/goalie-finds-perspective-after-losing-track-of-a-shot-in-a-title-game-loss.html",
        "text": "thanked O'Connor for holding the door to the bus"
      },
      {
        "originalSentence": "The poll, conducted on a rolling basis since late April by the University of Hong Kong, Polytechnic University and the Chinese University of Hong Kong, includes about 1,000 respondents and has a margin of sampling error of plus or minus three percentage points",
        "emotions": {
          "joy": 0.06734199821949005,
          "sadness": 0.4162429869174957,
          "disgust": 0.37836799025535583,
          "anger": 0.5446040034294128,
          "fear": 0.1643889993429184
        },
        "mainColor": {
          "r": 4,
          "b": 12,
          "g": 16
        },
        "origin": "http://www.nytimes.com/2015/06/15/world/asia/protesters-return-to-hong-kongs-streets.html",
        "text": "has a margin of sampling error of plus"
      },
      {
        "originalSentence": "Here's the problem: If a major league hitter knows that 98 mph is coming, he'll eventually slap it silly",
        "emotions": {
          "joy": 0.10103599727153778,
          "sadness": 0.27336999773979187,
          "disgust": 0.4358370006084442,
          "anger": 0.38846999406814575,
          "fear": 0.3363969922065735
        },
        "mainColor": {
          "r": 4,
          "b": 92,
          "g": 35
        },
        "origin": "http://www.nytimes.com/2015/06/13/sports/baseball/along-with-hope-mets-fans-have-questions-and-long-memories.html",
        "text": "he'll eventually slap it silly"
      }
    ],
    [
      {
        "originalSentence": "'If we win out, we're in,'",
        "emotions": {
          "joy": 0.22614899277687073,
          "sadness": 0.27563101053237915,
          "disgust": 0.15197399258613586,
          "anger": 0.082846999168396,
          "fear": 0.7223399877548218
        },
        "mainColor": {
          "r": 1,
          "b": 7,
          "g": 1
        },
        "origin": "http://www.nytimes.com/2015/04/11/sports/basketball/this-time-nets-pound-wizards-and-bolster-push-for-playoffs.html",
        "text": "'If we win out"
      },
      {
        "originalSentence": "Though the precise motive for Friday's attack remained unclear, investigators appeared to be pursuing two sets of leads, the authorities said",
        "emotions": {
          "joy": 0.2444169968366623,
          "sadness": 0.14885500073432922,
          "disgust": 0.36295899748802185,
          "anger": 0.14511799812316895,
          "fear": 0.3573409914970398
        },
        "mainColor": {
          "r": 13,
          "b": 30,
          "g": 20
        },
        "origin": "http://www.nytimes.com/2015/06/29/world/europe/french-assailant-texted-beheading-photo-to-canadian-number.html",
        "text": "investigators appeared to be pursuing two sets of leads"
      },
      {
        "originalSentence": "At one point during a timeout, he sat on the bench with his hands over his head, staring at the scoreboard in apparent disbelief",
        "emotions": {
          "joy": 0.030175000429153442,
          "sadness": 0.2579739987850189,
          "disgust": 0.7674890160560608,
          "anger": 0.334214985370636,
          "fear": 0.19077999889850616
        },
        "mainColor": {
          "r": 146,
          "b": 48,
          "g": 107
        },
        "origin": "http://www.nytimes.com/2015/01/24/sports/basketball/nba-roundup.html",
        "text": "At one point during a timeout"
      }
    ],
    [
      {
        "originalSentence": "his mother, Rebecca, an immigrant from the Philippines, said, waving a copy of the Quran she found in her son's bedroom, along with his prayer beads, a knitted skull cap and an electronic device that recites Islamic prayers",
        "emotions": {
          "joy": 0.12210799753665924,
          "sadness": 0.3844139873981476,
          "disgust": 0.6458200216293335,
          "anger": 0.09164199978113174,
          "fear": 0.11503800004720688
        },
        "mainColor": {
          "r": 76,
          "b": 174,
          "g": 122
        },
        "origin": "http://www.nytimes.com/2015/04/05/world/europe/a-norway-town-and-its-pipeline-to-jihad-in-syria.html",
        "text": "along with his prayer beads"
      },
      {
        "originalSentence": "economic development is beyond doubt, but it also came at a significant cost for human rights,' said Phil Robertson, the deputy Asia director of Human Rights Watch",
        "emotions": {
          "joy": 0.032614000141620636,
          "sadness": 0.29983198642730713,
          "disgust": 0.6206640005111694,
          "anger": 0.17324599623680115,
          "fear": 0.4320699870586395
        },
        "mainColor": {
          "r": 179,
          "b": 183,
          "g": 181
        },
        "origin": "http://www.nytimes.com/2015/03/24/world/asia/lee-kuan-yew-of-singapore-prasied-by-world-leaders.html",
        "text": "economic development is beyond doubt"
      },
      {
        "originalSentence": "'I don't want to lighten his deeds, but he was much loved in the area'\nThe second gunman, Mr Abidi, hid his militancy more carefully",
        "emotions": {
          "joy": 0.028395000845193863,
          "sadness": 0.6339759826660156,
          "disgust": 0.2866640090942383,
          "anger": 0.17017999291419983,
          "fear": 0.22848600149154663
        },
        "mainColor": {
          "r": 170,
          "b": 164,
          "g": 168
        },
        "origin": "http://www.nytimes.com/2015/04/03/world/africa/in-tunisia-one-brother-studied-philosophy-another-gunned-down-tourists.html",
        "text": "'I don't want to lighten his deeds"
      }
    ]
  ]
}