{
  "credits": "a sonett by Davy Riopo",
  "author": "Davy Riopo",
  "plain": "Their return home was met with great fanfare - along with Jabari Parker - who was born in 1944 in Fall River - But the list of his potential challengers is threadbare - Divac has instead been admiring Porzingis from afar - He is not quick - very first draft pick - Rob Ackroyd on guitar - in particular with apparitions it has always treaded lightly - Two of his better hitters - president of the Malevich Society - at an event to woo foreign investors - a Hall of Fame jockey - prepared an edition of the composer's - ",
  "title": "to woo foreign investors in ",
  "type": "sonett",
  "strophen": [
    [
      {
        "originalSentence": "Their return home was met with great fanfare, as they were accompanied by Prime Minister Mohamed Said Fofana",
        "emotions": {
          "joy": 0.5085740089416504,
          "sadness": 0.1746789962053299,
          "disgust": 0.3541730046272278,
          "anger": 0.05660799890756607,
          "fear": 0.18738900125026703
        },
        "mainColor": {
          "r": 159,
          "b": 73,
          "g": 131
        },
        "origin": "http://www.nytimes.com/2015/11/18/world/africa/guinea-last-nation-with-ebola-may-soon-be-declared-free-of-virus.html",
        "text": "Their return home was met with great fanfare"
      },
      {
        "originalSentence": "The Bucks are blessed with one of the game's best young end-to-end athletes in Giannis Antetokounmpo, along with Jabari Parker, expected back soon after knee surgery last winter, and point guard Michael Carter-Williams",
        "emotions": {
          "joy": 0.34531599283218384,
          "sadness": 0.419173002243042,
          "disgust": 0.11371999979019165,
          "anger": 0.04457100108265877,
          "fear": 0.33965998888015747
        },
        "mainColor": {
          "r": 30,
          "b": 13,
          "g": 14
        },
        "origin": "http://www.nytimes.com/2015/10/27/sports/basketball/as-nba-season-opens-east-is-bound-to-learn-from-the-west.html",
        "text": "along with Jabari Parker"
      },
      {
        "originalSentence": "Mr Moniz, who was born in 1944 in Fall River, Mass, got hooked on science as a high school student in the post-Sputnik era of the late 1950s and early 1960s",
        "emotions": {
          "joy": 0.08749499917030334,
          "sadness": 0.40783101320266724,
          "disgust": 0.5236330032348633,
          "anger": 0.18163199722766876,
          "fear": 0.2729269862174988
        },
        "mainColor": {
          "r": 213,
          "b": 205,
          "g": 209
        },
        "origin": "http://www.nytimes.com/2015/03/29/world/middleeast/no-2-negotiators-in-iran-talks-argue-physics-behind-politics.html",
        "text": "who was born in 1944 in Fall River"
      },
      {
        "originalSentence": "But the list of his potential challengers is threadbare",
        "emotions": {
          "joy": 0.14910399913787842,
          "sadness": 0.5636190176010132,
          "disgust": 0.36557498574256897,
          "anger": 0.1263349950313568,
          "fear": 0.2213740050792694
        },
        "mainColor": {
          "r": 227,
          "b": 227,
          "g": 227
        },
        "origin": "http://www.nytimes.com/2015/04/23/sports/in-this-corner-a-dominant-heavyweight-who-creates-much-less-buzz.html",
        "text": "But the list of his potential challengers is threadbare"
      }
    ],
    [
      {
        "originalSentence": "Divac has instead been admiring Porzingis from afar, though he playfully bristled at the notion that Porzingis has more range than he did when he played",
        "emotions": {
          "joy": 0.0614669993519783,
          "sadness": 0.41854700446128845,
          "disgust": 0.5152320265769958,
          "anger": 0.2562600076198578,
          "fear": 0.23804700374603271
        },
        "mainColor": {
          "r": 14,
          "b": 6,
          "g": 6
        },
        "origin": "http://www.nytimes.com/2015/12/12/sports/basketball/knicks-kristaps-porzingis-nails-the-charm-but-aims-for-consistency.html",
        "text": "Divac has instead been admiring Porzingis from afar"
      },
      {
        "originalSentence": "He is not quick and does not move gracefully",
        "emotions": {
          "joy": 0.06133199855685234,
          "sadness": 0.523684024810791,
          "disgust": 0.09481900185346603,
          "anger": 0.33425700664520264,
          "fear": 0.35190001130104065
        },
        "mainColor": {
          "r": 168,
          "b": 72,
          "g": 94
        },
        "origin": "http://www.nytimes.com/2015/03/29/sports/baseball/playing-shortstop-for-the-mets-wilmer-flores-really-yeah-really.html",
        "text": "He is not quick"
      },
      {
        "originalSentence": "very first draft pick, tied the score",
        "emotions": {
          "joy": 0.5136770009994507,
          "sadness": 0.20132499933242798,
          "disgust": 0.14968399703502655,
          "anger": 0.1980160027742386,
          "fear": 0.17922300100326538
        },
        "mainColor": {
          "r": 227,
          "b": 227,
          "g": 227
        },
        "origin": "http://www.nytimes.com/2015/03/10/sports/hockey/looking-back-at-the-rangers-islanders-rivalry.html",
        "text": "very first draft pick"
      },
      {
        "originalSentence": "The rest of the band took shape after Ms Welch was signed to a record deal in 2008, with Ms Summers on keyboards, Rob Ackroyd on guitar, Mark Saunders on bass, Chris Hayden on drums and Tom Monger as the busy harpist",
        "emotions": {
          "joy": 0.13156600296497345,
          "sadness": 0.24767500162124634,
          "disgust": 0.4870449900627136,
          "anger": 0.22463999688625336,
          "fear": 0.26936501264572144
        },
        "mainColor": {
          "r": 39,
          "b": 12,
          "g": 23
        },
        "origin": "http://www.nytimes.com/2015/05/24/arts/music/florence-welch-slows-down-the-machine-for-the-bands-next-album.html",
        "text": "Rob Ackroyd on guitar"
      }
    ],
    [
      {
        "originalSentence": "'The church always acts with prudence and patience, and in particular with apparitions it has always treaded lightly,' said Angela Ambrogetti, the director of the Rome bureau of EWTN, the global Catholic broadcaster",
        "emotions": {
          "joy": 0.1427289992570877,
          "sadness": 0.19503499567508698,
          "disgust": 0.39109599590301514,
          "anger": 0.18944300711154938,
          "fear": 0.42961299419403076
        },
        "mainColor": {
          "r": 89,
          "b": 64,
          "g": 73
        },
        "origin": "http://www.nytimes.com/2015/08/27/world/europe/catholic-church-virgin-mary-apparations-medjugorje.html",
        "text": "in particular with apparitions it has always treaded lightly"
      },
      {
        "originalSentence": "Two of his better hitters, Travis d'Arnaud and David Wright, are making progress in their rehabilitation",
        "emotions": {
          "joy": 0.45197099447250366,
          "sadness": 0.2767139971256256,
          "disgust": 0.3646630048751831,
          "anger": 0.045715998858213425,
          "fear": 0.1605529934167862
        },
        "mainColor": {
          "r": 127,
          "b": 62,
          "g": 154
        },
        "origin": "http://www.nytimes.com/2015/07/24/sports/baseball/clayton-kershaw-shuts-out-mets.html",
        "text": "Two of his better hitters"
      },
      {
        "originalSentence": "'It's marvelous to see Malevich now becoming mainstream,' said Christina Lodder, professor at the University of Kent and president of the Malevich Society",
        "emotions": {
          "joy": 0.1308860033750534,
          "sadness": 0.41996800899505615,
          "disgust": 0.31374800205230713,
          "anger": 0.1955289989709854,
          "fear": 0.163442000746727
        },
        "mainColor": {
          "r": 170,
          "b": 130,
          "g": 147
        },
        "origin": "http://www.nytimes.com/2015/03/16/arts/international/at-malevich-exhibition-a-journey-of-ideas.html",
        "text": "president of the Malevich Society"
      }
    ],
    [
      {
        "originalSentence": "In March, at an event to woo foreign investors, he was one of only a dozen businessmen to meet President Obama",
        "emotions": {
          "joy": 0.15929000079631805,
          "sadness": 0.34782201051712036,
          "disgust": 0.35151201486587524,
          "anger": 0.14172600209712982,
          "fear": 0.2614719867706299
        },
        "mainColor": {
          "r": 37,
          "b": 3,
          "g": 3
        },
        "origin": "http://www.nytimes.com/2015/04/29/world/asia/wang-jianlin-abillionaire-at-the-intersection-of-business-and-power-in-china.html",
        "text": "at an event to woo foreign investors"
      },
      {
        "originalSentence": "attracted John Velazquez, a Hall of Fame jockey",
        "emotions": {
          "joy": 0.09116800129413605,
          "sadness": 0.13889099657535553,
          "disgust": 0.7013499736785889,
          "anger": 0.13696900010108948,
          "fear": 0.23955799639225006
        },
        "mainColor": {
          "r": 20,
          "b": 29,
          "g": 20
        },
        "origin": "http://www.nytimes.com/2015/02/21/sports/nick-zito-yearns-to-revive-stable-and-recapture-the-glory-of-the-big-races.html",
        "text": "a Hall of Fame jockey"
      },
      {
        "originalSentence": "Debussy, who revered Chopin and loved the milky harmonies and lush colorings of his piano music, prepared an edition of the composer's",
        "emotions": {
          "joy": 0.7673929929733276,
          "sadness": 0.26499900221824646,
          "disgust": 0.06936399638652802,
          "anger": 0.028558999300003052,
          "fear": 0.044300999492406845
        },
        "mainColor": {
          "r": 89,
          "b": 20,
          "g": 55
        },
        "origin": "http://www.nytimes.com/2015/05/12/arts/music/emanuel-ax-and-stephen-hough-explore-the-french-side-of-chopin.html",
        "text": "prepared an edition of the composer's"
      }
    ]
  ]
}