{
  "credits": "a sonett by Onatendrew Nercrrtkep",
  "author": "Onatendrew Nercrrtkep",
  "plain": "leader of the opposition in Parliament - 'It certainly opened me up - They are as dependable as an open layup - then some words of encouragement - Wacha beat Cincinnati with six solid innings last Sunday - American League MVP awards - The monastery had kept poor records - even if he was not buying that excuse Friday - Mr Xi urged universities to 'enhance guidance over thinking - like a Ginger Rogers character - singing 'The woman boss is not leaving' - then I told my trainer - Mr Borisov was quoted as saying - ' which went off the air in December - ",
  "title": "was quoted as saying ",
  "type": "sonett",
  "strophen": [
    [
      {
        "originalSentence": "Isaac Herzog, leader of the opposition in Parliament, called for a more intensive security crackdown, including a 'complete closure'",
        "emotions": {
          "joy": 0.07682500034570694,
          "sadness": 0.294638991355896,
          "disgust": 0.5733569860458374,
          "anger": 0.4990989863872528,
          "fear": 0.15753699839115143
        },
        "mainColor": {
          "r": 60,
          "b": 93,
          "g": 75
        },
        "origin": "http://www.nytimes.com/2015/10/09/world/middleeast/netanyahu-old-city-temple-mount.html",
        "text": "leader of the opposition in Parliament"
      },
      {
        "originalSentence": "'It certainly opened me up,'",
        "emotions": {
          "joy": 0.18434500694274902,
          "sadness": 0.2398270070552826,
          "disgust": 0.12968599796295166,
          "anger": 0.2812420129776001,
          "fear": 0.39190998673439026
        },
        "mainColor": {
          "r": 186,
          "b": 196,
          "g": 210
        },
        "origin": "http://www.nytimes.com/2015/11/14/arts/music/roswell-rudd-in-a-celebratory-mood-reflects-on-his-winding-path.html",
        "text": "'It certainly opened me up"
      },
      {
        "originalSentence": "They are as dependable as an open layup",
        "emotions": {
          "joy": 0.133419007062912,
          "sadness": 0.32054901123046875,
          "disgust": 0.26329299807548523,
          "anger": 0.33429500460624695,
          "fear": 0.272832989692688
        },
        "mainColor": {
          "r": 215,
          "b": 108,
          "g": 183
        },
        "origin": "http://www.nytimes.com/2015/02/09/sports/basketball/globetrotters-say-you-can-win-them-all.html",
        "text": "They are as dependable as an open layup"
      },
      {
        "originalSentence": "At the net, Keys extended her hand for a shake, but Williams ignored it and gave her a hug instead and then some words of encouragement",
        "emotions": {
          "joy": 0.06268200278282166,
          "sadness": 0.22786900401115417,
          "disgust": 0.5698230266571045,
          "anger": 0.29137301445007324,
          "fear": 0.2435609996318817
        },
        "mainColor": {
          "r": 40,
          "b": 93,
          "g": 63
        },
        "origin": "http://www.nytimes.com/2015/01/29/sports/tennis/maria-sharapova-breezes-past-compatriot-to-reach-final.html",
        "text": "then some words of encouragement"
      }
    ],
    [
      {
        "originalSentence": "for them and for us'\nSure enough, Wacha beat Cincinnati with six solid innings last Sunday, and Martinez followed the next game with eight dominant innings (one run, nine strikeouts) against the Brewers",
        "emotions": {
          "joy": 0.277523010969162,
          "sadness": 0.13797299563884735,
          "disgust": 0.12106800079345703,
          "anger": 0.185698002576828,
          "fear": 0.4921190142631531
        },
        "mainColor": {
          "r": 29,
          "b": 51,
          "g": 40
        },
        "origin": "http://www.nytimes.com/2015/09/20/sports/baseball/in-long-run-cardinals-hope-that-a-breather-helps.html",
        "text": "Wacha beat Cincinnati with six solid innings last Sunday"
      },
      {
        "originalSentence": "National and American League MVP awards, decided before the playoffs get underway, without consideration of who comes up big when everyone but the best falls away",
        "emotions": {
          "joy": 0.30862900614738464,
          "sadness": 0.3452250063419342,
          "disgust": 0.13116399943828583,
          "anger": 0.2280779927968979,
          "fear": 0.2753889858722687
        },
        "mainColor": {
          "r": 201,
          "b": 227,
          "g": 207
        },
        "origin": "http://www.nytimes.com/2015/09/24/sports/golf/player-of-the-year-someone-with-the-initial-j.html",
        "text": "American League MVP awards"
      },
      {
        "originalSentence": "The monastery had kept poor records, and it was unclear how many monks resided there, although the headmaster estimated that before the earthquake, the monastery and school housed 500 monks and seven teachers",
        "emotions": {
          "joy": 0.05039500072598457,
          "sadness": 0.2040890008211136,
          "disgust": 0.5042750239372253,
          "anger": 0.33545801043510437,
          "fear": 0.36918601393699646
        },
        "mainColor": {
          "r": 27,
          "b": 11,
          "g": 11
        },
        "origin": "http://www.nytimes.com/2015/06/20/world/asia/red-tape-untangled-young-nepalese-monks-find-ride-to-safety.html",
        "text": "The monastery had kept poor records"
      },
      {
        "originalSentence": "But it is certainly fair to wonder if he overdid it this time, even if he was not buying that excuse Friday",
        "emotions": {
          "joy": 0.2025739997625351,
          "sadness": 0.5047799944877625,
          "disgust": 0.21368199586868286,
          "anger": 0.13808199763298035,
          "fear": 0.0957150012254715
        },
        "mainColor": {
          "r": 4,
          "b": 134,
          "g": 74
        },
        "origin": "http://www.nytimes.com/2015/01/24/sports/tennis/roger-federer-departs-just-as-rafael-nadal-returns-to-his-feet.html",
        "text": "even if he was not buying that excuse Friday"
      }
    ],
    [
      {
        "originalSentence": "In instructions published last week, Mr Xi urged universities to 'enhance guidance over thinking and keep a tight grip on leading ideological work in higher education,'",
        "emotions": {
          "joy": 0.20752599835395813,
          "sadness": 0.5714449882507324,
          "disgust": 0.11208400130271912,
          "anger": 0.18439899384975433,
          "fear": 0.22067099809646606
        },
        "mainColor": {
          "r": 5,
          "b": 4,
          "g": 4
        },
        "origin": "http://www.nytimes.com/2015/01/05/world/chinas-maoists-are-revived-as-thought-police.html",
        "text": "Mr Xi urged universities to 'enhance guidance over thinking"
      },
      {
        "originalSentence": "Ms Cope, like a Ginger Rogers character, resists Mr Fairchild's",
        "emotions": {
          "joy": 0.11098899692296982,
          "sadness": 0.36827000975608826,
          "disgust": 0.2820410132408142,
          "anger": 0.20596499741077423,
          "fear": 0.2999579906463623
        },
        "mainColor": {
          "r": 1,
          "b": 110,
          "g": 8
        },
        "origin": "http://www.nytimes.com/2015/04/18/arts/dance/christopher-wheeldons-an-american-in-paris-brings-ballet-values-to-broadway.html",
        "text": "like a Ginger Rogers character"
      },
      {
        "originalSentence": "influence beyond her presidency, some of her supporters recently gathered on a patio of the presidential palace, singing 'The woman boss is not leaving'\nFor many Argentines, that would be a welcome situation",
        "emotions": {
          "joy": 0.037737999111413956,
          "sadness": 0.3828350007534027,
          "disgust": 0.6918540000915527,
          "anger": 0.2470169961452484,
          "fear": 0.14604300260543823
        },
        "mainColor": {
          "r": 100,
          "b": 143,
          "g": 108
        },
        "origin": "http://www.nytimes.com/2015/06/29/world/americas/argentine-president-plans-to-remain-behind-the-scenes-even-after-term-ends.html",
        "text": "singing 'The woman boss is not leaving'"
      }
    ],
    [
      {
        "originalSentence": "'I finished the inning, just to do it, and then I told my trainer: 'Something's wrong",
        "emotions": {
          "joy": 0.12651999294757843,
          "sadness": 0.315187007188797,
          "disgust": 0.09729599952697754,
          "anger": 0.5549659729003906,
          "fear": 0.2930540144443512
        },
        "mainColor": {
          "r": 19,
          "b": 45,
          "g": 30
        },
        "origin": "http://www.nytimes.com/2015/03/13/sports/baseball/for-tommy-john-patients-a-mix-of-hope-and-worry.html",
        "text": "then I told my trainer"
      },
      {
        "originalSentence": "Mr Borisov was quoted as saying",
        "emotions": {
          "joy": 0.4418089985847473,
          "sadness": 0.49319198727607727,
          "disgust": 0.10339999943971634,
          "anger": 0.13133500516414642,
          "fear": 0.14346300065517426
        },
        "mainColor": {
          "r": 15,
          "b": 36,
          "g": 23
        },
        "origin": "http://www.nytimes.com/2015/06/17/world/europe/putin-40-new-missiles-russian-nuclear-arsenal.html",
        "text": "Mr Borisov was quoted as saying"
      },
      {
        "originalSentence": "And that's true of too much of the first four episodes, in which Frank has to have an agenda, make decisions, push legislation and generally attend to all of the mind-numbing details that come with the presidency, including an appearance on 'The Colbert Report,' which went off the air in December",
        "emotions": {
          "joy": 0.07314100116491318,
          "sadness": 0.28919801115989685,
          "disgust": 0.4389910101890564,
          "anger": 0.2808769941329956,
          "fear": 0.15442000329494476
        },
        "mainColor": {
          "r": 95,
          "b": 50,
          "g": 67
        },
        "origin": "http://www.nytimes.com/2015/02/26/arts/television/season-3-of-house-of-cards-starts-with-more-policy-than-chicanery.html",
        "text": "' which went off the air in December"
      }
    ]
  ]
}