{
  "credits": "a sonett by Hard Lapibarb",
  "author": "Hard Lapibarb",
  "plain": "on the previous evening - When news of the disaster spread Tuesday - Spieth's round was a combination of brilliant play - league finals had left him feeling 'amazing' - He injured his hip Tuesday - known for his work on hip-hop - Young was out of Sunday's starting lineup - Hendrick declined to address that possibility on Thursday - because it installed netting in front of dugouts - Much of the art was preserved - a third innings while compiling five strikeouts - As Alex Rodriguez observed - 'I came into one of the timeouts - give us the respect we deserved - ",
  "title": "Young was a third innings ",
  "type": "sonett",
  "strophen": [
    [
      {
        "originalSentence": "danced, on the previous evening, by Carla K'rbes with moving purity",
        "emotions": {
          "joy": 0.4147520065307617,
          "sadness": 0.18205499649047852,
          "disgust": 0.11744900047779083,
          "anger": 0.1935579925775528,
          "fear": 0.2702850103378296
        },
        "mainColor": {
          "r": 6,
          "b": 21,
          "g": 13
        },
        "origin": "http://www.nytimes.com/2015/08/12/arts/dance/an-apollo-debut-and-a-balanchine-celebration-at-vail-international-dance-festival.html",
        "text": "on the previous evening"
      },
      {
        "originalSentence": "When news of the disaster spread Tuesday, families in Shanghai descended on a travel agency that had put tourists on the Oriental Star",
        "emotions": {
          "joy": 0.08373299986124039,
          "sadness": 0.16465799510478973,
          "disgust": 0.6346790194511414,
          "anger": 0.17510199546813965,
          "fear": 0.1817460060119629
        },
        "mainColor": {
          "r": 166,
          "b": 131,
          "g": 156
        },
        "origin": "http://www.nytimes.com/2015/06/05/world/asia/yangtze-river-capsized-ship-oriental-star-rescue-efforts.html",
        "text": "When news of the disaster spread Tuesday"
      },
      {
        "originalSentence": "Spieth's round was a combination of brilliant play and the kind of good karma that comes with being the hottest player in the game",
        "emotions": {
          "joy": 0.18838700652122498,
          "sadness": 0.1637279987335205,
          "disgust": 0.34873801469802856,
          "anger": 0.43040400743484497,
          "fear": 0.0688840001821518
        },
        "mainColor": {
          "r": 4,
          "b": 3,
          "g": 3
        },
        "origin": "http://www.nytimes.com/2015/04/10/sports/golf/jordan-spieth-holds-3-stroke-lead-at-masters-2015.html",
        "text": "Spieth's round was a combination of brilliant play"
      },
      {
        "originalSentence": "Irving said an eight-day break between the conference and league finals had left him feeling 'amazing'",
        "emotions": {
          "joy": 0.1279049962759018,
          "sadness": 0.5584059953689575,
          "disgust": 0.1946289986371994,
          "anger": 0.3109939992427826,
          "fear": 0.25251099467277527
        },
        "mainColor": {
          "r": 221,
          "b": 84,
          "g": 183
        },
        "origin": "http://www.nytimes.com/2015/06/06/sports/basketball/kyrie-irving-out-of-nba-finals-with-broken-kneecap-cavaliers-say.html",
        "text": "league finals had left him feeling 'amazing'"
      }
    ],
    [
      {
        "originalSentence": "He injured his hip Tuesday, sat out Wednesday and was not cleared to return until making it through batting practice",
        "emotions": {
          "joy": 0.11584000289440155,
          "sadness": 0.33726099133491516,
          "disgust": 0.35245099663734436,
          "anger": 0.275299996137619,
          "fear": 0.26429998874664307
        },
        "mainColor": {
          "r": 1,
          "b": 8,
          "g": 12
        },
        "origin": "http://www.nytimes.com/2015/08/29/sports/baseball/with-two-big-bats-out-of-lineup-yanks-still-feast-on-subpar-pitching.html",
        "text": "He injured his hip Tuesday"
      },
      {
        "originalSentence": "Mr George, known for his work on hip-hop and about African-American culture, said he began with no agenda",
        "emotions": {
          "joy": 0.13194000720977783,
          "sadness": 0.4848650097846985,
          "disgust": 0.5299379825592041,
          "anger": 0.10584700107574463,
          "fear": 0.2162189930677414
        },
        "mainColor": {
          "r": 5,
          "b": 4,
          "g": 4
        },
        "origin": "http://www.nytimes.com/2015/10/11/arts/dance/misty-copeland-on-pushing-ballets-boundaries.html",
        "text": "known for his work on hip-hop"
      },
      {
        "originalSentence": "Young was out of Sunday's starting lineup, but even after a pinch-hit strikeout, he was hitting 313",
        "emotions": {
          "joy": 0.05774400010704994,
          "sadness": 0.3945930004119873,
          "disgust": 0.4987269937992096,
          "anger": 0.34885600209236145,
          "fear": 0.12321499735116959
        },
        "mainColor": {
          "r": 69,
          "b": 76,
          "g": 78
        },
        "origin": "http://www.nytimes.com/2015/05/04/sports/baseball/behind-the-yankees-their-best-days-and-al-east-foes.html",
        "text": "Young was out of Sunday's starting lineup"
      },
      {
        "originalSentence": "Hendrick declined to address that possibility on Thursday",
        "emotions": {
          "joy": 0.16783100366592407,
          "sadness": 0.25067299604415894,
          "disgust": 0.2893519997596741,
          "anger": 0.1047469973564148,
          "fear": 0.3374980092048645
        },
        "mainColor": {
          "r": 28,
          "b": 11,
          "g": 11
        },
        "origin": "http://www.nytimes.com/2015/01/23/sports/autoracing/jeff-gordon-says-this-will-be-his-final-full-time-nascar-season.html",
        "text": "Hendrick declined to address that possibility on Thursday"
      }
    ],
    [
      {
        "originalSentence": "because it installed netting in front of dugouts and required first- and third-base coaches to wear helmets",
        "emotions": {
          "joy": 0.15649700164794922,
          "sadness": 0.09507600218057632,
          "disgust": 0.5214179754257202,
          "anger": 0.27001500129699707,
          "fear": 0.4103359878063202
        },
        "mainColor": {
          "r": 17,
          "b": 45,
          "g": 23
        },
        "origin": "http://www.nytimes.com/2015/07/14/sports/baseball/lawsuit-seeks-better-protection-for-fans-from-foul-balls-and-broken-bats.html",
        "text": "because it installed netting in front of dugouts"
      },
      {
        "originalSentence": "Much of the art was preserved, but three paintings by old masters somehow ended up in a poker game won by an American tank commander, Maj",
        "emotions": {
          "joy": 0.3189769983291626,
          "sadness": 0.5712599754333496,
          "disgust": 0.2401459962129593,
          "anger": 0.12989400327205658,
          "fear": 0.15038399398326874
        },
        "mainColor": {
          "r": 95,
          "b": 95,
          "g": 95
        },
        "origin": "http://www.nytimes.com/2015/05/06/arts/design/returning-the-spoils-of-world-war-ii-taken-by-our-side.html",
        "text": "Much of the art was preserved"
      },
      {
        "originalSentence": "In his fifth spring-training start, Harvey held the Cardinals, who played most of their regulars, to one run in four and a third innings while compiling five strikeouts",
        "emotions": {
          "joy": 0.3075990080833435,
          "sadness": 0.2060140073299408,
          "disgust": 0.32702699303627014,
          "anger": 0.10862500220537186,
          "fear": 0.25902000069618225
        },
        "mainColor": {
          "r": 203,
          "b": 233,
          "g": 217
        },
        "origin": "http://www.nytimes.com/2015/03/28/sports/baseball/matt-harvey-continues-his-sterling-spring-by-taming-the-cardinals.html",
        "text": "a third innings while compiling five strikeouts"
      }
    ],
    [
      {
        "originalSentence": "As Alex Rodriguez observed, it can be difficult enough in one's 20s, let alone when pushing 40",
        "emotions": {
          "joy": 0.03166100010275841,
          "sadness": 0.19426700472831726,
          "disgust": 0.26283299922943115,
          "anger": 0.35765698552131653,
          "fear": 0.6570900082588196
        },
        "mainColor": {
          "r": 12,
          "b": 35,
          "g": 21
        },
        "origin": "http://www.nytimes.com/2015/08/16/sports/baseball/yankees-resist-toll-of-dog-days-rebuilding-division-lead-over-toronto.html",
        "text": "As Alex Rodriguez observed"
      },
      {
        "originalSentence": "'I came into one of the timeouts,'",
        "emotions": {
          "joy": 0.13407699763774872,
          "sadness": 0.17815899848937988,
          "disgust": 0.3707819879055023,
          "anger": 0.19622300565242767,
          "fear": 0.5474420189857483
        },
        "mainColor": {
          "r": 10,
          "b": 9,
          "g": 9
        },
        "origin": "http://www.nytimes.com/2015/04/27/sports/basketball/with-team-effort-livelier-clippers-even-series-with-spurs.html",
        "text": "'I came into one of the timeouts"
      },
      {
        "originalSentence": "give us the respect we deserved,'",
        "emotions": {
          "joy": 0.10769300162792206,
          "sadness": 0.16061699390411377,
          "disgust": 0.37781599164009094,
          "anger": 0.28361600637435913,
          "fear": 0.16955099999904633
        },
        "mainColor": {
          "r": 239,
          "b": 231,
          "g": 231
        },
        "origin": "http://www.nytimes.com/2015/03/08/sports/hockey/twenty-years-later-nj-devils-toast-the-men-who-hoisted-the-teams-first-cup.html",
        "text": "give us the respect we deserved"
      }
    ]
  ]
}