{
  "credits": "a ballade by Hollaomini Sta",
  "author": "Hollaomini Sta",
  "plain": "We're 15 years into the new millennium - To reach the next stratosphere of stardom - for the first time - All three teams rhyme - crazy set up shop here long ago - profanity that hasn't been matched by any other show - Amid the spate of new laws - knew it was no mere bruise because - ",
  "title": "teams rhyme for the first ",
  "type": "ballade",
  "strophen": [
    [
      {
        "originalSentence": "We're 15 years into the new millennium, but our museums don't seem to be aware",
        "emotions": {
          "joy": 0.3289560079574585,
          "sadness": 0.5288879871368408,
          "disgust": 0.2960300147533417,
          "anger": 0.03965200111269951,
          "fear": 0.17678700387477875
        },
        "mainColor": {
          "r": 186,
          "b": 239,
          "g": 207
        },
        "origin": "http://www.nytimes.com/2015/11/01/arts/design/toward-a-museum-of-the-21st-century.html",
        "text": "We're 15 years into the new millennium"
      },
      {
        "originalSentence": "To reach the next stratosphere of stardom, McIlroy, 23, of Northern Ireland, had to separate from Titleist, the club and ball manufacturer that got him started, and ride the global marketing might of Nike, which, he said in a news conference, 'has always been associated with the best athletes in the world'\nMcIlroy, the world No 1 and the only active golfer younger than 40 other than Woods to have at least two major titles, joins a constellation of sports superstars representing the swoosh label that includes Woods, the tennis player Roger Federer and the Miami Heat's LeBron James",
        "emotions": {
          "joy": 0.07988400012254715,
          "sadness": 0.2660990059375763,
          "disgust": 0.5743430256843567,
          "anger": 0.2942360043525696,
          "fear": 0.11205200105905533
        },
        "mainColor": {
          "r": 231,
          "b": 119,
          "g": 164
        },
        "origin": "http://www.nytimes.com/2013/01/15/sports/golf/rory-mcilroy-announces-deal-with-nike-golf.html",
        "text": "To reach the next stratosphere of stardom"
      },
      {
        "originalSentence": "Over the next two weeks, 30,000 diplomats and delegates will labor to hammer out a new global pact that would, for the first time, commit nearly every country on earth to enact new policies to reduce their planet-warming greenhouse gas emissions",
        "emotions": {
          "joy": 0.14993800222873688,
          "sadness": 0.2687239944934845,
          "disgust": 0.4737519919872284,
          "anger": 0.09873799979686737,
          "fear": 0.418256014585495
        },
        "mainColor": {
          "r": 94,
          "b": 41,
          "g": 63
        },
        "origin": "http://www.nytimes.com/2015/12/01/world/europe/obama-climate-conference-cop21.html",
        "text": "for the first time"
      },
      {
        "originalSentence": "All three teams rhyme and reside in the same existential place: second in their respective sports in the New York City market",
        "emotions": {
          "joy": 0.24616900086402893,
          "sadness": 0.39816299080848694,
          "disgust": 0.36322298645973206,
          "anger": 0.084136001765728,
          "fear": 0.1418049931526184
        },
        "mainColor": {
          "r": 21,
          "b": 31,
          "g": 20
        },
        "origin": "http://www.nytimes.com/2013/06/14/sports/basketball/nets-couldnt-pass-up-bold-hiring-of-kidd.html",
        "text": "All three teams rhyme"
      }
    ],
    [
      {
        "originalSentence": "Which is why New Orleans is the perfect Super Bowl host: crazy set up shop here long ago and called it home",
        "emotions": {
          "joy": 0.6778010129928589,
          "sadness": 0.2424200028181076,
          "disgust": 0.06997700035572052,
          "anger": 0.11763100326061249,
          "fear": 0.12585599720478058
        },
        "mainColor": {
          "r": 105,
          "b": 94,
          "g": 155
        },
        "origin": "http://www.nytimes.com/2013/01/29/sports/for-new-orleans-bowl-is-a-happy-return-leading-off.html",
        "text": "crazy set up shop here long ago"
      },
      {
        "originalSentence": "The characters spoke a new language, too, an incongruous mix of poetry and profanity that hasn't been matched by any other show, not even the first season of 'True Detective' Mr Milch spiked the commonplace blasphemy of the 1870s with obscenities so crude they would make rappers flinch",
        "emotions": {
          "joy": 0.01219599973410368,
          "sadness": 0.5074809789657593,
          "disgust": 0.7714920043945312,
          "anger": 0.41774898767471313,
          "fear": 0.17642199993133545
        },
        "mainColor": {
          "r": 167,
          "b": 73,
          "g": 132
        },
        "origin": "http://www.nytimes.com/2015/07/22/arts/television/revisiting-deadwood-a-lawless-prelude-to-tvs-new-golden-age.html",
        "text": "profanity that hasn't been matched by any other show"
      },
      {
        "originalSentence": "Amid the spate of new laws, human rights groups warn of a possible backlash if governments go too far in muzzling dissent and in turn, send even more of their citizens into the arms of radical extremists",
        "emotions": {
          "joy": 0.012396000325679779,
          "sadness": 0.16777299344539642,
          "disgust": 0.8174239993095398,
          "anger": 0.08803900331258774,
          "fear": 0.7293639779090881
        },
        "mainColor": {
          "r": 16,
          "b": 29,
          "g": 21
        },
        "origin": "http://www.nytimes.com/2015/09/27/world/middleeast/thousands-enter-syria-to-join-isis-despite-global-efforts.html",
        "text": "Amid the spate of new laws"
      },
      {
        "originalSentence": "'He was really thin, had no power, but he learned fast, worked on the weights all the time, got a little stronger every year, always took care of himself'\nAnd then there was that awful Bronx night last October, when the ankle collapsed and Jeter went down and stayed down and Michael, in the ballpark, knew it was no mere bruise because, as he said, 'Derek always would get right up'\nNow Jeter is up, on the move, slowly but surely, trying to get back to the position of his dreams, one even he didn't",
        "emotions": {
          "joy": 0.020413000136613846,
          "sadness": 0.8288530111312866,
          "disgust": 0.47220200300216675,
          "anger": 0.18029500544071198,
          "fear": 0.3409239947795868
        },
        "mainColor": {
          "r": 54,
          "b": 95,
          "g": 73
        },
        "origin": "http://www.nytimes.com/2013/02/19/sports/baseball/yankees-derek-jeter-is-back-on-field-and-keeping-the-faith.html",
        "text": "knew it was no mere bruise because"
      }
    ]
  ]
}