{
  "credits": "a sonett by Thaeem Nkeidt",
  "author": "Thaeem Nkeidt",
  "plain": "'The situation isn't necessarily getting worse - we lost our honor - For more than 24 hours last September - Even adults didn't have a vision like hers' - Natalya Volonyuk voted at a school - 'I enjoy very much my work as vice president - \" Benedict said in the document - pointing at 'drawbacks' in his rule - ' said Ms Akter - It now has nine posts - ineffective leader during his decade in power - believed to be Syrian military outposts - the diplomatic tensions boiled over - one of Britain's most popular television hosts - ",
  "title": "It now has nine posts ",
  "type": "sonett",
  "strophen": [
    [
      {
        "originalSentence": "'The situation isn't necessarily getting worse, but the guns attract attention because they are in the hands of migrants,' he said",
        "emotions": {
          "joy": 0.010940000414848328,
          "sadness": 0.3793889880180359,
          "disgust": 0.6472960114479065,
          "anger": 0.45372098684310913,
          "fear": 0.3913689851760864
        },
        "mainColor": {
          "r": 35,
          "b": 10,
          "g": 28
        },
        "origin": "http://www.nytimes.com/2012/11/06/world/europe/russia-bans-less-lethal-guns-common-among-immigrants.html",
        "text": "'The situation isn't necessarily getting worse"
      },
      {
        "originalSentence": "'We thought, We lost my husband, we lost our honor,'",
        "emotions": {
          "joy": 0.036295000463724136,
          "sadness": 0.40073901414871216,
          "disgust": 0.12464100122451782,
          "anger": 0.4267039895057678,
          "fear": 0.3595010042190552
        },
        "mainColor": {
          "r": 92,
          "b": 64,
          "g": 68
        },
        "origin": "http://www.nytimes.com/2012/10/28/world/asia/a-village-rape-shatters-a-family-and-indias-traditional-silence.html",
        "text": "we lost our honor"
      },
      {
        "originalSentence": "For more than 24 hours last September, a Coast Guard helicopter and speedboat pursued drug traffickers and their contraband across the Caribbean Sea",
        "emotions": {
          "joy": 0.049626000225543976,
          "sadness": 0.31284600496292114,
          "disgust": 0.6121789813041687,
          "anger": 0.16504999995231628,
          "fear": 0.31358399987220764
        },
        "mainColor": {
          "r": 165,
          "b": 159,
          "g": 167
        },
        "origin": "http://www.nytimes.com/2012/09/10/world/americas/drug-smugglers-pose-underwater-challenge-in-caribbean.html",
        "text": "For more than 24 hours last September"
      },
      {
        "originalSentence": "Even adults didn't have a vision like hers'",
        "emotions": {
          "joy": 0.094821996986866,
          "sadness": 0.3374519944190979,
          "disgust": 0.5770390033721924,
          "anger": 0.1601330041885376,
          "fear": 0.16842399537563324
        },
        "mainColor": {
          "r": 98,
          "b": 50,
          "g": 82
        },
        "origin": "http://www.nytimes.com/2012/10/10/world/asia/teen-school-activist-malala-yousafzai-survives-hit-by-pakistani-taliban.html",
        "text": "Even adults didn't have a vision like hers'"
      }
    ],
    [
      {
        "originalSentence": "About 16 miles outside Kiev, in the small city of Brovary, Natalya Volonyuk voted at a school, accompanied by her husband, Yevgeny, the director of a small Internet company, and her sons, Denis, 4, and Svyatoslav, 2\n'I don't like Yanukovich or Yulia,'",
        "emotions": {
          "joy": 0.04062899947166443,
          "sadness": 0.39659398794174194,
          "disgust": 0.7098000049591064,
          "anger": 0.33901000022888184,
          "fear": 0.09735099971294403
        },
        "mainColor": {
          "r": 37,
          "b": 44,
          "g": 38
        },
        "origin": "http://www.nytimes.com/2012/10/30/world/europe/international-observers-denounce-ukrainian-election.html",
        "text": "Natalya Volonyuk voted at a school"
      },
      {
        "originalSentence": "'I enjoy very much my work as vice president,'",
        "emotions": {
          "joy": 0.6328970193862915,
          "sadness": 0.16628600656986237,
          "disgust": 0.10624600201845169,
          "anger": 0.22237099707126617,
          "fear": 0.034432001411914825
        },
        "mainColor": {
          "r": 227,
          "b": 202,
          "g": 218
        },
        "origin": "http://www.nytimes.com/2012/10/11/world/europe/european-commission-official-fights-for-women-in-the-boardroom.html",
        "text": "'I enjoy very much my work as vice president"
      },
      {
        "originalSentence": "'A Middle East without Christians, or with only a few Christians, would no longer be the Middle East,\" Benedict said in the document, 'The Church in the Middle East,' which is the product of a meeting of bishops at the Vatican in 2010",
        "emotions": {
          "joy": 0.07545699924230576,
          "sadness": 0.3364349901676178,
          "disgust": 0.58331298828125,
          "anger": 0.22721600532531738,
          "fear": 0.3265810012817383
        },
        "mainColor": {
          "r": 216,
          "b": 204,
          "g": 211
        },
        "origin": "http://www.nytimes.com/2012/09/15/world/middleeast/pope-benedict-arrives-in-lebanon-as-turmoil-grips-region.html",
        "text": "\" Benedict said in the document"
      },
      {
        "originalSentence": "Back in the days of the Soviet Union, journalists could tell a political figure had fallen out of favor by deciphering a sort of bureaucratic code: an article in Pravda would appear, pointing at 'drawbacks' in his rule, or his spot on the Red Square receiving line would drift toward the back",
        "emotions": {
          "joy": 0.024986999109387398,
          "sadness": 0.30171799659729004,
          "disgust": 0.6137840151786804,
          "anger": 0.282056987285614,
          "fear": 0.4173249900341034
        },
        "mainColor": {
          "r": 124,
          "b": 184,
          "g": 128
        },
        "origin": "http://www.nytimes.com/2012/09/21/world/europe/medvedevs-handiwork-is-erased-in-putins-russia.html",
        "text": "pointing at 'drawbacks' in his rule"
      }
    ],
    [
      {
        "originalSentence": "'He was vocal, and he was fearless,' said Ms Akter, head of the Bangladesh Center for Workers Solidarity, a nonprofit labor group",
        "emotions": {
          "joy": 0.1357010006904602,
          "sadness": 0.19186200201511383,
          "disgust": 0.4710800051689148,
          "anger": 0.11536800116300583,
          "fear": 0.4606359899044037
        },
        "mainColor": {
          "r": 81,
          "b": 53,
          "g": 90
        },
        "origin": "http://www.nytimes.com/2012/09/10/world/asia/killing-of-bangladesh-labor-leader-spotlights-grievances-of-workers.html",
        "text": "' said Ms Akter"
      },
      {
        "originalSentence": "It now has nine posts and is expected to be cut to seven",
        "emotions": {
          "joy": 0.36333999037742615,
          "sadness": 0.2634179890155792,
          "disgust": 0.21443399786949158,
          "anger": 0.20685599744319916,
          "fear": 0.2630409896373749
        },
        "mainColor": {
          "r": 148,
          "b": 154,
          "g": 149
        },
        "origin": "http://www.nytimes.com/2012/11/08/world/asia/China-party-congress.html",
        "text": "It now has nine posts"
      },
      {
        "originalSentence": "Mr Hu, who has been criticized as having been an overly cautious and ineffective leader during his decade in power, was also seen as defensive and gloomy",
        "emotions": {
          "joy": 0.01541099976748228,
          "sadness": 0.167261004447937,
          "disgust": 0.6396780014038086,
          "anger": 0.3438290059566498,
          "fear": 0.4476189911365509
        },
        "mainColor": {
          "r": 215,
          "b": 163,
          "g": 199
        },
        "origin": "http://www.nytimes.com/2012/09/14/world/asia/xi-jinpings-absence-puts-communist-party-off-script.html",
        "text": "ineffective leader during his decade in power"
      }
    ],
    [
      {
        "originalSentence": "The government said it used radar to select the target for its strikes, believed to be Syrian military outposts",
        "emotions": {
          "joy": 0.07921099662780762,
          "sadness": 0.1721770018339157,
          "disgust": 0.509568989276886,
          "anger": 0.16279999911785126,
          "fear": 0.5067139863967896
        },
        "mainColor": {
          "r": 86,
          "b": 74,
          "g": 76
        },
        "origin": "http://www.nytimes.com/2012/10/04/world/middleeast/syria.html",
        "text": "believed to be Syrian military outposts"
      },
      {
        "originalSentence": "On Saturday, the diplomatic tensions boiled over, with hundreds of demonstrators throwing rocks and eggs at the Japanese Embassy in Beijing, while smaller protests erupted in up to 40 other Chinese cities Unconfirmed reports said some of the protests turned violent, with protesters said to have burned down a Toyota dealership",
        "emotions": {
          "joy": 0.028382999822497368,
          "sadness": 0.1351809948682785,
          "disgust": 0.7336639761924744,
          "anger": 0.5937719941139221,
          "fear": 0.07827900350093842
        },
        "mainColor": {
          "r": 8,
          "b": 5,
          "g": 5
        },
        "origin": "http://www.nytimes.com/2012/09/16/world/asia/xi-jinping-returns-amid-tumult-in-china.html",
        "text": "the diplomatic tensions boiled over"
      },
      {
        "originalSentence": "The number of people who said they were sexually assaulted by Jimmy Savile, one of Britain's most popular television hosts, expanded to 300 from 200 in just the last week, and other people may have acted with him, the Scotland Yard officer heading the investigation said Thursday",
        "emotions": {
          "joy": 0.04383999854326248,
          "sadness": 0.42712199687957764,
          "disgust": 0.7214779853820801,
          "anger": 0.24755899608135223,
          "fear": 0.16044500470161438
        },
        "mainColor": {
          "r": 162,
          "b": 65,
          "g": 110
        },
        "origin": "http://www.nytimes.com/2012/10/26/world/europe/savile-inquiry-widens-to-others-at-bbc-reports-say.html",
        "text": "one of Britain's most popular television hosts"
      }
    ]
  ]
}