{
  "credits": "an ode by Lle Shopw",
  "author": "Lle Shopw",
  "plain": "Red has been considered the color of prosperity - Jacobs traveled to China in February - Earlier in the day - was announced by Mr Schwarzman in Beijing on Sunday - Jacobs traveled to China in February - Red has been considered the color of prosperity - the choir of Capital Normal University - Jacobs traveled to China in February - Earlier in the day - a silver medal on Sunday night from Zhang Guowei - Jacobs traveled to China in February - Red has been considered the color of prosperity - ",
  "title": "to China in February ",
  "type": "ode",
  "strophen": [
    [
      {
        "originalSentence": "Red has been considered the color of prosperity and good fortune in China for centuries, and it is also the color of the Communist Party",
        "emotions": {
          "joy": 0.7293969988822937,
          "sadness": 0.12865300476551056,
          "disgust": 0.22349700331687927,
          "anger": 0.14232799410820007,
          "fear": 0.07503800094127655
        },
        "mainColor": {
          "r": 29,
          "b": 32,
          "g": 29
        },
        "origin": "http://www.nytimes.com/2015/12/11/world/asia/china-smog-challenge.html",
        "text": "Red has been considered the color of prosperity"
      },
      {
        "originalSentence": "Jacobs traveled to China in February, and for two days he met with vendors, casino officials and production types",
        "emotions": {
          "joy": 0.7148590087890625,
          "sadness": 0.24231599271297455,
          "disgust": 0.23244599997997284,
          "anger": 0.0474729984998703,
          "fear": 0.12897999584674835
        },
        "mainColor": {
          "r": 8,
          "b": 18,
          "g": 8
        },
        "origin": "http://www.nytimes.com/2013/04/23/sports/in-this-corner-of-china-boxings-next-frontier.html",
        "text": "Jacobs traveled to China in February"
      },
      {
        "originalSentence": "Earlier in the day, China's",
        "emotions": {
          "joy": 0.75068598985672,
          "sadness": 0.13474400341510773,
          "disgust": 0.22577300667762756,
          "anger": 0.05161299929022789,
          "fear": 0.08552899956703186
        },
        "mainColor": {
          "r": 210,
          "b": 231,
          "g": 219
        },
        "origin": "http://www.nytimes.com/2013/06/28/world/snowden.html",
        "text": "Earlier in the day"
      },
      {
        "originalSentence": "The program, whose endowment represents one of the largest single gifts to education in the world and one of the largest philanthropic gifts ever in China, was announced by Mr Schwarzman in Beijing on Sunday",
        "emotions": {
          "joy": 0.7930020093917847,
          "sadness": 0.1639000028371811,
          "disgust": 0.18817999958992004,
          "anger": 0.06974399834871292,
          "fear": 0.1325169950723648
        },
        "mainColor": {
          "r": 15,
          "b": 4,
          "g": 5
        },
        "origin": "http://www.nytimes.com/2013/04/21/world/asia/us-financier-backs-china-scholarship-program.html",
        "text": "was announced by Mr Schwarzman in Beijing on Sunday"
      }
    ],
    [
      {
        "originalSentence": "Jacobs traveled to China in February, and for two days he met with vendors, casino officials and production types",
        "emotions": {
          "joy": 0.7148590087890625,
          "sadness": 0.24231599271297455,
          "disgust": 0.23244599997997284,
          "anger": 0.0474729984998703,
          "fear": 0.12897999584674835
        },
        "mainColor": {
          "r": 8,
          "b": 18,
          "g": 8
        },
        "origin": "http://www.nytimes.com/2013/04/23/sports/in-this-corner-of-china-boxings-next-frontier.html",
        "text": "Jacobs traveled to China in February"
      },
      {
        "originalSentence": "Red has been considered the color of prosperity and good fortune in China for centuries, and it is also the color of the Communist Party",
        "emotions": {
          "joy": 0.7293969988822937,
          "sadness": 0.12865300476551056,
          "disgust": 0.22349700331687927,
          "anger": 0.14232799410820007,
          "fear": 0.07503800094127655
        },
        "mainColor": {
          "r": 29,
          "b": 32,
          "g": 29
        },
        "origin": "http://www.nytimes.com/2015/12/11/world/asia/china-smog-challenge.html",
        "text": "Red has been considered the color of prosperity"
      },
      {
        "originalSentence": "Performed by the China National Symphony Orchestra and its choir, and the choir of Capital Normal University, at the National Center for the Performing Arts, soloists will include the baritone Sun Yu and the German soprano Brigitte Wohlfarth",
        "emotions": {
          "joy": 0.8022199869155884,
          "sadness": 0.12376999855041504,
          "disgust": 0.26229599118232727,
          "anger": 0.07419099658727646,
          "fear": 0.08531200140714645
        },
        "mainColor": {
          "r": 34,
          "b": 14,
          "g": 22
        },
        "origin": "http://www.nytimes.com/2015/12/12/world/asia/china-wang-xilin-symphony.html",
        "text": "the choir of Capital Normal University"
      },
      {
        "originalSentence": "Jacobs traveled to China in February, and for two days he met with vendors, casino officials and production types",
        "emotions": {
          "joy": 0.7148590087890625,
          "sadness": 0.24231599271297455,
          "disgust": 0.23244599997997284,
          "anger": 0.0474729984998703,
          "fear": 0.12897999584674835
        },
        "mainColor": {
          "r": 8,
          "b": 18,
          "g": 8
        },
        "origin": "http://www.nytimes.com/2013/04/23/sports/in-this-corner-of-china-boxings-next-frontier.html",
        "text": "Jacobs traveled to China in February"
      }
    ],
    [
      {
        "originalSentence": "Earlier in the day, China's",
        "emotions": {
          "joy": 0.75068598985672,
          "sadness": 0.13474400341510773,
          "disgust": 0.22577300667762756,
          "anger": 0.05161299929022789,
          "fear": 0.08552899956703186
        },
        "mainColor": {
          "r": 210,
          "b": 231,
          "g": 219
        },
        "origin": "http://www.nytimes.com/2013/06/28/world/snowden.html",
        "text": "Earlier in the day"
      },
      {
        "originalSentence": "China also recorded its highest finish in the men's high jump: a silver medal on Sunday night from Zhang Guowei, a showman who celebrated his clearances by making kung fu poses on the mat",
        "emotions": {
          "joy": 0.7477480173110962,
          "sadness": 0.11562599986791611,
          "disgust": 0.2069920003414154,
          "anger": 0.08890099823474884,
          "fear": 0.06100400164723396
        },
        "mainColor": {
          "r": 24,
          "b": 7,
          "g": 8
        },
        "origin": "http://www.nytimes.com/2015/08/31/sports/4x400-relay-gives-us-a-gold-but-doesnt-change-bottom-line.html",
        "text": "a silver medal on Sunday night from Zhang Guowei"
      },
      {
        "originalSentence": "Jacobs traveled to China in February, and for two days he met with vendors, casino officials and production types",
        "emotions": {
          "joy": 0.7148590087890625,
          "sadness": 0.24231599271297455,
          "disgust": 0.23244599997997284,
          "anger": 0.0474729984998703,
          "fear": 0.12897999584674835
        },
        "mainColor": {
          "r": 8,
          "b": 18,
          "g": 8
        },
        "origin": "http://www.nytimes.com/2013/04/23/sports/in-this-corner-of-china-boxings-next-frontier.html",
        "text": "Jacobs traveled to China in February"
      },
      {
        "originalSentence": "Red has been considered the color of prosperity and good fortune in China for centuries, and it is also the color of the Communist Party",
        "emotions": {
          "joy": 0.7293969988822937,
          "sadness": 0.12865300476551056,
          "disgust": 0.22349700331687927,
          "anger": 0.14232799410820007,
          "fear": 0.07503800094127655
        },
        "mainColor": {
          "r": 29,
          "b": 32,
          "g": 29
        },
        "origin": "http://www.nytimes.com/2015/12/11/world/asia/china-smog-challenge.html",
        "text": "Red has been considered the color of prosperity"
      }
    ]
  ]
}