{
  "credits": "a sonett by Ick Bergzoperl",
  "author": "Ick Bergzoperl",
  "plain": "Mr Obama accepted his invitation to visit Russia - 'Why do I have to think about the Taliban - the FBI has joined the investigation - ' said Gerson Janu'rio de Almeida - Following a blunt phone call from President Obama - the others until law enforcement officials - 'Obama is right to evoke America's better angels - 'Everyone knows that Putin runs Russia - According to an Obama administration official - 'Why do I have to think about the Taliban - despite the underlying tensions between the proposal - secret exchanges between American - received the Congressional Gold Medal - in a very difficult situation - ",
  "title": "Following a blunt phone call from ",
  "type": "sonett",
  "strophen": [
    [
      {
        "originalSentence": "'And waiting for the boss to opine'\nMr Putin has asked for a personal meeting with Mr Obama, and in a telephone conversation on Tuesday, Mr Obama accepted his invitation to visit Russia, the Kremlin announced",
        "emotions": {
          "joy": 0.18772099912166595,
          "sadness": 0.20835299789905548,
          "disgust": 0.6401519775390625,
          "anger": 0.2888520061969757,
          "fear": 0.1592019945383072
        },
        "mainColor": {
          "r": 97,
          "b": 36,
          "g": 61
        },
        "origin": "http://www.nytimes.com/2012/11/14/world/europe/moscow-reopens-a-communication-channel-with-washington.html",
        "text": "Mr Obama accepted his invitation to visit Russia"
      },
      {
        "originalSentence": "'Why do I have to think about the Taliban or Obama when I watch a game'",
        "emotions": {
          "joy": 0.0030610000248998404,
          "sadness": 0.4709570109844208,
          "disgust": 0.6056789755821228,
          "anger": 0.570792019367218,
          "fear": 0.28703200817108154
        },
        "mainColor": {
          "r": 5,
          "b": 13,
          "g": 5
        },
        "origin": "http://www.nytimes.com/2012/11/01/world/asia/kabul-boxing-match-draws-cheering-throngs.html",
        "text": "'Why do I have to think about the Taliban"
      },
      {
        "originalSentence": "The Obama administration, which has vowed to bring the killers to justice, has sent 50 Marines and two warships to Libya, and the FBI has joined the investigation",
        "emotions": {
          "joy": 0.1682800054550171,
          "sadness": 0.14335499703884125,
          "disgust": 0.44555899500846863,
          "anger": 0.3989579975605011,
          "fear": 0.11714799702167511
        },
        "mainColor": {
          "r": 14,
          "b": 22,
          "g": 14
        },
        "origin": "http://www.nytimes.com/2012/09/14/world/africa/libya-attacks-came-in-two-waves-official-says.html",
        "text": "the FBI has joined the investigation"
      },
      {
        "originalSentence": "'I think Barack Obama is more than a politician; he is an icon,' said Gerson Janu'rio de Almeida, 44, an administrative assistant in the public health system who is running for city council with the name 'Obama BH' in Belo Horizonte, one of Brazil's largest cities",
        "emotions": {
          "joy": 0.04691300168633461,
          "sadness": 0.17379100620746613,
          "disgust": 0.7847049832344055,
          "anger": 0.2242860049009323,
          "fear": 0.2638370096683502
        },
        "mainColor": {
          "r": 16,
          "b": 13,
          "g": 13
        },
        "origin": "http://www.nytimes.com/2012/09/17/world/americas/in-brazil-eccentricity-at-the-ballot-box-is-the-norm.html",
        "text": "' said Gerson Janu'rio de Almeida"
      }
    ],
    [
      {
        "originalSentence": "Following a blunt phone call from President Obama, Egyptian leaders scrambled Thursday to try to repair the country's alliance with Washington, tacitly acknowledging that they erred in their response to the attack on the United States Embassy by seeking to first appease anti-American domestic opinion without offering a robust condemnation of the violence",
        "emotions": {
          "joy": 0.015900999307632446,
          "sadness": 0.1837500035762787,
          "disgust": 0.7618489861488342,
          "anger": 0.4541630148887634,
          "fear": 0.3408359885215759
        },
        "mainColor": {
          "r": 21,
          "b": 33,
          "g": 26
        },
        "origin": "http://www.nytimes.com/2012/09/14/world/middleeast/egypt-hearing-from-obama-moves-to-heal-rift-from-protests.html",
        "text": "Following a blunt phone call from President Obama"
      },
      {
        "originalSentence": "The Obama administration has been careful about publicly assigning blame in the death of Mr Stevens and the others until law enforcement officials, including the FBI, know more",
        "emotions": {
          "joy": 0.014897000044584274,
          "sadness": 0.5278609991073608,
          "disgust": 0.6155930161476135,
          "anger": 0.24144400656223297,
          "fear": 0.15918900072574615
        },
        "mainColor": {
          "r": 21,
          "b": 4,
          "g": 4
        },
        "origin": "http://www.nytimes.com/2012/09/22/world/africa/pro-american-libyans-besiege-militant-group-in-benghazi.html",
        "text": "the others until law enforcement officials"
      },
      {
        "originalSentence": "'Obama is right to evoke America's better angels, but that's more effective when you give the complete story'\nWhite House officials were sympathetic, but they said the focus of Mr Obama's",
        "emotions": {
          "joy": 0.15599800646305084,
          "sadness": 0.2580130100250244,
          "disgust": 0.25560998916625977,
          "anger": 0.2557089924812317,
          "fear": 0.22060100734233856
        },
        "mainColor": {
          "r": 70,
          "b": 153,
          "g": 103
        },
        "origin": "http://www.nytimes.com/2012/11/21/world/asia/obama-in-cambodia-sidesteps-the-ghosts-of-history.html",
        "text": "'Obama is right to evoke America's better angels"
      },
      {
        "originalSentence": "On the day the two men announced they would switch places, a top Obama administration official shrugged off a query about whether this would herald a change of course in foreign policy: 'Everyone knows that Putin runs Russia,' the official said",
        "emotions": {
          "joy": 0.0379440002143383,
          "sadness": 0.1284099966287613,
          "disgust": 0.7421050071716309,
          "anger": 0.17387300729751587,
          "fear": 0.41189301013946533
        },
        "mainColor": {
          "r": 124,
          "b": 184,
          "g": 128
        },
        "origin": "http://www.nytimes.com/2012/09/21/world/europe/medvedevs-handiwork-is-erased-in-putins-russia.html",
        "text": "'Everyone knows that Putin runs Russia"
      }
    ],
    [
      {
        "originalSentence": "According to an Obama administration official, an understanding on direct talks was reached with senior Iranian officials who report to Ayatollah Khamenei",
        "emotions": {
          "joy": 0.09088300168514252,
          "sadness": 0.3687970042228699,
          "disgust": 0.29758501052856445,
          "anger": 0.4428440034389496,
          "fear": 0.11645899713039398
        },
        "mainColor": {
          "r": 38,
          "b": 17,
          "g": 25
        },
        "origin": "http://www.nytimes.com/2012/10/22/world/middleeast/iran-and-us-deny-theyll-hold-nuclear-talks.html",
        "text": "According to an Obama administration official"
      },
      {
        "originalSentence": "'Why do I have to think about the Taliban or Obama when I watch a game'",
        "emotions": {
          "joy": 0.0030610000248998404,
          "sadness": 0.4709570109844208,
          "disgust": 0.6056789755821228,
          "anger": 0.570792019367218,
          "fear": 0.28703200817108154
        },
        "mainColor": {
          "r": 5,
          "b": 13,
          "g": 5
        },
        "origin": "http://www.nytimes.com/2012/11/01/world/asia/kabul-boxing-match-draws-cheering-throngs.html",
        "text": "'Why do I have to think about the Taliban"
      },
      {
        "originalSentence": "The announcement of the proposed trade pact ended the talks on an upbeat note, despite the underlying tensions between the proposal and the Trans-Pacific Partnership, which was announced last year as part of the Obama administration's",
        "emotions": {
          "joy": 0.06808999925851822,
          "sadness": 0.32589900493621826,
          "disgust": 0.47725799679756165,
          "anger": 0.3331100046634674,
          "fear": 0.19965800642967224
        },
        "mainColor": {
          "r": 7,
          "b": 22,
          "g": 13
        },
        "origin": "http://www.nytimes.com/2012/11/21/world/asia/southeast-asian-nations-announce-trade-bloc-to-rival-us-effort.html",
        "text": "despite the underlying tensions between the proposal"
      }
    ],
    [
      {
        "originalSentence": "News of the agreement ' a result of intense, secret exchanges between American and Iranian officials that date almost to the beginning of President Obama's term '",
        "emotions": {
          "joy": 0.03248700127005577,
          "sadness": 0.23746800422668457,
          "disgust": 0.4366059899330139,
          "anger": 0.23666299879550934,
          "fear": 0.38985100388526917
        },
        "mainColor": {
          "r": 9,
          "b": 18,
          "g": 9
        },
        "origin": "http://www.nytimes.com/2012/10/21/world/iran-said-ready-to-talk-to-us-about-nuclear-program.html",
        "text": "secret exchanges between American"
      },
      {
        "originalSentence": "She has met with President Obama, received the Congressional Gold Medal and enjoyed rapturous welcomes from expatriate communities",
        "emotions": {
          "joy": 0.8101130127906799,
          "sadness": 0.10693299770355225,
          "disgust": 0.233147993683815,
          "anger": 0.08742500096559525,
          "fear": 0.029752999544143677
        },
        "mainColor": {
          "r": 105,
          "b": 2,
          "g": 21
        },
        "origin": "http://www.nytimes.com/2012/09/27/world/asia/daw-aung-san-suu-kyi-of-myanmar-not-bitter-about-past.html",
        "text": "received the Congressional Gold Medal"
      },
      {
        "originalSentence": "'Obama did his best, in a very difficult situation, to get the United States on the right side of history,' said Martin S Indyk, a former ambassador to Israel in the Clinton administration",
        "emotions": {
          "joy": 0.09589099884033203,
          "sadness": 0.22088299691677094,
          "disgust": 0.48446500301361084,
          "anger": 0.30571499466896057,
          "fear": 0.2286120057106018
        },
        "mainColor": {
          "r": 97,
          "b": 36,
          "g": 43
        },
        "origin": "http://www.nytimes.com/2012/09/16/world/middleeast/us-is-preparing-for-a-long-siege-of-arab-unrest.html",
        "text": "in a very difficult situation"
      }
    ]
  ]
}