{
  "credits": "a sonett by Tpeterad Igpilnerno",
  "author": "Tpeterad Igpilnerno",
  "plain": "'I was a 21-year-old - then takes her form - hard reality is that warm - muffled against the cold - almost imperceptibly merging the themes of the Rhapsody - thousands of potentially firefighter-impeding spectators - a senior Obama administration official told reporters - a former commander of the Kosovo Liberation Army - essentially morphing into a bumpy - pay for the old name - a pioneer in refrigeration technology - On the field after the game - 'When I discussed it with his family - Robert Steiner is not a household name - ",
  "title": "after the field after the field ",
  "type": "sonett",
  "strophen": [
    [
      {
        "originalSentence": "'I was a 21-year-old, red-blooded, blond lad with an accent and these girls would just melt in your arms,' he said",
        "emotions": {
          "joy": 0.1520410031080246,
          "sadness": 0.23101399838924408,
          "disgust": 0.8613749742507935,
          "anger": 0.049908000975847244,
          "fear": 0.11225199699401855
        },
        "mainColor": {
          "r": 14,
          "b": 3,
          "g": 3
        },
        "origin": "http://www.nytimes.com/2013/12/12/sports/soccer/ray-hudson-mixes-soccer-calls-with-awe.html",
        "text": "'I was a 21-year-old"
      },
      {
        "originalSentence": "In another, a tanuki kills an old woman and makes soup out of her, then takes her form and feeds the soup to her husband",
        "emotions": {
          "joy": 0.030182000249624252,
          "sadness": 0.6270869970321655,
          "disgust": 0.8206750154495239,
          "anger": 0.15220899879932404,
          "fear": 0.08912300318479538
        },
        "mainColor": {
          "r": 85,
          "b": 66,
          "g": 51
        },
        "origin": "http://www.nytimes.com/2015/05/24/arts/design/reviving-japans-dreaded-and-beloved-ghosts.html",
        "text": "then takes her form"
      },
      {
        "originalSentence": "But in the playoffs, the cold, hard reality is that warm and wonderful stories of plucky underdogs and spunky overachievers invariably end when they collide head-on with showstopping talent",
        "emotions": {
          "joy": 0.18090899288654327,
          "sadness": 0.4296190142631531,
          "disgust": 0.2503510117530823,
          "anger": 0.06543999910354614,
          "fear": 0.25282299518585205
        },
        "mainColor": {
          "r": 218,
          "b": 158,
          "g": 168
        },
        "origin": "http://www.nytimes.com/2015/04/27/sports/basketball/cleveland-cavaliers-sweep-boston-celtics-kevin-love.html",
        "text": "hard reality is that warm"
      },
      {
        "originalSentence": "Ibrahimovic was in the stands, muffled against the cold and the wet",
        "emotions": {
          "joy": 0.175136998295784,
          "sadness": 0.325080007314682,
          "disgust": 0.4891299903392792,
          "anger": 0.31065499782562256,
          "fear": 0.18863500654697418
        },
        "mainColor": {
          "r": 149,
          "b": 61,
          "g": 155
        },
        "origin": "http://www.nytimes.com/2013/03/08/sports/soccer/08iht-soccer08.html",
        "text": "muffled against the cold"
      }
    ],
    [
      {
        "originalSentence": "Mr Trifonov began to improvise, almost imperceptibly merging the themes of the Rhapsody and the Second Concerto, the other work on his first, sold-out program",
        "emotions": {
          "joy": 0.15338000655174255,
          "sadness": 0.4178130030632019,
          "disgust": 0.35923999547958374,
          "anger": 0.15407699346542358,
          "fear": 0.19176100194454193
        },
        "mainColor": {
          "r": 19,
          "b": 6,
          "g": 11
        },
        "origin": "http://www.nytimes.com/2015/11/14/arts/music/daniil-trifonov-new-to-rachmaninoff-but-a-bold-and-youthful-echo.html",
        "text": "almost imperceptibly merging the themes of the Rhapsody"
      },
      {
        "originalSentence": "It involves an old prep-school rivalry, a faultily wired science building full of stuffed birds, thousands of potentially firefighter-impeding spectators, a bunch of officials faced with a difficult decision and a school parent who had no idea that he was snapping what would become one of the most striking photographs in the history of high school sports",
        "emotions": {
          "joy": 0.013522000052034855,
          "sadness": 0.3151080012321472,
          "disgust": 0.6048089861869812,
          "anger": 0.5617899894714355,
          "fear": 0.35690799355506897
        },
        "mainColor": {
          "r": 226,
          "b": 226,
          "g": 226
        },
        "origin": "http://www.nytimes.com/2015/05/06/sports/football/fire-didnt-stop-a-game-and-50-years-later-the-proof-still-fascinates.html",
        "text": "thousands of potentially firefighter-impeding spectators"
      },
      {
        "originalSentence": "a senior Obama administration official told reporters",
        "emotions": {
          "joy": 0.08873400092124939,
          "sadness": 0.3693870007991791,
          "disgust": 0.48050999641418457,
          "anger": 0.2631340026855469,
          "fear": 0.17282100021839142
        },
        "mainColor": {
          "r": 91,
          "b": 239,
          "g": 185
        },
        "origin": "http://www.nytimes.com/2015/02/14/world/europe/ukraine-fighting-escalates-ahead-of-truce.html",
        "text": "a senior Obama administration official told reporters"
      },
      {
        "originalSentence": "Analysts said the deal had been made possible, in part, because of the nationalist credentials of the respective leaders in the talks, including Prime Minister Hashim Thaci of Kosovo, a former commander of the Kosovo Liberation Army, who told reporters that the agreement would 'help heal wounds of the past'",
        "emotions": {
          "joy": 0.04063199833035469,
          "sadness": 0.07759100198745728,
          "disgust": 0.660955011844635,
          "anger": 0.3913170099258423,
          "fear": 0.36361899971961975
        },
        "mainColor": {
          "r": 214,
          "b": 183,
          "g": 203
        },
        "origin": "http://www.nytimes.com/2013/04/20/world/europe/serbia-and-kosovo-reach-milestone-deal.html",
        "text": "a former commander of the Kosovo Liberation Army"
      }
    ],
    [
      {
        "originalSentence": "The Old Course, though, has always stayed shuttered, essentially morphing into a bumpy, sand-dotted parkland that attracts an inordinate number of joggers, dogs and, sometimes, joggers with dogs",
        "emotions": {
          "joy": 0.3420279920101166,
          "sadness": 0.37139999866485596,
          "disgust": 0.28910499811172485,
          "anger": 0.12456800043582916,
          "fear": 0.20447400212287903
        },
        "mainColor": {
          "r": 97,
          "b": 18,
          "g": 94
        },
        "origin": "http://www.nytimes.com/2015/06/14/sports/sundays-on-the-old-course-at-st-andrews-no-golfers-allowed.html",
        "text": "essentially morphing into a bumpy"
      },
      {
        "originalSentence": "If those departures early in his tenure seemed difficult, in hindsight they represent what Aresco called 'the halcyon days' That was a time before Boise State and San Diego State left having never actually arrived, before seven Catholic universities decided to split and form a basketball conference and pay for the old name, before Aresco signed a television deal with ESPN for the Conference Formerly Known as the Big East",
        "emotions": {
          "joy": 0.07652100175619125,
          "sadness": 0.41373199224472046,
          "disgust": 0.5660709738731384,
          "anger": 0.21366199851036072,
          "fear": 0.23950299620628357
        },
        "mainColor": {
          "r": 202,
          "b": 135,
          "g": 180
        },
        "origin": "http://www.nytimes.com/2013/03/14/sports/ncaabasketball/big-east-commissioner-mike-aresco-looks-to-better-days-ahead.html",
        "text": "pay for the old name"
      },
      {
        "originalSentence": "She had inherited a fortune from her grandfather Harold Lange, a pioneer in refrigeration technology",
        "emotions": {
          "joy": 0.11020299792289734,
          "sadness": 0.35505399107933044,
          "disgust": 0.5553719997406006,
          "anger": 0.1709980070590973,
          "fear": 0.13683199882507324
        },
        "mainColor": {
          "r": 92,
          "b": 61,
          "g": 75
        },
        "origin": "http://www.nytimes.com/2013/02/11/sports/judge-for-westminster-dog-show-dismisses-doubts-about-fairness.html",
        "text": "a pioneer in refrigeration technology"
      }
    ],
    [
      {
        "originalSentence": "On the field after the game, Bochy congratulated Heston and told him to bring his high school coach, who attended the game, into the clubhouse celebration",
        "emotions": {
          "joy": 0.11394499987363815,
          "sadness": 0.27614301443099976,
          "disgust": 0.5108259916305542,
          "anger": 0.3228450119495392,
          "fear": 0.08933199942111969
        },
        "mainColor": {
          "r": 91,
          "b": 39,
          "g": 63
        },
        "origin": "http://www.nytimes.com/2015/06/11/sports/baseball/no-hitter-is-as-familiar-to-the-giants-as-a-ring.html",
        "text": "On the field after the game"
      },
      {
        "originalSentence": "'When I discussed it with his family, this mystic element was clear'\nMr Seck himself told the investigators that the mountain of cash in his living room was merely an advance for the '105 concerts'",
        "emotions": {
          "joy": 0.1901780068874359,
          "sadness": 0.18355600535869598,
          "disgust": 0.34138599038124084,
          "anger": 0.21844899654388428,
          "fear": 0.19514800608158112
        },
        "mainColor": {
          "r": 16,
          "b": 11,
          "g": 15
        },
        "origin": "http://www.nytimes.com/2015/06/19/world/africa/thione-ballago-secks-arrest-at-odds-with-religious-image-in-senegal.html",
        "text": "'When I discussed it with his family"
      },
      {
        "originalSentence": "Robert Steiner is not a household name, but on Friday, with the issue of the new federal duck stamp, he begins a yearlong run as one of the most visible artists in the United States",
        "emotions": {
          "joy": 0.2549760043621063,
          "sadness": 0.38804998993873596,
          "disgust": 0.3323970139026642,
          "anger": 0.16861100494861603,
          "fear": 0.16805200278759003
        },
        "mainColor": {
          "r": 117,
          "b": 155,
          "g": 135
        },
        "origin": "http://www.nytimes.com/2013/06/26/arts/design/the-federal-duck-stamp-contest-rewards-artists.html",
        "text": "Robert Steiner is not a household name"
      }
    ]
  ]
}