{
  "credits": "an ode by Slynr Our",
  "author": "Slynr Our",
  "plain": "elsewhere around the country last year - This city has two dance companies famous beyond here - followers made a fiesta of every city - presents the oldest pieces in the company's repertory - has already established an international reputation - The brainchild of the art historian - as the Ravens beat the San Francisco 49ers - are well established as alternative art centers - The new double bill at New York City Ballet - who turns 29 on Sunday - Over just the last year - This city has two dance companies famous beyond here - Seattle is a beautiful city - the specificity of some of its Ashton repertory - Seattle is a beautiful city - the specificity of some of its Ashton repertory - came over the weekend to New York City Center - On Friday night at the David H Koch Theater - ",
  "title": "the San Francisco 49ers who turns ",
  "type": "ode",
  "strophen": [
    [
      {
        "originalSentence": "After City of Dreams, the adventurous and arduous three-week festival that the Vienna Philharmonic presented at Carnegie Hall and elsewhere around the country last year, the orchestra may be forgiven for having reverted to a tidy package of core repertory for its annual weekend in New York",
        "emotions": {
          "joy": 0.7287989854812622,
          "sadness": 0.17839600145816803,
          "disgust": 0.1064239963889122,
          "anger": 0.08896200358867645,
          "fear": 0.06569000333547592
        },
        "mainColor": {
          "r": 13,
          "b": 8,
          "g": 8
        },
        "origin": "http://www.nytimes.com/2015/03/03/arts/music/review-vienna-philharmonics-familiar-and-fierce-show-of-brahms.html",
        "text": "elsewhere around the country last year"
      },
      {
        "originalSentence": "This city has two dance companies famous beyond here: the Joffrey Ballet and Hubbard Street Dance Chicago",
        "emotions": {
          "joy": 0.7664080262184143,
          "sadness": 0.311955988407135,
          "disgust": 0.11518999934196472,
          "anger": 0.06835100054740906,
          "fear": 0.051910001784563065
        },
        "mainColor": {
          "r": 2,
          "b": 2,
          "g": 2
        },
        "origin": "http://www.nytimes.com/2015/10/17/arts/dance/review-hubbard-streets-feast-of-forsythe.html",
        "text": "This city has two dance companies famous beyond here"
      },
      {
        "originalSentence": "followers made a fiesta of every city and stadium they visited",
        "emotions": {
          "joy": 0.7148209810256958,
          "sadness": 0.1767590045928955,
          "disgust": 0.17005999386310577,
          "anger": 0.16488300263881683,
          "fear": 0.08199100196361542
        },
        "mainColor": {
          "r": 132,
          "b": 44,
          "g": 152
        },
        "origin": "http://www.nytimes.com/2015/11/04/sports/rugby/what-japan-can-learn-rugby-world-cup-2019.html",
        "text": "followers made a fiesta of every city"
      },
      {
        "originalSentence": "The new double bill at New York City Ballet, choreography by the great Danish ballet master August Bournonville (1805-79), presents the oldest pieces in the company's repertory",
        "emotions": {
          "joy": 0.7107399702072144,
          "sadness": 0.13223899900913239,
          "disgust": 0.10436300188302994,
          "anger": 0.07019399851560593,
          "fear": 0.15563000738620758
        },
        "mainColor": {
          "r": 4,
          "b": 0,
          "g": 6
        },
        "origin": "http://www.nytimes.com/2015/05/09/arts/dance/review-new-york-city-ballet-performs-bournonville-classics-at-spring-gala.html",
        "text": "presents the oldest pieces in the company's repertory"
      },
      {
        "originalSentence": "Mr Peck, 28, is City Ballet's resident choreographer and has already established an international reputation, while Mr Schumacher, who turns 29 on Sunday, has created well-received works for City Ballet and his own company",
        "emotions": {
          "joy": 0.7384859919548035,
          "sadness": 0.3223080039024353,
          "disgust": 0.30525800585746765,
          "anger": 0.0446930006146431,
          "fear": 0.043046001344919205
        },
        "mainColor": {
          "r": 195,
          "b": 209,
          "g": 201
        },
        "origin": "http://www.nytimes.com/2015/09/27/arts/dance/new-york-city-ballet-gambles-on-unknown-choreographers.html",
        "text": "has already established an international reputation"
      },
      {
        "originalSentence": "The brainchild of the art historian and curator Susan Mullin Vogel, it opened in 1984 as the Museum for African Art in two Upper East Side townhouses, then later relocated to SoHo and Long Island City, Queens",
        "emotions": {
          "joy": 0.7720630168914795,
          "sadness": 0.4766649901866913,
          "disgust": 0.11746499687433243,
          "anger": 0.08086299896240234,
          "fear": 0.10312999784946442
        },
        "mainColor": {
          "r": 245,
          "b": 165,
          "g": 169
        },
        "origin": "http://www.nytimes.com/2015/03/19/arts/design/africa-center-post-gives-michelle-d-gavin-a-chance-to-show-diplomatic-skills.html",
        "text": "The brainchild of the art historian"
      }
    ],
    [
      {
        "originalSentence": "On Sunday, though, as the Ravens beat the San Francisco 49ers, 34-31, in the Super Bowl, Jones starred in his home city and shimmied with a rhythm that surely made Lewis proud",
        "emotions": {
          "joy": 0.8146809935569763,
          "sadness": 0.3342739939689636,
          "disgust": 0.33133000135421753,
          "anger": 0.03012399934232235,
          "fear": 0.029366999864578247
        },
        "mainColor": {
          "r": 152,
          "b": 68,
          "g": 76
        },
        "origin": "http://www.nytimes.com/2013/02/04/sports/football/super-bowl-for-jacoby-jones-trip-home-and-2-trips-into-end-zone.html",
        "text": "as the Ravens beat the San Francisco 49ers"
      },
      {
        "originalSentence": "Bushwick and Williamsburg in Brooklyn, and Long Island City in Queens, are well established as alternative art centers",
        "emotions": {
          "joy": 0.7031800150871277,
          "sadness": 0.39600300788879395,
          "disgust": 0.1464190036058426,
          "anger": 0.10532300174236298,
          "fear": 0.06690499931573868
        },
        "mainColor": {
          "r": 238,
          "b": 183,
          "g": 223
        },
        "origin": "http://www.nytimes.com/2015/05/08/arts/design/how-to-buy-art-a-beginners-cheat-sheet.html",
        "text": "are well established as alternative art centers"
      },
      {
        "originalSentence": "The new double bill at New York City Ballet, choreography by the great Danish ballet master August Bournonville (1805-79), presents the oldest pieces in the company's repertory",
        "emotions": {
          "joy": 0.7107399702072144,
          "sadness": 0.13223899900913239,
          "disgust": 0.10436300188302994,
          "anger": 0.07019399851560593,
          "fear": 0.15563000738620758
        },
        "mainColor": {
          "r": 4,
          "b": 0,
          "g": 6
        },
        "origin": "http://www.nytimes.com/2015/05/09/arts/dance/review-new-york-city-ballet-performs-bournonville-classics-at-spring-gala.html",
        "text": "The new double bill at New York City Ballet"
      },
      {
        "originalSentence": "Mr Peck, 28, is City Ballet's resident choreographer and has already established an international reputation, while Mr Schumacher, who turns 29 on Sunday, has created well-received works for City Ballet and his own company",
        "emotions": {
          "joy": 0.7384859919548035,
          "sadness": 0.3223080039024353,
          "disgust": 0.30525800585746765,
          "anger": 0.0446930006146431,
          "fear": 0.043046001344919205
        },
        "mainColor": {
          "r": 195,
          "b": 209,
          "g": 201
        },
        "origin": "http://www.nytimes.com/2015/09/27/arts/dance/new-york-city-ballet-gambles-on-unknown-choreographers.html",
        "text": "who turns 29 on Sunday"
      },
      {
        "originalSentence": "Over just the last year, the Whitney Museum of American Art, the Walker Art Center in Minneapolis, the Los Angeles County Museum of Art, the Dallas Museum of Art and the Nelson-Atkins Museum of Art in Kansas City, Mo, have hosted solo exhibitions devoted to underrecognized black artists",
        "emotions": {
          "joy": 0.796451985836029,
          "sadness": 0.6913830041885376,
          "disgust": 0.0945189967751503,
          "anger": 0.049042001366615295,
          "fear": 0.048590999096632004
        },
        "mainColor": {
          "r": 20,
          "b": 20,
          "g": 20
        },
        "origin": "http://www.nytimes.com/2015/11/29/arts/design/black-artists-and-the-march-into-the-museum.html",
        "text": "Over just the last year"
      },
      {
        "originalSentence": "This city has two dance companies famous beyond here: the Joffrey Ballet and Hubbard Street Dance Chicago",
        "emotions": {
          "joy": 0.7664080262184143,
          "sadness": 0.311955988407135,
          "disgust": 0.11518999934196472,
          "anger": 0.06835100054740906,
          "fear": 0.051910001784563065
        },
        "mainColor": {
          "r": 2,
          "b": 2,
          "g": 2
        },
        "origin": "http://www.nytimes.com/2015/10/17/arts/dance/review-hubbard-streets-feast-of-forsythe.html",
        "text": "This city has two dance companies famous beyond here"
      }
    ],
    [
      {
        "originalSentence": "Seattle is a beautiful city, with passionate fans desperate for a winner and a ballpark that might be the best in the majors",
        "emotions": {
          "joy": 0.8391820192337036,
          "sadness": 0.21358400583267212,
          "disgust": 0.05212699994444847,
          "anger": 0.05221400037407875,
          "fear": 0.06690400093793869
        },
        "mainColor": {
          "r": 92,
          "b": 36,
          "g": 61
        },
        "origin": "http://www.nytimes.com/2013/12/04/sports/baseball/a-rich-fix-in-the-spirit-of-steinbrenner.html",
        "text": "Seattle is a beautiful city"
      },
      {
        "originalSentence": "The subtlety and upper body refinement of the English style, the excellence of its dance-actors, and the specificity of some of its Ashton repertory, rarely danced elsewhere, are particular joys",
        "emotions": {
          "joy": 0.8206940293312073,
          "sadness": 0.11418599635362625,
          "disgust": 0.156358003616333,
          "anger": 0.15447799861431122,
          "fear": 0.029409000650048256
        },
        "mainColor": {
          "r": 16,
          "b": 41,
          "g": 34
        },
        "origin": "http://www.nytimes.com/2013/10/03/arts/dance/royal-ballets-quixote-quandary.html",
        "text": "the specificity of some of its Ashton repertory"
      },
      {
        "originalSentence": "Seattle is a beautiful city, with passionate fans desperate for a winner and a ballpark that might be the best in the majors",
        "emotions": {
          "joy": 0.8391820192337036,
          "sadness": 0.21358400583267212,
          "disgust": 0.05212699994444847,
          "anger": 0.05221400037407875,
          "fear": 0.06690400093793869
        },
        "mainColor": {
          "r": 92,
          "b": 36,
          "g": 61
        },
        "origin": "http://www.nytimes.com/2013/12/04/sports/baseball/a-rich-fix-in-the-spirit-of-steinbrenner.html",
        "text": "Seattle is a beautiful city"
      },
      {
        "originalSentence": "The subtlety and upper body refinement of the English style, the excellence of its dance-actors, and the specificity of some of its Ashton repertory, rarely danced elsewhere, are particular joys",
        "emotions": {
          "joy": 0.8206940293312073,
          "sadness": 0.11418599635362625,
          "disgust": 0.156358003616333,
          "anger": 0.15447799861431122,
          "fear": 0.029409000650048256
        },
        "mainColor": {
          "r": 16,
          "b": 41,
          "g": 34
        },
        "origin": "http://www.nytimes.com/2013/10/03/arts/dance/royal-ballets-quixote-quandary.html",
        "text": "the specificity of some of its Ashton repertory"
      },
      {
        "originalSentence": "came over the weekend to New York City Center, the mind flew to Stravinsky",
        "emotions": {
          "joy": 0.7934200167655945,
          "sadness": 0.13490399718284607,
          "disgust": 0.10119300335645676,
          "anger": 0.09777499735355377,
          "fear": 0.11806800216436386
        },
        "mainColor": {
          "r": 123,
          "b": 157,
          "g": 145
        },
        "origin": "http://www.nytimes.com/2015/11/23/arts/dance/review-thomas-ades-calls-for-complexity-at-city-center.html",
        "text": "came over the weekend to New York City Center"
      },
      {
        "originalSentence": "On Friday night at the David H Koch Theater, New York City Ballet presented both works in an all-Robbins program",
        "emotions": {
          "joy": 0.8475260138511658,
          "sadness": 0.14656299352645874,
          "disgust": 0.11290600150823593,
          "anger": 0.034147001802921295,
          "fear": 0.13761000335216522
        },
        "mainColor": {
          "r": 11,
          "b": 77,
          "g": 35
        },
        "origin": "http://www.nytimes.com/2013/05/06/arts/dance/new-york-city-ballet-at-lincoln-center.html",
        "text": "On Friday night at the David H Koch Theater"
      }
    ]
  ]
}